<?xml version="1.0" encoding="utf-8"?>
<!-- Generator: Adobe Illustrator 17.1.0, SVG Export Plug-In . SVG Version: 6.00 Build 0)  -->
<!DOCTYPE svg PUBLIC "-//W3C//DTD SVG 1.1//EN" "http://www.w3.org/Graphics/SVG/1.1/DTD/svg11.dtd">
<svg version="1.1" id="Layer_1" xmlns="http://www.w3.org/2000/svg" xmlns:xlink="http://www.w3.org/1999/xlink" x="0px" y="0px"
	 viewBox="0 0 612 792" enable-background="new 0 0 612 792" xml:space="preserve">
<g>
	<path fill="#FFFFFF" d="M44,371.1c-0.1-0.1-0.1-0.3-0.2-0.4c0.3-0.2,0.6-0.5,0.9-0.7c32.9-30.6,65.8-61.2,98.8-91.8
		c13-12.1,26.1-24.2,39.1-36.4c3.8-3.5,4-9.1,0.6-12.7c-3.3-3.5-8.2-3.4-12.1,0.3c-20.4,18.9-40.7,37.9-61.1,56.8
		c-29.9,27.8-59.8,55.5-89.6,83.3c-4.3,4-4.5,8.9-0.7,13.4c2.1,2.4,4.1,4.8,6.2,7.2c38.6,44.9,77.2,89.8,115.8,134.7
		c4.5,5.2,8.9,10.5,13.5,15.6c3.2,3.6,8.3,3.7,11.7,0.4c3.5-3.4,3.5-8.6,0-12.6c-39.7-46.1-79.3-92.2-119-138.3
		c-0.3-0.4-0.6-0.8-1.1-1.5c1,0,1.7,0,2.5,0c101.1,0,202.2,0,303.3,0c39.4,0,78.8-0.1,118.2,0.1c21.4,0.1,41,6.3,58.6,18.4
		c36.4,24.8,54.3,68.5,47.7,111.6c-4.3,28.7-17.6,52.6-39.9,71.2c-17.2,14.3-37.1,22.3-59.5,24c-2.5,0.2-5.1,0.3-7.6,0.4
		c0,5.8,0,11.4,0,17.4c5.8-0.5,11.6-0.8,17.2-1.6c23.9-3.4,44.9-13.2,62.9-29.1c26.7-23.6,41.3-53.5,44.3-89
		c1.9-21.9-1.6-43-10.3-63.2c-19.1-44.9-62.9-77.5-116.5-77.4c-140.6,0.3-281.1,0.1-421.7,0.1C45.4,371.1,44.7,371.1,44,371.1z"/>
	<path d="M44,371.1c0.7,0,1.4,0,2.1,0c140.6,0,281.1,0.2,421.7-0.1c53.6-0.1,97.3,32.5,116.5,77.4c8.6,20.2,12.1,41.4,10.3,63.2
		c-3,35.4-17.6,65.3-44.3,89c-18,15.9-39.1,25.7-62.9,29.1c-5.6,0.8-11.3,1.1-17.2,1.6c0-6.1,0-11.7,0-17.4c2.5-0.1,5.1-0.2,7.6-0.4
		c22.4-1.7,42.3-9.7,59.5-24c22.4-18.6,35.6-42.5,39.9-71.2c6.5-43-11.4-86.7-47.7-111.6c-17.7-12.1-37.2-18.3-58.6-18.4
		c-39.4-0.1-78.8,0-118.2-0.1c-101.1,0-202.2,0-303.3,0c-0.7,0-1.4,0-2.5,0c0.5,0.7,0.8,1.1,1.1,1.5c39.6,46.1,79.3,92.2,119,138.3
		c3.5,4,3.5,9.2,0,12.6c-3.4,3.3-8.5,3.2-11.7-0.4c-4.6-5.1-9-10.4-13.5-15.6C103.1,479.8,64.5,434.9,25.9,390
		c-2.1-2.4-4.1-4.8-6.2-7.2c-3.8-4.4-3.6-9.4,0.7-13.4c29.9-27.8,59.7-55.5,89.6-83.3c20.4-18.9,40.7-37.9,61.1-56.8
		c4-3.7,8.8-3.8,12.1-0.3c3.4,3.6,3.1,9.2-0.6,12.7c-13,12.1-26.1,24.3-39.1,36.4c-32.9,30.6-65.8,61.2-98.8,91.8
		c-0.3,0.3-0.6,0.5-0.9,0.7C43.9,370.8,43.9,370.9,44,371.1z"/>
</g>
</svg>
