<?xml version="1.0" encoding="utf-8"?>
<!-- Generator: Adobe Illustrator 16.0.0, SVG Export Plug-In . SVG Version: 6.00 Build 0)  -->
<!DOCTYPE svg PUBLIC "-//W3C//DTD SVG 1.1//EN" "http://www.w3.org/Graphics/SVG/1.1/DTD/svg11.dtd">
<svg version="1.1" id="Layer_1" xmlns="http://www.w3.org/2000/svg" xmlns:xlink="http://www.w3.org/1999/xlink" x="0px" y="0px"
	 width="12.063px" height="11.938px" viewBox="291.64 414.945 12.063 11.938" enable-background="new 291.64 414.945 12.063 11.938"
	 xml:space="preserve">
<g>
	
		<line fill="#DD8383" stroke="#44AFD9" stroke-width="2" stroke-linecap="round" stroke-miterlimit="10" x1="302.64" y1="425.945" x2="292.64" y2="415.945"/>
	
		<line fill="#DD8383" stroke="#44AFD9" stroke-width="2" stroke-linecap="round" stroke-miterlimit="10" x1="292.64" y1="425.945" x2="302.64" y2="415.945"/>
</g>
</svg>
