<?xml version="1.0" encoding="utf-8"?>
<!-- Generator: Adobe Illustrator 16.0.0, SVG Export Plug-In . SVG Version: 6.00 Build 0)  -->
<!DOCTYPE svg PUBLIC "-//W3C//DTD SVG 1.1//EN" "http://www.w3.org/Graphics/SVG/1.1/DTD/svg11.dtd">
<svg version="1.1" id="Layer_1" xmlns="http://www.w3.org/2000/svg" xmlns:xlink="http://www.w3.org/1999/xlink" x="0px" y="0px"
	 width="10px" height="10px" viewBox="0 0 10 10" enable-background="new 0 0 10 10" xml:space="preserve">
<g>
	
		<line fill="none" stroke="#CBCBCB" stroke-width="2" stroke-linecap="round" stroke-miterlimit="10" x1="9.219" y1="9" x2="1.25" y2="1.031"/>
	
		<line fill="none" stroke="#CBCBCB" stroke-width="2" stroke-linecap="round" stroke-miterlimit="10" x1="1.25" y1="9" x2="9.219" y2="1.031"/>
</g>
</svg>
