<?xml version="1.0" encoding="utf-8"?>
<!-- Generator: Adobe Illustrator 17.1.0, SVG Export Plug-In . SVG Version: 6.00 Build 0)  -->
<!DOCTYPE svg PUBLIC "-//W3C//DTD SVG 1.1//EN" "http://www.w3.org/Graphics/SVG/1.1/DTD/svg11.dtd">
<svg version="1.1" id="Layer_1" xmlns="http://www.w3.org/2000/svg" xmlns:xlink="http://www.w3.org/1999/xlink" x="0px" y="0px"
	 viewBox="0 369.1 1216 472.8" enable-background="new 0 369.1 1216 472.8" xml:space="preserve">
<g id="Слой_x0020_1">
	<path fill="#41B2DE" d="M38.5,755.7c2.4,3.6,40.4,67.2,112.1,67.2c65.2,0,118.1-49.4,118.1-110.3c0-0.7,0-1.3-0.1-2
		c0.2-2.5,0.3-5.1,0.3-7.6c0-54.4-44.1-98.6-98.6-98.6c-19.9,0-38.4,5.9-53.9,16c-5.4,3.5-12.7,0.1-13.3-6.3
		c-3-31.4,2.4-66.1,17-99.7c22.9-52.5,63.1-90.2,105.7-104.5c2.4-0.8,3.9-3.1,3.7-5.6c-0.1-0.9-0.2-1.8-0.2-2.6
		c-0.3-3.1-2.8-5.2-5.9-5.8c-42-8.7-148.2,64.8-183.3,146.1C5.6,621.7,6,705.8,38.5,755.7z"/>
	<path fill="#41B2DE" d="M358.6,755.7c2.4,3.6,40.4,67.2,112.1,67.2c65.2,0,118.1-49.4,118.1-110.3c0-0.7,0-1.3-0.1-2
		c0.2-2.5,0.3-5.1,0.3-7.6c0-54.4-44.1-98.6-98.6-98.6c-19.9,0-38.4,5.9-53.9,16c-5.4,3.5-12.7,0.1-13.3-6.3
		c-3-31.4,2.4-66.1,17-99.7c22.9-52.5,63.1-90.2,105.7-104.5c2.4-0.8,3.9-3.1,3.7-5.6c-0.1-0.9-0.2-1.8-0.2-2.6
		c-0.3-3.1-2.8-5.2-5.9-5.8c-42-8.7-148.2,64.8-183.3,146.1C325.7,621.7,326.1,705.8,358.6,755.7L358.6,755.7z"/>
</g>
<g id="Слой_x0020_1_1_">
	<path fill="#41B2DE" d="M1165.1,458.4c-2.4-3.6-40.4-67.2-112.1-67.2c-65.2,0-118.1,49.4-118.1,110.3c0,0.7,0,1.3,0.1,2
		c-0.2,2.5-0.3,5.1-0.3,7.6c0,54.4,44.1,98.6,98.6,98.6c19.9,0,38.4-5.9,53.9-16c5.4-3.5,12.7-0.1,13.3,6.3c3,31.4-2.4,66.1-17,99.7
		c-22.9,52.5-63.1,90.2-105.7,104.5c-2.4,0.8-3.9,3.1-3.7,5.6c0.1,0.9,0.2,1.8,0.2,2.6c0.3,3.1,2.8,5.2,5.9,5.8
		c42,8.7,148.2-64.8,183.3-146.1C1198.1,592.4,1197.6,508.3,1165.1,458.4z"/>
	<path fill="#41B2DE" d="M845,458.4c-2.4-3.6-40.4-67.2-112.1-67.2c-65.2,0-118.1,49.4-118.1,110.3c0,0.7,0,1.3,0.1,2
		c-0.2,2.5-0.3,5.1-0.3,7.6c0,54.4,44.1,98.6,98.6,98.6c19.9,0,38.4-5.9,53.9-16c5.4-3.5,12.7-0.1,13.3,6.3c3,31.4-2.4,66.1-17,99.7
		c-22.9,52.5-63.1,90.2-105.7,104.5c-2.4,0.8-3.9,3.1-3.7,5.6c0.1,0.9,0.2,1.8,0.2,2.6c0.3,3.1,2.8,5.2,5.9,5.8
		c42,8.7,148.2-64.8,183.3-146.1C878,592.4,877.6,508.3,845,458.4L845,458.4z"/>
</g>
</svg>
