<?xml version="1.0" encoding="utf-8"?>
<!-- Generator: Adobe Illustrator 16.0.0, SVG Export Plug-In . SVG Version: 6.00 Build 0)  -->
<!DOCTYPE svg PUBLIC "-//W3C//DTD SVG 1.1//EN" "http://www.w3.org/Graphics/SVG/1.1/DTD/svg11.dtd">
<svg version="1.1" id="Layer_1" xmlns="http://www.w3.org/2000/svg" xmlns:xlink="http://www.w3.org/1999/xlink" x="0px" y="0px"
	 width="29px" height="122.713px" viewBox="0 0 29 122.713" enable-background="new 0 0 29 122.713" xml:space="preserve">
<path fill="#43B2DC" d="M11.916,63.624l3.861,6.881l8.222,1.511l-5.538,5.704l1.007,7.721l-7.385-3.355L4.7,85.439l1.006-7.72
	L0,72.015l8.056-1.511L11.916,63.624"/>
<path fill="#D7D7D7" d="M11.916,0l3.861,6.881l8.222,1.511l-5.538,5.705l1.007,7.72l-7.385-3.356L4.7,21.816l1.006-7.72L0,8.392
	l8.056-1.511L11.916,0"/>
<path fill="#E3F4FD" stroke="#43B2DC" stroke-miterlimit="10" d="M12.066,32.239l3.586,6.392l7.638,1.403l-5.146,5.298l0.936,7.17
	l-6.857-3.117l-6.858,3.117l0.934-7.17L1,40.034l7.481-1.403L12.066,32.239z"/>
<path fill="#FFFFFF" d="M11.916,95.624l3.861,6.881l8.222,1.511l-5.538,5.704l1.007,7.721l-7.385-3.355L4.7,117.439l1.006-7.72
	L0,104.015l8.056-1.511L11.916,95.624"/>
</svg>
