<?xml version="1.0" encoding="utf-8"?>
<!-- Generator: Adobe Illustrator 16.0.0, SVG Export Plug-In . SVG Version: 6.00 Build 0)  -->
<!DOCTYPE svg PUBLIC "-//W3C//DTD SVG 1.1//EN" "http://www.w3.org/Graphics/SVG/1.1/DTD/svg11.dtd">
<svg version="1.1" id="Layer_1" xmlns="http://www.w3.org/2000/svg" xmlns:xlink="http://www.w3.org/1999/xlink" x="0px" y="0px"
	 width="90px" height="468.166px" viewBox="0 0 90 468.166" enable-background="new 0 0 90 468.166" xml:space="preserve">
<g>
	<path fill="none" stroke="#939393" stroke-width="1.5" stroke-linecap="round" stroke-linejoin="round" stroke-miterlimit="10" d="
		M30.113,24.317l-1.36-11.081c-0.313-2.927-3.136-4.81-5.959-4.077l0,0c-1.881,0.522-3.136,1.986-3.449,3.659
		c-0.941-0.209-2.091-0.419-3.137-0.419s-2.195,0.105-3.136,0.419c-0.314-1.673-1.673-3.241-3.45-3.659
		c-2.928-0.732-5.75,1.15-6.168,4.077L2.201,24.317c-0.105,1.568,0.836,2.927,2.404,3.346c1.568,0.418,3.136-0.314,3.763-1.777
		l1.568-3.659c1.568,1.046,3.868,1.673,6.272,1.673s4.704-0.627,6.272-1.673l1.568,3.659c0.626,1.358,2.196,2.195,3.763,1.777
		C29.277,27.348,30.218,25.885,30.113,24.317z"/>
	<g>
		
			<line fill="none" stroke="#939393" stroke-linecap="round" stroke-miterlimit="10" x1="8.369" y1="12.713" x2="8.369" y2="16.895"/>
		
			<line fill="none" stroke="#939393" stroke-linecap="round" stroke-miterlimit="10" x1="10.459" y1="14.804" x2="6.278" y2="14.804"/>
	</g>
	<g>
		<g>
			<circle fill="none" stroke="#939393" stroke-linecap="round" stroke-miterlimit="10" cx="24.154" cy="12.922" r="0.313"/>
			<circle fill="none" stroke="#939393" stroke-linecap="round" stroke-miterlimit="10" cx="24.154" cy="16.373" r="0.313"/>
		</g>
		<g>
			<circle fill="none" stroke="#939393" stroke-linecap="round" stroke-miterlimit="10" cx="25.931" cy="14.699" r="0.314"/>
			<circle fill="none" stroke="#939393" stroke-linecap="round" stroke-miterlimit="10" cx="22.481" cy="14.699" r="0.314"/>
		</g>
	</g>
</g>
<g>
	
		<line fill="none" stroke="#939393" stroke-width="1.5" stroke-linecap="round" stroke-linejoin="round" stroke-miterlimit="10" x1="16.062" y1="40.858" x2="16.062" y2="44.232"/>
	<path fill="none" stroke="#939393" stroke-width="1.5" stroke-linecap="round" stroke-linejoin="round" stroke-miterlimit="10" d="
		M18.004,57.729c-0.512,0.102-1.124,0.102-1.738,0.102c-0.817,0-1.533-0.102-2.146-0.203"/>
	
		<line fill="none" stroke="#939393" stroke-width="1.5" stroke-linecap="round" stroke-linejoin="round" stroke-miterlimit="10" x1="22.502" y1="65.703" x2="23.115" y2="67.852"/>
	
		<line fill="none" stroke="#939393" stroke-width="1.5" stroke-linecap="round" stroke-linejoin="round" stroke-miterlimit="10" x1="9.62" y1="65.703" x2="9.006" y2="67.852"/>
	<g>
		<path fill="none" stroke="#939393" stroke-linecap="round" stroke-linejoin="round" stroke-miterlimit="10" d="M18.414,47.504
			c-0.309,1.021-1.229,1.738-2.353,1.738h-0.103l4.601,16.461l2.761-0.613L18.414,47.504z"/>
		<path fill="none" stroke="#939393" stroke-linecap="round" stroke-linejoin="round" stroke-miterlimit="10" d="M16.062,49.242
			c-1.125,0-2.046-0.717-2.351-1.738L8.7,65.09l2.76,0.613L16.062,49.242L16.062,49.242z"/>
	</g>
	
		<circle fill="none" stroke="#939393" stroke-width="1.5" stroke-linecap="round" stroke-linejoin="round" stroke-miterlimit="10" cx="16.062" cy="46.687" r="2.555"/>
</g>
<g>
	
		<line fill="none" stroke="#939393" stroke-width="1.5" stroke-linecap="round" stroke-linejoin="round" stroke-miterlimit="10" x1="16.516" y1="262.166" x2="16.516" y2="257.937"/>
	
		<line fill="none" stroke="#939393" stroke-width="1.5" stroke-linecap="round" stroke-linejoin="round" stroke-miterlimit="10" x1="7.723" y1="262.166" x2="25.307" y2="262.166"/>
	<g>
		<g>
			<polyline fill="none" stroke="#939393" stroke-linecap="round" stroke-linejoin="round" stroke-miterlimit="10" points="
				2.38,276.746 7.5,262.166 12.729,276.746 			"/>
			
				<path fill="none" stroke="#939393" stroke-width="1.5" stroke-linecap="round" stroke-linejoin="round" stroke-miterlimit="10" d="
				M2.38,277.078c1.001,1.781,2.894,3.006,5.12,3.006s4.117-1.225,5.118-3.006H2.38z"/>
		</g>
		<g>
			<polyline fill="none" stroke="#939393" stroke-linecap="round" stroke-linejoin="round" stroke-miterlimit="10" points="
				20.188,276.746 25.417,262.166 30.537,276.746 			"/>
			
				<path fill="none" stroke="#939393" stroke-width="1.5" stroke-linecap="round" stroke-linejoin="round" stroke-miterlimit="10" d="
				M20.299,277.078c1,1.781,2.895,3.006,5.118,3.006c2.226,0,4.118-1.225,5.12-3.006H20.299z"/>
		</g>
	</g>
</g>
<g>
	<path fill="none" stroke="#939393" stroke-width="1.5" stroke-linecap="round" stroke-linejoin="round" stroke-miterlimit="10" d="
		M5.121,452.166c8.512,0.842,15.975,3.258,20.598,6.201V438.4c-4.623,3.047-12.086,5.359-20.598,6.305c-0.105,0-0.314,0-0.631,0
		c-1.576,0-2.942,1.262-2.942,2.838v1.683c0,1.575,1.261,2.836,2.839,2.94C4.807,452.166,5.016,452.166,5.121,452.166z"/>
	
		<line fill="none" stroke="#939393" stroke-linecap="round" stroke-linejoin="round" stroke-miterlimit="10" x1="10.9" y1="444.6" x2="10.9" y2="453.007"/>
	<path fill="none" stroke="#939393" stroke-width="1.5" stroke-linecap="round" stroke-linejoin="round" stroke-miterlimit="10" d="
		M6.171,452.271"/>
	<path fill="none" stroke="#939393" stroke-width="1.5" stroke-linecap="round" stroke-linejoin="round" stroke-miterlimit="10" d="
		M6.066,452.271"/>
	<path fill="none" stroke="#939393" stroke-width="1.5" stroke-linecap="round" stroke-linejoin="round" stroke-miterlimit="10" d="
		M9.43,452.796v7.355c0,0.842,0.631,1.471,1.473,1.471c0.84,0,1.471-0.629,1.471-1.471v-6.725
		C11.426,453.111,10.48,453.007,9.43,452.796z"/>
	<polygon fill="none" stroke="#939393" stroke-linecap="round" stroke-linejoin="round" stroke-miterlimit="10" points="
		25.613,445.02 25.613,451.852 29.5,450.589 29.5,446.281 	"/>
</g>
<g>
	
		<line fill="none" stroke="#939393" stroke-linecap="round" stroke-linejoin="round" stroke-miterlimit="10" x1="10.361" y1="99.186" x2="24.991" y2="99.186"/>
	<path fill="none" stroke="#939393" stroke-width="1.5" stroke-linecap="round" stroke-linejoin="round" stroke-miterlimit="10" d="
		M7.575,99.186V82.765c0-1.493,1.293-2.786,2.786-2.786H25.09v16.42H10.361C8.868,96.398,7.575,97.693,7.575,99.186z"/>
	<path fill="none" stroke="#939393" stroke-width="1.5" stroke-linecap="round" stroke-linejoin="round" stroke-miterlimit="10" d="
		M7.575,99.186c0,1.492,1.194,2.787,2.786,2.787h14.431"/>
	
		<rect x="12.352" y="82.964" fill="none" stroke="#939393" stroke-linecap="round" stroke-linejoin="round" stroke-miterlimit="10" width="9.752" height="4.179"/>
</g>
<g>
	<path fill="none" stroke="#939393" stroke-width="1.5" stroke-linecap="round" stroke-linejoin="round" stroke-miterlimit="10" d="
		M26.938,315.883H6c-1.181,0-2.146-0.966-2.146-2.146v-13.1c0-1.182,0.967-2.146,2.146-2.146h20.831
		c1.181,0,2.146,0.966,2.146,2.146v13.1C29.086,314.918,28.118,315.883,26.938,315.883z"/>
	<path fill="none" stroke="#939393" stroke-width="1.5" stroke-linecap="round" stroke-linejoin="round" stroke-miterlimit="10" d="
		M22,298.492H10.939v-1.826c0-1.503,1.287-2.791,2.792-2.791h5.478c1.502,0,2.791,1.288,2.791,2.791V298.492z"/>
	<g>
		
			<line fill="none" stroke="#939393" stroke-linecap="round" stroke-linejoin="round" stroke-miterlimit="10" x1="8.256" y1="301.281" x2="8.256" y2="313.092"/>
		
			<line fill="none" stroke="#939393" stroke-linecap="round" stroke-linejoin="round" stroke-miterlimit="10" x1="24.684" y1="301.281" x2="24.684" y2="313.092"/>
	</g>
</g>
<g>
	
		<rect x="3.527" y="331.833" fill="none" stroke="#939393" stroke-width="1.5" stroke-linecap="round" stroke-linejoin="round" stroke-miterlimit="10" width="26.635" height="18.439"/>
	<g>
		<polyline fill="none" stroke="#939393" stroke-linecap="round" stroke-linejoin="round" stroke-miterlimit="10" points="
			12.977,344.812 9.219,341.052 12.977,337.298 		"/>
		
			<line fill="none" stroke="#939393" stroke-linecap="round" stroke-linejoin="round" stroke-miterlimit="10" x1="17.072" y1="344.812" x2="22.082" y2="344.812"/>
	</g>
	
		<rect x="12.521" y="350.503" fill="none" stroke="#939393" stroke-width="1.5" stroke-linecap="round" stroke-linejoin="round" stroke-miterlimit="10" width="8.535" height="3.526"/>
</g>
<g>
	
		<rect x="13.9" y="151.308" fill="none" stroke="#939393" stroke-width="1.5" stroke-linecap="round" stroke-linejoin="round" stroke-miterlimit="10" width="5.305" height="9.87"/>
	<path fill="none" stroke="#939393" stroke-width="1.5" stroke-linecap="round" stroke-linejoin="round" stroke-miterlimit="10" d="
		M25.251,175.489H7.855c-1.851,0-2.961-2.097-1.851-3.577l7.896-10.858h5.305l7.896,10.858
		C28.088,173.515,27.101,175.489,25.251,175.489z"/>
	
		<rect x="12.914" y="148.347" fill="none" stroke="#939393" stroke-width="1.5" stroke-linecap="round" stroke-linejoin="round" stroke-miterlimit="10" width="7.279" height="2.961"/>
	<path fill="none" stroke="#939393" stroke-linecap="round" stroke-linejoin="round" stroke-miterlimit="10" d="M8.842,168.828
		c2.591-1.853,5.305-1.111,7.896,0c2.59,1.11,5.674,0.121,6.292-1.111"/>
</g>
<g>
	<g>
		<g>
			<path fill="#231F20" stroke="#939393" stroke-miterlimit="10" d="M16.225,135.53c0.355,0,0.592,0.236,0.592,0.592
				c0,0.354-0.237,0.592-0.592,0.592s-0.592-0.237-0.592-0.592S15.87,135.53,16.225,135.53 M16.225,134.347
				c-0.947,0-1.775,0.828-1.775,1.775c0,0.946,0.828,1.774,1.775,1.774c0.947,0,1.776-0.828,1.776-1.774
				C18.001,135.175,17.172,134.347,16.225,134.347L16.225,134.347z"/>
		</g>
	</g>
	
		<line fill="none" stroke="#939393" stroke-linecap="round" stroke-linejoin="round" stroke-miterlimit="10" x1="10.309" y1="132.216" x2="22.142" y2="132.216"/>
	<g>
		
			<rect x="10.9" y="118.135" fill="none" stroke="#939393" stroke-linecap="round" stroke-linejoin="round" stroke-miterlimit="10" width="1.183" height="1.184"/>
		
			<rect x="15.633" y="118.135" fill="none" stroke="#939393" stroke-linecap="round" stroke-linejoin="round" stroke-miterlimit="10" width="1.184" height="1.184"/>
		
			<rect x="20.367" y="118.135" fill="none" stroke="#939393" stroke-linecap="round" stroke-linejoin="round" stroke-miterlimit="10" width="1.184" height="1.184"/>
	</g>
	<g>
		
			<rect x="10.9" y="127.838" fill="none" stroke="#939393" stroke-linecap="round" stroke-linejoin="round" stroke-miterlimit="10" width="1.183" height="1.183"/>
		
			<rect x="15.633" y="127.838" fill="none" stroke="#939393" stroke-linecap="round" stroke-linejoin="round" stroke-miterlimit="10" width="1.184" height="1.183"/>
	</g>
	<g>
		
			<rect x="10.9" y="122.986" fill="none" stroke="#939393" stroke-linecap="round" stroke-linejoin="round" stroke-miterlimit="10" width="1.183" height="1.184"/>
		
			<rect x="15.633" y="122.986" fill="none" stroke="#939393" stroke-linecap="round" stroke-linejoin="round" stroke-miterlimit="10" width="1.184" height="1.184"/>
		
			<rect x="20.367" y="122.986" fill="none" stroke="#939393" stroke-linecap="round" stroke-linejoin="round" stroke-miterlimit="10" width="1.184" height="1.184"/>
	</g>
	<path fill="none" stroke="#939393" stroke-width="1.5" stroke-linecap="round" stroke-linejoin="round" stroke-miterlimit="10" d="
		M22.024,140.026H10.19c-1.302,0-2.367-1.063-2.367-2.366v-22.484c0-1.302,1.065-2.367,2.367-2.367h11.834
		c1.301,0,2.367,1.065,2.367,2.367v22.484C24.391,139.08,23.444,140.026,22.024,140.026z"/>
</g>
<path fill="none" stroke="#939393" stroke-width="1.5" stroke-linecap="round" stroke-linejoin="round" stroke-miterlimit="10" d="
	M24.591,194.333h-4.688v-4.688c0-1.198-0.981-2.181-2.181-2.181h-3.708c-1.198,0-2.181,0.981-2.181,2.181v4.688H7.145
	c-1.198,0-2.181,0.981-2.181,2.182v3.816c0,1.198,0.982,2.182,2.181,2.182h4.688v4.688c0,1.198,0.982,2.182,2.181,2.182h3.816
	c1.199,0,2.182-0.982,2.182-2.182v-4.688H24.7c1.198,0,2.181-0.982,2.181-2.182v-3.816
	C26.771,195.315,25.898,194.333,24.591,194.333z"/>
<g>
	
		<polygon fill="none" stroke="#939393" stroke-width="1.5" stroke-linecap="round" stroke-linejoin="round" stroke-miterlimit="10" points="
		29.352,383.731 14.053,383.731 9.871,377.613 14.053,371.494 29.352,371.494 	"/>
	
		<circle fill="none" stroke="#939393" stroke-linecap="round" stroke-linejoin="round" stroke-miterlimit="10" cx="14.768" cy="377.714" r="1.02"/>
	<path fill="none" stroke="#939393" stroke-linecap="round" stroke-linejoin="round" stroke-miterlimit="10" d="M14.768,377.613"/>
	<path fill="none" stroke="#939393" stroke-linecap="round" stroke-linejoin="round" stroke-miterlimit="10" d="M14.665,377.613"/>
	<path fill="none" stroke="#939393" stroke-linecap="round" stroke-miterlimit="10" d="M14.768,378.123
		c0,2.242-1.838,4.078-4.08,4.078l0,0c-2.244,0-4.08-1.836-4.08-4.078l0,0v-2.244l0,0c0-1.528-1.225-2.754-2.752-2.754l0,0
		c-1.633,0-2.855,1.226-2.855,2.754l0,0"/>
	
		<circle fill="none" stroke="#939393" stroke-linecap="round" stroke-linejoin="round" stroke-miterlimit="10" cx="14.665" cy="377.714" r="1.02"/>
</g>
<g>
	
		<rect x="2.438" y="405.864" fill="none" stroke="#939393" stroke-width="1.5" stroke-linecap="round" stroke-linejoin="round" stroke-miterlimit="10" width="25.248" height="13.595"/>
	<polygon fill="none" stroke="#939393" stroke-linejoin="round" stroke-miterlimit="10" points="27.588,409.845 27.588,419.556 
		5.253,419.556 5.253,422.468 30.5,422.468 30.5,409.845 	"/>
	<circle fill="none" stroke="#939393" stroke-linejoin="round" stroke-miterlimit="10" cx="15.063" cy="412.661" r="3.399"/>
	
		<line fill="none" stroke="#939393" stroke-linecap="round" stroke-linejoin="round" stroke-miterlimit="10" x1="5.253" y1="408.776" x2="5.253" y2="416.544"/>
	
		<line fill="none" stroke="#939393" stroke-linecap="round" stroke-linejoin="round" stroke-miterlimit="10" x1="24.675" y1="408.776" x2="24.675" y2="416.544"/>
</g>
<g>
	
		<line fill="none" stroke="#939393" stroke-linecap="round" stroke-linejoin="round" stroke-miterlimit="10" x1="10.631" y1="228.507" x2="21.584" y2="228.507"/>
	
		<line fill="none" stroke="#939393" stroke-linecap="round" stroke-linejoin="round" stroke-miterlimit="10" x1="10.631" y1="231.354" x2="21.584" y2="231.354"/>
	
		<line fill="none" stroke="#939393" stroke-linecap="round" stroke-linejoin="round" stroke-miterlimit="10" x1="10.631" y1="234.203" x2="17.751" y2="234.203"/>
	<g>
		<path fill="#231F20" stroke="#939393" stroke-miterlimit="10" d="M11.726,238.693C11.835,238.693,11.835,238.805,11.726,238.693
			c0.657,0,1.095,0.549,1.095,1.205c0,0.548-0.548,0.986-1.095,0.986c0,0,0,0-0.11,0c-0.657,0-1.095-0.549-0.985-1.205
			C10.74,239.242,11.178,238.693,11.726,238.693 M11.726,237.598L11.726,237.598c-1.205,0-2.081,0.877-2.191,2.082
			c-0.109,1.206,0.876,2.19,2.081,2.3h0.11c1.205,0,2.081-0.876,2.19-2.081c0-0.547-0.219-1.094-0.547-1.532
			c-0.438-0.438-0.876-0.658-1.534-0.769C11.835,237.708,11.835,237.598,11.726,237.598L11.726,237.598z"/>
	</g>
	<g>
		
			<polygon fill="none" stroke="#939393" stroke-width="1.5" stroke-linecap="round" stroke-linejoin="round" stroke-miterlimit="10" points="
			21.037,220.621 6.797,220.621 6.797,245.158 25.418,245.158 25.418,225.003 		"/>
	</g>
	<polygon fill="none" stroke="#939393" stroke-linecap="round" stroke-linejoin="round" stroke-miterlimit="10" points="
		21.037,225.111 25.418,225.111 21.037,220.73 	"/>
</g>
<g>
	<path fill="none" stroke="#000000" stroke-width="1.5" stroke-linecap="round" stroke-linejoin="round" stroke-miterlimit="10" d="
		M89.113,24.317l-1.36-11.081c-0.313-2.927-3.136-4.81-5.959-4.077l0,0c-1.881,0.522-3.136,1.986-3.448,3.659
		c-0.941-0.209-2.092-0.419-3.138-0.419s-2.194,0.105-3.136,0.419c-0.314-1.673-1.674-3.241-3.45-3.659
		c-2.929-0.732-5.75,1.15-6.168,4.077l-1.253,11.081c-0.105,1.568,0.836,2.927,2.404,3.346c1.567,0.418,3.136-0.314,3.763-1.777
		l1.567-3.659c1.568,1.046,3.869,1.673,6.272,1.673s4.704-0.627,6.272-1.673l1.567,3.659c0.626,1.358,2.196,2.195,3.763,1.777
		C88.277,27.348,89.218,25.885,89.113,24.317z"/>
	<g>
		
			<line fill="none" stroke="#000000" stroke-linecap="round" stroke-miterlimit="10" x1="67.369" y1="12.713" x2="67.369" y2="16.895"/>
		
			<line fill="none" stroke="#000000" stroke-linecap="round" stroke-miterlimit="10" x1="69.459" y1="14.804" x2="65.277" y2="14.804"/>
	</g>
	<g>
		<g>
			<circle fill="none" stroke="#000000" stroke-linecap="round" stroke-miterlimit="10" cx="83.154" cy="12.922" r="0.313"/>
			<circle fill="none" stroke="#000000" stroke-linecap="round" stroke-miterlimit="10" cx="83.154" cy="16.373" r="0.313"/>
		</g>
		<g>
			<circle fill="none" stroke="#000000" stroke-linecap="round" stroke-miterlimit="10" cx="84.932" cy="14.699" r="0.314"/>
			<circle fill="none" stroke="#000000" stroke-linecap="round" stroke-miterlimit="10" cx="81.48" cy="14.699" r="0.314"/>
		</g>
	</g>
</g>
<g>
	
		<line fill="none" stroke="#000000" stroke-width="1.5" stroke-linecap="round" stroke-linejoin="round" stroke-miterlimit="10" x1="75.063" y1="40.858" x2="75.063" y2="44.232"/>
	<path fill="none" stroke="#000000" stroke-width="1.5" stroke-linecap="round" stroke-linejoin="round" stroke-miterlimit="10" d="
		M77.004,57.729c-0.512,0.103-1.124,0.103-1.738,0.103c-0.816,0-1.533-0.103-2.146-0.203"/>
	
		<line fill="none" stroke="#000000" stroke-width="1.5" stroke-linecap="round" stroke-linejoin="round" stroke-miterlimit="10" x1="81.502" y1="65.703" x2="82.115" y2="67.852"/>
	
		<line fill="none" stroke="#000000" stroke-width="1.5" stroke-linecap="round" stroke-linejoin="round" stroke-miterlimit="10" x1="68.62" y1="65.703" x2="68.006" y2="67.852"/>
	<g>
		<path fill="none" stroke="#000000" stroke-linecap="round" stroke-linejoin="round" stroke-miterlimit="10" d="M77.414,47.504
			c-0.309,1.021-1.229,1.738-2.354,1.738h-0.103l4.601,16.46l2.762-0.613L77.414,47.504z"/>
		<path fill="none" stroke="#000000" stroke-linecap="round" stroke-linejoin="round" stroke-miterlimit="10" d="M75.063,49.242
			c-1.125,0-2.047-0.717-2.352-1.738L67.7,65.089l2.76,0.613L75.063,49.242L75.063,49.242z"/>
	</g>
	
		<circle fill="none" stroke="#000000" stroke-width="1.5" stroke-linecap="round" stroke-linejoin="round" stroke-miterlimit="10" cx="75.063" cy="46.687" r="2.555"/>
</g>
<g>
	
		<line fill="none" stroke="#000000" stroke-width="1.5" stroke-linecap="round" stroke-linejoin="round" stroke-miterlimit="10" x1="75.516" y1="262.166" x2="75.516" y2="257.937"/>
	
		<line fill="none" stroke="#000000" stroke-width="1.5" stroke-linecap="round" stroke-linejoin="round" stroke-miterlimit="10" x1="66.723" y1="262.166" x2="84.307" y2="262.166"/>
	<g>
		<g>
			<polyline fill="none" stroke="#000000" stroke-linecap="round" stroke-linejoin="round" stroke-miterlimit="10" points="
				61.38,276.746 66.5,262.166 71.729,276.746 			"/>
			
				<path fill="none" stroke="#000000" stroke-width="1.5" stroke-linecap="round" stroke-linejoin="round" stroke-miterlimit="10" d="
				M61.38,277.078c1.001,1.781,2.894,3.006,5.12,3.006s4.117-1.225,5.118-3.006H61.38z"/>
		</g>
		<g>
			<polyline fill="none" stroke="#000000" stroke-linecap="round" stroke-linejoin="round" stroke-miterlimit="10" points="
				79.188,276.746 84.417,262.166 89.537,276.746 			"/>
			
				<path fill="none" stroke="#000000" stroke-width="1.5" stroke-linecap="round" stroke-linejoin="round" stroke-miterlimit="10" d="
				M79.299,277.078c1,1.781,2.895,3.006,5.118,3.006c2.226,0,4.118-1.225,5.12-3.006H79.299z"/>
		</g>
	</g>
</g>
<g>
	<path fill="none" stroke="#000000" stroke-width="1.5" stroke-linecap="round" stroke-linejoin="round" stroke-miterlimit="10" d="
		M64.121,452.166c8.512,0.842,15.975,3.258,20.598,6.201V438.4c-4.623,3.047-12.086,5.359-20.598,6.305c-0.105,0-0.314,0-0.631,0
		c-1.576,0-2.942,1.262-2.942,2.838v1.683c0,1.575,1.261,2.836,2.839,2.94C63.807,452.166,64.016,452.166,64.121,452.166z"/>
	
		<line fill="none" stroke="#000000" stroke-linecap="round" stroke-linejoin="round" stroke-miterlimit="10" x1="69.9" y1="444.6" x2="69.9" y2="453.007"/>
	<path fill="none" stroke="#000000" stroke-width="1.5" stroke-linecap="round" stroke-linejoin="round" stroke-miterlimit="10" d="
		M65.171,452.271"/>
	<path fill="none" stroke="#000000" stroke-width="1.5" stroke-linecap="round" stroke-linejoin="round" stroke-miterlimit="10" d="
		M65.066,452.271"/>
	<path fill="none" stroke="#000000" stroke-width="1.5" stroke-linecap="round" stroke-linejoin="round" stroke-miterlimit="10" d="
		M68.43,452.796v7.355c0,0.842,0.631,1.471,1.473,1.471c0.84,0,1.471-0.629,1.471-1.471v-6.725
		C70.426,453.111,69.48,453.007,68.43,452.796z"/>
	<polygon fill="none" stroke="#000000" stroke-linecap="round" stroke-linejoin="round" stroke-miterlimit="10" points="
		84.613,445.02 84.613,451.852 88.5,450.589 88.5,446.281 	"/>
</g>
<g>
	
		<line fill="none" stroke="#000000" stroke-linecap="round" stroke-linejoin="round" stroke-miterlimit="10" x1="69.361" y1="99.186" x2="83.991" y2="99.186"/>
	<path fill="none" stroke="#000000" stroke-width="1.5" stroke-linecap="round" stroke-linejoin="round" stroke-miterlimit="10" d="
		M66.575,99.186V82.765c0-1.493,1.293-2.786,2.786-2.786H84.09v16.42H69.361C67.868,96.398,66.575,97.693,66.575,99.186z"/>
	<path fill="none" stroke="#000000" stroke-width="1.5" stroke-linecap="round" stroke-linejoin="round" stroke-miterlimit="10" d="
		M66.575,99.186c0,1.491,1.194,2.787,2.786,2.787h14.431"/>
	
		<rect x="71.352" y="82.964" fill="none" stroke="#000000" stroke-linecap="round" stroke-linejoin="round" stroke-miterlimit="10" width="9.752" height="4.179"/>
</g>
<g>
	<path fill="none" stroke="#000000" stroke-width="1.5" stroke-linecap="round" stroke-linejoin="round" stroke-miterlimit="10" d="
		M85.938,315.883H65c-1.181,0-2.146-0.966-2.146-2.146v-13.1c0-1.182,0.967-2.146,2.146-2.146h20.831
		c1.181,0,2.146,0.966,2.146,2.146v13.1C88.086,314.918,87.118,315.883,85.938,315.883z"/>
	<path fill="none" stroke="#000000" stroke-width="1.5" stroke-linecap="round" stroke-linejoin="round" stroke-miterlimit="10" d="
		M81,298.492H69.939v-1.826c0-1.503,1.287-2.791,2.792-2.791h5.478c1.502,0,2.791,1.288,2.791,2.791V298.492z"/>
	<g>
		
			<line fill="none" stroke="#000000" stroke-linecap="round" stroke-linejoin="round" stroke-miterlimit="10" x1="67.256" y1="301.281" x2="67.256" y2="313.092"/>
		
			<line fill="none" stroke="#000000" stroke-linecap="round" stroke-linejoin="round" stroke-miterlimit="10" x1="83.684" y1="301.281" x2="83.684" y2="313.092"/>
	</g>
</g>
<g>
	
		<rect x="62.527" y="331.833" fill="none" stroke="#000000" stroke-width="1.5" stroke-linecap="round" stroke-linejoin="round" stroke-miterlimit="10" width="26.635" height="18.439"/>
	<g>
		<polyline fill="none" stroke="#000000" stroke-linecap="round" stroke-linejoin="round" stroke-miterlimit="10" points="
			71.977,344.812 68.219,341.052 71.977,337.298 		"/>
		
			<line fill="none" stroke="#000000" stroke-linecap="round" stroke-linejoin="round" stroke-miterlimit="10" x1="76.072" y1="344.812" x2="81.082" y2="344.812"/>
	</g>
	
		<rect x="71.521" y="350.503" fill="none" stroke="#000000" stroke-width="1.5" stroke-linecap="round" stroke-linejoin="round" stroke-miterlimit="10" width="8.535" height="3.526"/>
</g>
<g>
	
		<rect x="72.9" y="151.308" fill="none" stroke="#000000" stroke-width="1.5" stroke-linecap="round" stroke-linejoin="round" stroke-miterlimit="10" width="5.305" height="9.87"/>
	<path fill="none" stroke="#000000" stroke-width="1.5" stroke-linecap="round" stroke-linejoin="round" stroke-miterlimit="10" d="
		M84.251,175.489H66.855c-1.852,0-2.961-2.097-1.852-3.577l7.896-10.858h5.305l7.896,10.858
		C87.088,173.515,86.102,175.489,84.251,175.489z"/>
	
		<rect x="71.914" y="148.347" fill="none" stroke="#000000" stroke-width="1.5" stroke-linecap="round" stroke-linejoin="round" stroke-miterlimit="10" width="7.279" height="2.961"/>
	<path fill="none" stroke="#000000" stroke-linecap="round" stroke-linejoin="round" stroke-miterlimit="10" d="M67.842,168.828
		c2.592-1.853,5.305-1.111,7.896,0c2.59,1.11,5.674,0.121,6.291-1.111"/>
</g>
<g>
	<g>
		<g>
			<path fill="#231F20" stroke="#000000" stroke-miterlimit="10" d="M75.225,135.53c0.355,0,0.592,0.236,0.592,0.593
				c0,0.354-0.236,0.592-0.592,0.592c-0.354,0-0.592-0.237-0.592-0.592C74.633,135.767,74.87,135.53,75.225,135.53 M75.225,134.347
				c-0.947,0-1.774,0.828-1.774,1.775c0,0.945,0.827,1.773,1.774,1.773s1.776-0.828,1.776-1.773
				C77.001,135.175,76.172,134.347,75.225,134.347L75.225,134.347z"/>
		</g>
	</g>
	
		<line fill="none" stroke="#000000" stroke-linecap="round" stroke-linejoin="round" stroke-miterlimit="10" x1="69.309" y1="132.216" x2="81.143" y2="132.216"/>
	<g>
		
			<rect x="69.9" y="118.134" fill="none" stroke="#000000" stroke-linecap="round" stroke-linejoin="round" stroke-miterlimit="10" width="1.183" height="1.185"/>
		
			<rect x="74.633" y="118.134" fill="none" stroke="#000000" stroke-linecap="round" stroke-linejoin="round" stroke-miterlimit="10" width="1.184" height="1.185"/>
		
			<rect x="79.367" y="118.134" fill="none" stroke="#000000" stroke-linecap="round" stroke-linejoin="round" stroke-miterlimit="10" width="1.184" height="1.185"/>
	</g>
	<g>
		
			<rect x="69.9" y="127.837" fill="none" stroke="#000000" stroke-linecap="round" stroke-linejoin="round" stroke-miterlimit="10" width="1.183" height="1.184"/>
		
			<rect x="74.633" y="127.837" fill="none" stroke="#000000" stroke-linecap="round" stroke-linejoin="round" stroke-miterlimit="10" width="1.184" height="1.184"/>
	</g>
	<g>
		
			<rect x="69.9" y="122.986" fill="none" stroke="#000000" stroke-linecap="round" stroke-linejoin="round" stroke-miterlimit="10" width="1.183" height="1.184"/>
		
			<rect x="74.633" y="122.986" fill="none" stroke="#000000" stroke-linecap="round" stroke-linejoin="round" stroke-miterlimit="10" width="1.184" height="1.184"/>
		
			<rect x="79.367" y="122.986" fill="none" stroke="#000000" stroke-linecap="round" stroke-linejoin="round" stroke-miterlimit="10" width="1.184" height="1.184"/>
	</g>
	<path fill="none" stroke="#000000" stroke-width="1.5" stroke-linecap="round" stroke-linejoin="round" stroke-miterlimit="10" d="
		M81.023,140.026H69.189c-1.301,0-2.367-1.063-2.367-2.366v-22.484c0-1.301,1.066-2.366,2.367-2.366h11.834
		c1.302,0,2.367,1.065,2.367,2.366v22.484C83.391,139.08,82.443,140.026,81.023,140.026z"/>
</g>
<path fill="none" stroke="#000000" stroke-width="1.5" stroke-linecap="round" stroke-linejoin="round" stroke-miterlimit="10" d="
	M83.591,194.333h-4.688v-4.688c0-1.198-0.98-2.181-2.18-2.181h-3.709c-1.197,0-2.181,0.981-2.181,2.181v4.688h-4.688
	c-1.197,0-2.181,0.981-2.181,2.182v3.816c0,1.198,0.981,2.182,2.181,2.182h4.688v4.688c0,1.198,0.981,2.182,2.181,2.182h3.816
	c1.199,0,2.182-0.982,2.182-2.182v-4.688H83.7c1.198,0,2.181-0.982,2.181-2.182v-3.816
	C85.771,195.315,84.898,194.333,83.591,194.333z"/>
<g>
	
		<polygon fill="none" stroke="#000000" stroke-width="1.5" stroke-linecap="round" stroke-linejoin="round" stroke-miterlimit="10" points="
		88.352,383.731 73.053,383.731 68.871,377.613 73.053,371.494 88.352,371.494 	"/>
	
		<circle fill="none" stroke="#000000" stroke-linecap="round" stroke-linejoin="round" stroke-miterlimit="10" cx="73.768" cy="377.714" r="1.02"/>
	<path fill="none" stroke="#000000" stroke-linecap="round" stroke-linejoin="round" stroke-miterlimit="10" d="M73.768,377.613"/>
	<path fill="none" stroke="#000000" stroke-linecap="round" stroke-linejoin="round" stroke-miterlimit="10" d="M73.665,377.613"/>
	<path fill="none" stroke="#000000" stroke-linecap="round" stroke-miterlimit="10" d="M73.768,378.123
		c0,2.242-1.838,4.078-4.08,4.078l0,0c-2.244,0-4.08-1.836-4.08-4.078l0,0v-2.244l0,0c0-1.528-1.225-2.754-2.752-2.754l0,0
		c-1.633,0-2.855,1.226-2.855,2.754l0,0"/>
	
		<circle fill="none" stroke="#000000" stroke-linecap="round" stroke-linejoin="round" stroke-miterlimit="10" cx="73.665" cy="377.714" r="1.02"/>
</g>
<g>
	
		<rect x="61.438" y="405.864" fill="none" stroke="#000000" stroke-width="1.5" stroke-linecap="round" stroke-linejoin="round" stroke-miterlimit="10" width="25.248" height="13.595"/>
	<polygon fill="none" stroke="#000000" stroke-linejoin="round" stroke-miterlimit="10" points="86.588,409.845 86.588,419.556 
		64.253,419.556 64.253,422.468 89.5,422.468 89.5,409.845 	"/>
	<circle fill="none" stroke="#000000" stroke-linejoin="round" stroke-miterlimit="10" cx="74.063" cy="412.661" r="3.399"/>
	
		<line fill="none" stroke="#000000" stroke-linecap="round" stroke-linejoin="round" stroke-miterlimit="10" x1="64.253" y1="408.776" x2="64.253" y2="416.544"/>
	
		<line fill="none" stroke="#000000" stroke-linecap="round" stroke-linejoin="round" stroke-miterlimit="10" x1="83.675" y1="408.776" x2="83.675" y2="416.544"/>
</g>
<g>
	
		<line fill="none" stroke="#000000" stroke-linecap="round" stroke-linejoin="round" stroke-miterlimit="10" x1="69.631" y1="228.507" x2="80.584" y2="228.507"/>
	
		<line fill="none" stroke="#000000" stroke-linecap="round" stroke-linejoin="round" stroke-miterlimit="10" x1="69.631" y1="231.354" x2="80.584" y2="231.354"/>
	
		<line fill="none" stroke="#000000" stroke-linecap="round" stroke-linejoin="round" stroke-miterlimit="10" x1="69.631" y1="234.203" x2="76.751" y2="234.203"/>
	<g>
		<path fill="#231F20" stroke="#000000" stroke-miterlimit="10" d="M70.727,238.693C70.835,238.693,70.835,238.805,70.727,238.693
			c0.656,0,1.094,0.549,1.094,1.205c0,0.548-0.547,0.986-1.094,0.986c0,0,0,0-0.11,0c-0.657,0-1.095-0.549-0.985-1.205
			C69.74,239.242,70.178,238.693,70.727,238.693 M70.727,237.598L70.727,237.598c-1.205,0-2.082,0.877-2.191,2.082
			c-0.109,1.206,0.876,2.19,2.081,2.3h0.11c1.205,0,2.08-0.876,2.189-2.081c0-0.547-0.219-1.094-0.547-1.532
			c-0.438-0.438-0.876-0.658-1.534-0.769C70.835,237.708,70.835,237.598,70.727,237.598L70.727,237.598z"/>
	</g>
	<g>
		
			<polygon fill="none" stroke="#000000" stroke-width="1.5" stroke-linecap="round" stroke-linejoin="round" stroke-miterlimit="10" points="
			80.037,220.621 65.797,220.621 65.797,245.158 84.418,245.158 84.418,225.003 		"/>
	</g>
	<polygon fill="none" stroke="#000000" stroke-linecap="round" stroke-linejoin="round" stroke-miterlimit="10" points="
		80.037,225.111 84.418,225.111 80.037,220.73 	"/>
</g>
</svg>
