<?xml version="1.0" encoding="utf-8"?>
<!-- Generator: Adobe Illustrator 16.0.0, SVG Export Plug-In . SVG Version: 6.00 Build 0)  -->
<!DOCTYPE svg PUBLIC "-//W3C//DTD SVG 1.1//EN" "http://www.w3.org/Graphics/SVG/1.1/DTD/svg11.dtd">
<svg version="1.1" id="Layer_1" xmlns="http://www.w3.org/2000/svg" xmlns:xlink="http://www.w3.org/1999/xlink" x="0px" y="0px"
	 width="369.14px" height="206px" viewBox="0 317.445 369.14 206" enable-background="new 0 317.445 369.14 206"
	 xml:space="preserve">
<g>
	<g>
		<g>
			<g>
				<path fill="#FFFFFF" d="M78.818,422.481c5.094-4.983,2.49-12.344,5.772-18.12c0.566-0.906-0.905-1.812-1.472-0.906
					c-3.169,5.549-0.679,13.25-5.545,17.78C76.781,422.028,78.026,423.274,78.818,422.481L78.818,422.481z"/>
			</g>
		</g>
		<g>
			<g>
				<path fill="#FFFFFF" d="M77.12,421.009c-5.433,2.605-9.507-3.058-8.714-7.814c0.339-1.925,1.358-3.624,1.811-5.549
					c0.679-3.171,0.339-6.456-0.226-9.513c-0.227-1.019-1.811-0.566-1.584,0.453c0.453,2.831,0.792,5.776,0.226,8.607
					c-0.339,1.925-1.358,3.624-1.811,5.549c-0.453,2.151-0.566,4.077,0.565,6.002c2.151,3.851,6.678,5.663,10.639,3.737
					C79.044,421.915,78.139,420.556,77.12,421.009L77.12,421.009z"/>
			</g>
		</g>
		<g>
			<g>
				<path fill="#FFFFFF" d="M77.12,417.272c-1.697-1.246-3.734-1.585-5.772-1.812c-0.679-0.113-0.679,1.019,0,1.133
					c1.811,0.226,3.735,0.566,5.207,1.585C77.12,418.631,77.686,417.612,77.12,417.272L77.12,417.272z"/>
			</g>
		</g>
		<g>
			<g>
				<path fill="#FFFFFF" d="M77.912,417.499c0-1.246,0.34-2.378,0.34-3.624c0-1.132-1.697-1.132-1.697,0
					c0,1.246-0.34,2.378-0.34,3.624C76.215,418.631,77.912,418.631,77.912,417.499L77.912,417.499z"/>
			</g>
		</g>
		<g>
			<g>
				<path fill="#FFFFFF" d="M77.912,414.214c-0.792-2.492-3.961-2.945-5.885-1.359c-0.566,0.453,0.227,1.246,0.792,0.793
					c1.245-1.019,3.396-0.793,3.961,0.906C77.12,415.12,78.139,414.894,77.912,414.214L77.912,414.214z"/>
			</g>
		</g>
		<g>
			<g>
				<path fill="#FFFFFF" d="M71.462,413.875c-0.113,0.68-0.227,1.359-0.339,2.039c-0.227,1.02,1.358,1.472,1.584,0.453
					c0.113-0.679,0.226-1.358,0.339-2.038C73.386,413.308,71.688,412.855,71.462,413.875L71.462,413.875z"/>
			</g>
		</g>
		<g>
			<g>
				<path fill="#FFFFFF" d="M78.931,407.533c-1.358-1.133-3.396-0.68-4.98-0.68c-0.339,0-0.339,0.566,0,0.566
					c1.358,0,3.509-0.453,4.64,0.453C78.818,408.212,79.271,407.873,78.931,407.533L78.931,407.533z"/>
			</g>
		</g>
		<g>
			<g>
				<path fill="#FFFFFF" d="M49.505,409.571c0.906-1.699,1.698-3.624,2.83-5.209c1.245-1.925,2.83-3.171,4.301-4.757
					c2.603-3.171,3.622-6.795,7.017-9.4c0.905-0.679,0-2.151-0.906-1.472c-3.395,2.604-4.753,6.002-7.243,9.399
					c-1.132,1.472-2.603,2.492-3.735,3.964c-1.584,2.039-2.603,4.417-3.848,6.682C47.581,409.684,49.052,410.59,49.505,409.571
					L49.505,409.571z"/>
			</g>
		</g>
		<g>
			<g>
				<path fill="#FFFFFF" d="M60.484,412.289c0.339-1.246,0.679-2.605,1.923-3.284c0.34-0.113,0-0.68-0.339-0.453
					c-1.358,0.68-1.811,2.152-2.264,3.624C59.804,412.516,60.37,412.629,60.484,412.289L60.484,412.289z"/>
			</g>
		</g>
		<g>
			<g>
				<path fill="#FFFFFF" d="M89.23,402.663c0-7.587-6.338-12.458-10.639-17.893c-0.453-0.566-1.245,0.227-0.792,0.792
					c4.074,5.209,10.413,9.966,10.299,17.101C88.098,403.342,89.23,403.342,89.23,402.663L89.23,402.663z"/>
			</g>
		</g>
		<g>
			<g>
				<path fill="#FFFFFF" d="M41.469,407.08c6.564-10.985,22.296-36.353,36.896-21.518c0.226,0.227,0.679-0.113,0.452-0.453
					c-14.939-15.175-30.897,10.306-37.801,21.631C40.79,407.08,41.357,407.419,41.469,407.08L41.469,407.08z"/>
			</g>
		</g>
		<g>
			<g>
				<path fill="#FFFFFF" d="M82.326,388.62c-1.811-10.758-12.449-13.137-21.277-8.607c-6.451,3.285-11.091,8.494-15.958,13.59
					c-3.169,3.397-7.243,6.795-6.225,12.004c0.113,0.68,1.245,0.453,1.132-0.34c-1.132-5.323,4.64-9.4,7.809-12.911
					c3.283-3.624,6.678-6.908,10.865-9.626c8.375-5.436,20.598-6.002,22.635,6.116C81.308,389.639,82.44,389.299,82.326,388.62
					L82.326,388.62z"/>
			</g>
		</g>
		<g>
			<g>
				<path fill="#FFFFFF" d="M39.546,405.833c0.453-3.963-0.905-7.927-0.566-11.891c0.339-4.53,1.245-8.381,0.453-13.024
					c-1.245-6.795-1.358-12.571,2.377-18.573c1.584-2.492,3.961-5.436,6.451-7.021c3.622-2.265,6.564-1.246,10.299-0.453
					c0.679,0.113,1.019-0.906,0.339-1.132c-4.527-0.906-7.356-2.378-11.431,0.679c-4.301,3.171-7.922,8.38-9.394,13.477
					c-2.264,7.475,1.358,14.609,0.227,22.197c-0.792,5.323,0.792,10.419,0.113,15.741C38.301,406.513,39.432,406.513,39.546,405.833
					L39.546,405.833z"/>
			</g>
		</g>
		<g>
			<g>
				<path fill="#FFFFFF" d="M49.505,354.192c1.471-3.737,2.83-5.323,6.225-7.474c0.792-0.453,1.811-0.906,2.49-1.585
					c1.019-1.133,0.792-2.378,1.471-3.964c1.358-3.624,4.64-4.757,6.904-7.701c2.264-3.058,3.056-7.361,6.791-9.06
					c0.679-0.339,0-1.246-0.566-1.019c-2.942,1.359-4.188,4.19-5.659,6.908c-2.15,3.964-6.564,5.776-8.715,9.513
					c-0.679,1.132-0.453,2.038-0.905,3.171c-0.566,1.699-1.132,1.925-2.943,2.944c-3.508,2.039-4.64,4.077-6.111,7.814
					C48.147,354.645,49.279,354.872,49.505,354.192L49.505,354.192z"/>
			</g>
		</g>
		<g>
			<g>
				<path fill="#FFFFFF" d="M87.759,395.755c2.15-6.795-0.792-13.817-3.282-20.045c-2.037-5.209-4.188-9.287-9.846-10.985
					c-0.679-0.227-1.019,0.906-0.339,1.133c6.111,1.925,7.922,7.248,10.073,12.684c2.037,5.323,4.074,11.325,2.263,16.988
					C86.514,396.094,87.533,396.434,87.759,395.755L87.759,395.755z"/>
			</g>
		</g>
		<g>
			<g>
				<path fill="#FFFFFF" d="M82.78,370.613c-0.566-3.284-2.264-6.229-3.848-9.173c-0.227-0.339-0.679,0-0.453,0.34
					c1.584,2.832,3.282,5.776,3.734,9.06C82.326,371.179,82.892,371.066,82.78,370.613L82.78,370.613z"/>
			</g>
		</g>
		<g>
			<g>
				<path fill="#FFFFFF" d="M209.311,441.281c2.83-4.417,7.018-7.701,9.281-12.458c2.489-5.209,4.753-10.872,6.677-16.308
					c0.227-0.679-0.792-1.019-1.132-0.34c-2.149,5.889-4.301,12.117-7.356,17.554c-2.263,4.077-5.998,7.135-8.487,10.985
					C207.953,441.395,208.972,441.961,209.311,441.281L209.311,441.281z"/>
			</g>
		</g>
		<g>
			<g>
				<path fill="#FFFFFF" d="M182.375,426.785c4.414-3.058,10.865-3.624,14.373-7.927c0.68-0.793-0.452-2.039-1.245-1.246
					c-3.395,4.19-9.732,4.643-14.033,7.587C180.677,425.992,181.47,427.465,182.375,426.785L182.375,426.785z"/>
			</g>
		</g>
		<g>
			<g>
				<path fill="#FFFFFF" d="M196.862,418.291c0.792-1.812,0.679-3.737,1.245-5.662c0.565-2.039,1.471-3.964,2.037-6.116
					c0.34-1.019-1.358-1.472-1.584-0.453c-0.566,1.812-1.245,3.511-1.812,5.322c-0.679,1.925-0.452,4.19-1.245,6.002
					C194.938,418.518,196.409,419.311,196.862,418.291L196.862,418.291z"/>
			</g>
		</g>
		<g>
			<g>
				<path fill="#FFFFFF" d="M200.144,406.173c-1.132-4.643,0-9.286,3.509-12.57c2.716-2.605,6.225-2.265,9.733-2.265
					c1.132,0,1.132-1.699,0-1.699c-4.414,0-8.376,0-11.545,3.511c-3.508,3.737-4.413,8.607-3.281,13.477
					C198.785,407.646,200.484,407.193,200.144,406.173L200.144,406.173z"/>
			</g>
		</g>
		<g>
			<g>
				<path fill="#FFFFFF" d="M213.159,390.998c2.15,1.246,3.734,3.397,5.319,5.209c0.679,0.793,1.924-0.34,1.245-1.246
					c-1.698-1.925-3.396-4.077-5.659-5.436C213.046,388.959,212.141,390.432,213.159,390.998L213.159,390.998z"/>
			</g>
		</g>
		<g>
			<g>
				<path fill="#FFFFFF" d="M219.044,396.887c1.132,1.359,2.264,2.831,3.735,3.964c0.905,0.679,1.697-0.793,0.905-1.473
					c-1.358-1.019-2.377-2.378-3.396-3.624C219.497,394.849,218.365,396.094,219.044,396.887L219.044,396.887z"/>
			</g>
		</g>
		<g>
			<g>
				<path fill="#FFFFFF" d="M222.78,400.058c-2.15,2.604-3.056,6.115-6.904,6.568c-4.074,0.453-5.545-2.718-6.903-5.889
					c-0.34-0.679-1.245-0.113-1.019,0.566c1.357,3.058,2.942,6.455,6.79,6.569c5.093,0.113,6.112-3.737,8.828-7.021
					C224.137,400.285,223.345,399.492,222.78,400.058L222.78,400.058z"/>
			</g>
		</g>
		<g>
			<g>
				<path fill="#FFFFFF" d="M209.764,404.362c-1.471,0-3.056,0.113-4.414-0.34c-0.34-0.113-0.452,0.453-0.113,0.566
					c1.472,0.566,3.057,0.453,4.641,0.34C210.104,404.928,210.104,404.362,209.764,404.362L209.764,404.362z"/>
			</g>
		</g>
		<g>
			<g>
				<path fill="#FFFFFF" d="M221.873,398.586c-2.263-0.34-4.526-0.227-6.79,0.34c-0.68,0.226-0.453,1.246,0.34,1.132
					c2.037-0.566,4.074-0.68,6.111-0.34C222.213,399.832,222.553,398.699,221.873,398.586L221.873,398.586z"/>
			</g>
		</g>
		<g>
			<g>
				<path fill="#FFFFFF" d="M214.857,398.586c-0.905-0.793-1.584-1.699-2.15-2.718c-0.339-0.679-1.358-0.113-1.019,0.566
					c0.566,1.132,1.358,2.152,2.377,2.944C214.63,399.832,215.423,399.039,214.857,398.586L214.857,398.586z"/>
			</g>
		</g>
		<g>
			<g>
				<path fill="#FFFFFF" d="M212.706,396.661c1.697-0.793,4.301-1.132,5.433,0.793c0.34,0.566,1.358,0,1.019-0.566
					c-1.471-2.378-4.754-2.265-7.017-1.132C211.462,395.981,212.028,396.887,212.706,396.661L212.706,396.661z"/>
			</g>
		</g>
		<g>
			<g>
				<path fill="#FFFFFF" d="M218.479,427.352c4.301,0.227,8.602-4.87,11.204-7.701c0.453-0.566-0.34-1.359-0.792-0.792
					c-1.358,1.472-2.829,2.944-4.301,4.19c-1.585,1.359-3.849,3.284-6.111,3.171C217.799,426.219,217.799,427.352,218.479,427.352
					L218.479,427.352z"/>
			</g>
		</g>
		<g>
			<g>
				<path fill="#FFFFFF" d="M229.796,419.084c0-1.812,0.453-3.737,0.793-5.436c0.226-1.246,0.792-4.87,2.149-5.323
					c0.68-0.227,0.34-1.359-0.339-1.132c-1.698,0.566-2.264,3.171-2.604,4.644c-0.679,2.378-1.132,4.869-1.245,7.248
					C228.664,419.764,229.796,419.764,229.796,419.084L229.796,419.084z"/>
			</g>
		</g>
		<g>
			<g>
				<path fill="#FFFFFF" d="M233.305,406.966c0.226-1.133,0-2.152-0.679-3.171c-0.68-0.906-2.151,0-1.472,0.906
					c0.452,0.566,0.565,1.132,0.452,1.812C231.494,407.533,233.078,407.985,233.305,406.966L233.305,406.966z"/>
			</g>
		</g>
		<g>
			<g>
				<path fill="#FFFFFF" d="M219.271,427.918c1.019,0.226,2.037,0.34,3.056,0.565c0.679,0.113,1.019-0.905,0.34-1.132
					c-1.019-0.227-2.037-0.34-3.056-0.566C218.819,426.672,218.592,427.804,219.271,427.918L219.271,427.918z"/>
			</g>
		</g>
		<g>
			<g>
				<path fill="#FFFFFF" d="M222.893,428.483c2.942-1.925,5.658-4.416,8.602-6.229c1.924-1.132,4.753-1.246,5.771-3.397
					c0.34-0.68-0.679-1.246-1.019-0.567c-0.905,1.813-4.979,2.605-6.678,3.851c-2.376,1.926-4.866,3.737-7.356,5.437
					C221.761,427.918,222.326,428.823,222.893,428.483L222.893,428.483z"/>
			</g>
		</g>
		<g>
			<g>
				<path fill="#FFFFFF" d="M223.005,428.37c3.962,0.453,7.357,2.831,11.318,3.059c0.679,0,0.679-1.133,0-1.133
					c-3.961-0.113-7.47-2.604-11.318-3.058C222.326,427.125,222.326,428.258,223.005,428.37L223.005,428.37z"/>
			</g>
		</g>
		<g>
			<g>
				<path fill="#FFFFFF" d="M213.726,434.939c4.413,3.623,9.394,7.134,15.052,3.851c5.206-2.945,8.602-10.08,9.168-15.742
					c1.131-11.325-7.356-27.973-19.92-28.879c-0.679,0-0.679,1.132,0,1.132c10.639,0.68,17.542,13.704,18.675,23.103
					c0.565,5.097-0.68,9.739-3.396,14.043c-2.037,3.284-5.093,6.568-9.28,6.568c-3.735,0-6.791-2.718-9.507-4.982
					C213.951,433.693,213.159,434.485,213.726,434.939L213.726,434.939z"/>
			</g>
		</g>
		<g>
			<g>
				<path fill="#FFFFFF" d="M218.479,394.169c15.278,1.132,22.861,19.139,22.975,32.956c0,8.04-4.301,14.043-12.109,15.968
					c-6.225,1.473-13.695,0.566-17.43-5.096c-0.566-0.906-2.037-0.113-1.472,0.905c7.923,12.118,29.2,6.795,32.256-6.682
					c2.15-9.286-1.811-19.479-5.998-27.633c-3.848-7.361-9.733-11.438-18.108-12.118
					C217.347,392.357,217.46,394.056,218.479,394.169L218.479,394.169z"/>
			</g>
		</g>
		<g>
			<g>
				<path fill="#FFFFFF" d="M233.192,444.226c2.829-1.699,5.319-3.737,8.035-5.436c3.622-2.266,7.583-3.625,11.431-5.323
					c6.791-2.831,14.034-6.455,19.92-10.872c9.62-7.135,16.071-18.007,11.204-29.898c-1.019-2.378-2.15-2.831-0.565-4.983
					c0.113-0.227,1.019-0.113,1.132-0.34c0.679-1.019,1.019-1.019,0.565-2.491c-0.679-2.378-2.603-1.472-2.942-5.096
					c-0.113-1.02,0.566-2.945,0.566-4.077c0.452-4.756,0.792-9.513,0.905-14.27c0-1.359,0.679-5.436-0.905-6.342
					c-0.566-0.34-1.132,0.566-0.566,1.019c1.019,0.68,0.227,7.135,0.227,8.154c-0.113,3.397-0.34,6.795-0.68,10.192
					c-0.226,2.038-1.244,4.87-1.019,6.795c0.113,1.019,0.566,0.792,0.906,1.812c0.792,2.265,1.471-0.906,0.792,2.265
					c-0.34,1.925,0.113,1.358-1.698,1.812c-0.339,0.113-0.452,0.566-0.339,0.793c3.848,8.154,5.998,14.949,1.132,23.216
					c-3.396,5.776-8.715,10.192-14.374,13.476c-6.677,3.851-13.354,6.796-20.371,9.853c-5.207,2.266-9.395,5.89-14.261,8.721
					C231.947,443.546,232.513,444.565,233.192,444.226L233.192,444.226z"/>
			</g>
		</g>
		<g>
			<g>
				<path fill="#FFFFFF" d="M221.195,393.263c4.414,0,9.055-1.019,13.355-1.699c3.169-0.566,6.111-0.68,9.394-0.906
					c0.679,0,0.679-1.132,0-1.132c-2.829,0.227-5.093,0.113-7.923,0.679c-4.753,0.793-9.959,1.925-14.826,2.039
					C220.403,392.13,220.403,393.263,221.195,393.263L221.195,393.263z"/>
			</g>
		</g>
		<g>
			<g>
				<path fill="#FFFFFF" d="M239.983,389.866c2.037-0.453,3.508-2.492,5.545-3.171c0.68-0.226,0.34-1.358-0.339-1.132
					c-1.02,0.34-1.812,1.02-2.604,1.585c-0.792,0.566-1.811,1.359-2.829,1.586C239.076,388.959,239.303,389.979,239.983,389.866
					L239.983,389.866z"/>
			</g>
		</g>
		<g>
			<g>
				<path fill="#FFFFFF" d="M239.868,388.959c0.227-4.077,0.793-8.041,1.02-12.118c0.227-3.851-0.34-7.588,0.112-11.438
					c0.114-0.68-1.018-0.68-1.132,0c-0.452,3.737,0.227,7.587-0.112,11.438c-0.34,4.077-0.793,8.041-1.019,12.118
					C238.738,389.639,239.868,389.639,239.868,388.959L239.868,388.959z"/>
			</g>
		</g>
		<g>
			<g>
				<path fill="#FFFFFF" d="M195.503,433.354c2.264-1.246,4.867-1.473,7.243-2.491c1.925-0.906,3.622-2.039,5.094-3.511
					c0.227-0.227-0.113-0.68-0.453-0.453c-1.811,1.698-3.734,2.944-5.998,3.851c-2.037,0.792-4.301,1.02-6.225,2.151
					C194.938,433.014,195.164,433.467,195.503,433.354L195.503,433.354z"/>
			</g>
		</g>
		<g>
			<g>
				<path fill="#FFFFFF" d="M204.105,438.45c1.245-0.34,2.377-1.473,3.396-2.152c1.245-1.02,2.49-2.038,3.735-2.944
					c0.339-0.227,0-0.68-0.34-0.453c-1.132,0.793-2.15,1.699-3.169,2.491c-1.019,0.793-2.49,2.266-3.849,2.605
					C203.539,437.997,203.766,438.563,204.105,438.45L204.105,438.45z"/>
			</g>
		</g>
		<g>
			<g>
				<path fill="#FFFFFF" d="M200.823,429.163c0.339-1.359,0.226-2.718-0.453-3.964c-0.113-0.34-0.679,0-0.453,0.34
					c0.566,1.133,0.68,2.379,0.34,3.624C200.144,429.39,200.709,429.503,200.823,429.163L200.823,429.163z"/>
			</g>
		</g>
		<g>
			<g>
				<path fill="#FFFFFF" d="M199.465,429.843c0-1.246,0-2.491-0.34-3.624c-0.113-0.34-0.68-0.227-0.565,0.113
					c0.339,1.133,0.339,2.378,0.339,3.511C198.899,430.183,199.465,430.183,199.465,429.843L199.465,429.843z"/>
			</g>
		</g>
		<g>
			<g>
				<path fill="#FFFFFF" d="M209.651,423.161c2.264,0,5.998-1.02,6.112-3.851c0-0.34-0.566-0.34-0.566,0
					c-0.113,2.491-3.622,3.284-5.546,3.284C209.311,422.595,209.311,423.161,209.651,423.161L209.651,423.161z"/>
			</g>
		</g>
		<g>
			<g>
				<path fill="#FFFFFF" d="M213.046,431.654c1.697-0.453,2.942-1.925,3.056-3.736c0-0.34-0.565-0.34-0.565,0
					c0,1.585-1.133,2.718-2.604,3.171C212.593,431.201,212.706,431.769,213.046,431.654L213.046,431.654z"/>
			</g>
		</g>
		<g>
			<g>
				<path fill="#FFFFFF" d="M235.907,418.518c-6.111,1.019-2.829-6.795-1.584-9.74c0.227-0.68-0.679-1.246-1.019-0.566
					c-1.698,3.964-4.641,12.684,2.942,11.438C236.926,419.424,236.7,418.404,235.907,418.518L235.907,418.518z"/>
			</g>
		</g>
		<g>
			<g>
				<path fill="#FFFFFF" d="M208.519,395.641c-1.019,0.34-2.037,0.34-3.056,0c-0.34-0.113-0.453,0.453-0.113,0.566
					c1.132,0.34,2.264,0.34,3.396,0C209.085,396.094,208.972,395.528,208.519,395.641L208.519,395.641z"/>
			</g>
		</g>
		<g>
			<g>
				<path fill="#FFFFFF" d="M247.565,459.854c-20.145,3.058-34.519,20.159-52.4,28.652c-20.259,9.513-44.366,13.816-66.661,12.571
					c-1.132-0.113-1.132,1.585,0,1.698c21.277,1.245,44.139-2.604,63.718-11.099c9.281-3.964,17.43-9.513,25.691-15.175
					c9.508-6.569,18.448-13.251,30.219-14.949C249.036,461.326,248.584,459.627,247.565,459.854L247.565,459.854z"/>
			</g>
		</g>
		<g>
			<g>
				<path fill="#FFFFFF" d="M247.226,462.911c-7.81,0-14.6,5.776-20.372,10.532c-8.375,6.909-16.977,13.363-26.71,18.46
					c-10.978,5.775-23.088,9.061-35.085,11.665c-6.451,1.472-12.902,2.038-19.466,2.831c-6.111,0.793-12.336,1.812-18.335,0.227
					c-0.679-0.227-1.018,0.905-0.339,1.133c9.28,2.491,20.825-0.113,30.218-1.586c12.336-1.925,25.125-5.209,36.556-10.079
					c9.733-4.077,18.787-9.966,27.163-16.309c7.582-5.889,15.958-15.854,26.37-15.741
					C247.905,464.044,247.905,462.911,247.226,462.911L247.226,462.911z"/>
			</g>
		</g>
		<g>
			<g>
				<path fill="#FFFFFF" d="M246.547,465.403c-7.696,0-14.034,6.229-19.354,10.985c-7.81,7.021-16.524,13.477-25.691,18.686
					c-10.639,5.89-22.749,9.174-34.632,11.778c-6.452,1.472-13.016,2.151-19.58,2.944c-6.112,0.793-12.336,1.813-18.448,0.227
					c-0.339-0.113-0.453,0.453-0.113,0.566c9.28,2.378,20.711-0.113,29.992-1.586c11.884-1.925,24.446-4.983,35.538-9.739
					c9.619-4.077,18.561-10.192,26.709-16.647c7.47-5.889,15.166-16.647,25.579-16.647
					C246.886,465.97,246.886,465.403,246.547,465.403L246.547,465.403z"/>
			</g>
		</g>
		<g>
			<g>
				<path fill="#FFFFFF" d="M246.094,466.875c-7.47,0-13.694,6.343-18.788,11.099c-7.695,7.248-16.184,13.703-25.352,19.025
					c-10.751,6.229-22.975,9.627-34.972,12.345c-6.79,1.586-13.694,2.266-20.598,3.171c-6.112,0.68-12.336,1.813-18.448,0.227
					c-0.339-0.113-0.453,0.453-0.113,0.566c4.98,1.359,10.186,0.793,15.279,0.227c5.659-0.68,11.317-1.133,16.863-2.152
					c11.771-2.038,24.106-5.096,34.972-10.079c9.28-4.189,18.222-10.192,26.03-16.647c7.244-6.002,14.826-17.214,25.126-17.214
					C246.547,467.441,246.547,466.875,246.094,466.875L246.094,466.875z"/>
			</g>
		</g>
		<g>
			<g>
				<path fill="#FFFFFF" d="M127.258,502.436c0,1.585-0.565,3.171-0.565,4.87c0,1.133,1.697,1.133,1.697,0
					c0.114-1.586,0.566-3.171,0.566-4.87C129.069,501.303,127.371,501.303,127.258,502.436L127.258,502.436z"/>
			</g>
		</g>
		<g>
			<g>
				<path fill="#FFFFFF" d="M128.729,501.077c-9.167-6.343-17.769-13.703-26.257-20.838c-10.865-9.061-22.069-17.78-32.708-27.181
					c-10.186-9.06-20.938-17.44-31.35-26.273c-10.073-8.494-19.58-17.554-29.766-25.934c-0.566-0.453-1.358,0.339-0.792,0.792
					c10.186,8.38,19.692,17.44,29.766,25.935c10.978,9.173,22.069,18.119,32.821,27.633c10.865,9.513,22.183,18.346,33.274,27.52
					c7.922,6.568,15.958,13.363,24.446,19.252C128.729,502.436,129.295,501.529,128.729,501.077L128.729,501.077z"/>
			</g>
		</g>
		<g>
			<g>
				<path fill="#FFFFFF" d="M128.616,504.021c-9.394-6.567-18.222-14.155-27.049-21.403c-10.978-9.174-22.183-17.78-32.821-27.293
					c-10.299-9.174-21.277-17.554-31.689-26.614c-9.847-8.38-19.014-17.44-28.974-25.708c-0.226-0.34-0.679,0.113-0.339,0.34
					c9.959,8.267,19.126,17.327,28.974,25.708c10.978,9.4,22.409,18.347,33.274,27.973c10.865,9.513,22.296,18.46,33.387,27.633
					c8.149,6.795,16.411,13.703,25.126,19.819C128.616,504.7,128.843,504.135,128.616,504.021L128.616,504.021z"/>
			</g>
		</g>
		<g>
			<g>
				<path fill="#FFFFFF" d="M127.031,514.553c-9.394-7.021-18.222-15.062-26.936-22.876c-10.865-9.739-22.183-19.025-32.708-28.991
					c-10.299-9.74-21.164-18.687-31.576-28.313c-9.733-8.947-18.9-18.573-28.86-27.407c-0.227-0.227-0.679,0.113-0.453,0.453
					c10.073,8.833,19.127,18.459,28.86,27.406c10.978,9.967,22.296,19.479,33.161,29.672c10.752,10.192,22.183,19.592,33.274,29.445
					c8.149,7.247,16.298,14.608,25.012,21.063C127.031,515.346,127.371,514.78,127.031,514.553L127.031,514.553z"/>
			</g>
		</g>
		<g>
			<g>
				<path fill="#FFFFFF" d="M127.937,510.363c-9.507-6.908-18.448-14.723-27.276-22.424C89.57,478.427,78.252,469.253,67.5,459.4
					c-10.412-9.626-21.504-18.346-32.029-27.746c-9.96-8.833-19.24-18.232-29.313-26.84c-0.226-0.227-0.679,0.113-0.453,0.453
					c10.073,8.607,19.354,18.12,29.313,26.84c11.092,9.854,22.636,19.14,33.614,29.219c10.978,9.966,22.522,19.252,33.727,28.879
					c8.262,7.021,16.523,14.383,25.352,20.725C127.937,511.156,128.163,510.59,127.937,510.363L127.937,510.363z"/>
			</g>
		</g>
		<g>
			<g>
				<path fill="#FFFFFF" d="M127.031,516.705c-9.394-7.021-18.108-14.949-26.823-22.763c-10.865-9.739-22.183-19.026-32.708-28.992
					c-10.299-9.739-21.164-18.687-31.576-28.313c-9.733-8.946-18.901-18.573-28.86-27.406c-0.792-0.68-2.037,0.453-1.245,1.246
					c9.959,8.72,19.013,18.459,28.86,27.407c10.979,9.966,22.296,19.479,33.161,29.671c10.752,10.192,22.183,19.592,33.274,29.444
					c8.148,7.249,16.411,14.61,25.125,21.179C127.031,518.856,127.824,517.385,127.031,516.705L127.031,516.705z"/>
			</g>
		</g>
		<g>
			<g>
				<path fill="#FFFFFF" d="M127.145,507.419c-19.127-17.441-39.952-32.843-58.852-50.51c-9.62-8.833-20.033-16.761-29.992-25.255
					c-10.526-8.946-20.372-18.572-30.558-27.972c-0.566-0.453-1.358,0.34-0.792,0.792c10.072,9.4,20.032,19.026,30.558,27.973
					c9.959,8.494,20.259,16.309,29.878,25.255c19.014,17.667,39.726,33.068,58.853,50.509
					C126.919,508.664,127.711,507.871,127.145,507.419L127.145,507.419z"/>
			</g>
		</g>
		<g>
			<g>
				<path fill="#FFFFFF" d="M67.274,414.328c-10.299-2.265-19.919-6.455-30.445-8.494c-9.507-1.812-19.24-2.718-28.408-6.002
					c-0.679-0.227-1.018,0.906-0.339,1.133c9.167,3.284,18.901,4.19,28.408,6.002c10.412,1.925,20.032,6.116,30.444,8.494
					C67.614,415.573,67.953,414.44,67.274,414.328L67.274,414.328z"/>
			</g>
		</g>
		<g>
			<g>
				<path fill="#FFFFFF" d="M7.969,404.135c0-1.359,0-2.605,0-3.964c0-0.68-1.132-0.68-1.132,0c0,1.359,0,2.605,0,3.964
					C6.837,404.814,7.969,404.814,7.969,404.135L7.969,404.135z"/>
			</g>
		</g>
		<g>
			<g>
				<path fill="#FFFFFF" d="M82.213,410.137c6.452-7.248,14.147-13.59,22.862-17.78c0.679-0.34,0.113-1.246-0.566-1.02
					c-8.827,4.303-16.523,10.646-23.088,18.006C80.969,409.911,81.76,410.704,82.213,410.137L82.213,410.137z"/>
			</g>
		</g>
		<g>
			<g>
				<path fill="#FFFFFF" d="M248.244,463.591c0.452-0.905,0.679-1.698,0.679-2.718c0-1.133-1.697-1.133-1.697,0
					c0,0.68-0.227,1.246-0.453,1.813C246.207,463.704,247.678,464.61,248.244,463.591L248.244,463.591z"/>
			</g>
		</g>
		<g>
			<g>
				<path fill="#FFFFFF" d="M248.584,460.193c-11.884-6.908-24.56-11.891-36.783-18.347c-13.581-7.134-27.05-14.269-40.97-20.837
					c-11.205-5.323-22.183-11.098-33.614-15.968c-10.639-4.643-21.617-8.72-32.369-13.363c-0.679-0.34-1.245,0.68-0.566,1.019
					c10.186,4.417,20.598,8.38,30.897,12.684c11.997,4.983,23.541,11.098,35.198,16.647c13.581,6.455,26.823,13.363,40.064,20.385
					c12.45,6.569,25.465,11.665,37.688,18.8C248.697,461.553,249.263,460.533,248.584,460.193L248.584,460.193z"/>
			</g>
		</g>
		<g>
			<g>
				<path fill="#FFFFFF" d="M112.658,395.301c2.151-9.739,1.924-19.479,1.019-29.332c-0.792-8.72-2.151-17.667-0.679-26.387
					c0.113-0.68-1.019-1.02-1.132-0.34c-3.169,18.573,3.848,37.033-0.34,55.719C111.413,395.755,112.432,396.094,112.658,395.301
					L112.658,395.301z"/>
			</g>
		</g>
		<g>
			<g>
				<path fill="#FFFFFF" d="M113.224,339.922c2.037-2.718,2.037-6.568,1.131-9.739c-0.226-1.132-1.924-0.679-1.584,0.453
					c0.679,2.718,0.792,6.115-1.019,8.494C111.073,339.922,112.545,340.715,113.224,339.922L113.224,339.922z"/>
			</g>
		</g>
		<g>
			<g>
				<path fill="#FFFFFF" d="M111.979,339.583c-2.376,4.756-4.527,9.626-6.791,14.496c-1.132,2.265-2.264,4.53-3.508,6.682
					c-0.34,0.679-3.848,6.342-4.188,5.096c-0.113-0.34-0.679-0.566-0.905-0.227c-3.961,4.756-7.81,9.739-10.639,15.289
					c-0.34,0.679,0.679,1.246,1.018,0.566c1.584-2.945,3.283-5.663,5.207-8.267c0.905-1.246,2.942-5.436,4.188-5.436
					c0.905-0.114-0.34-2.265,0.905,0.453c0.227,0.453,0.792,0.34,1.019,0c6.225-8.607,10.073-18.573,14.713-28.086
					C113.224,339.47,112.319,338.903,111.979,339.583L111.979,339.583z"/>
			</g>
		</g>
		<g>
			<g>
				<path fill="#FFFFFF" d="M185.771,423.274c-0.227-25.255-7.018-49.83-7.923-75.084c0-0.68-1.132-0.68-1.132,0
					c0.905,25.254,7.696,49.83,7.923,75.084C184.639,423.954,185.771,423.954,185.771,423.274L185.771,423.274z"/>
			</g>
		</g>
		<g>
			<g>
				<path fill="#FFFFFF" d="M184.526,404.814c6.338-16.874,7.922-35.334,7.243-53.227c0-0.68-1.132-0.68-1.132,0
					c0.679,17.78-0.905,36.126-7.13,52.888C183.167,405.154,184.299,405.494,184.526,404.814L184.526,404.814z"/>
			</g>
		</g>
		<g>
			<g>
				<path fill="#FFFFFF" d="M179.772,413.308c1.132,2.378,1.132,5.776-2.264,5.663c-1.697,0-2.603-1.359-2.829-2.944
					c-0.113-1.359,0.227-3.058,1.245-3.964C177.282,410.59,178.866,412.063,179.772,413.308c0.453,0.566,1.472,0,1.019-0.566
					c-1.019-1.359-2.603-2.831-4.414-2.265c-1.471,0.453-2.263,2.039-2.603,3.397c-0.34,1.585-0.227,3.397,0.679,4.756
					c1.132,1.585,3.282,1.813,4.98,1.246c2.942-1.132,2.376-4.869,1.357-7.021C180.45,412.063,179.433,412.629,179.772,413.308
					L179.772,413.308z"/>
			</g>
		</g>
		<g>
			<g>
				<path fill="#FFFFFF" d="M211.801,390.432c2.15-6.909,6.791-12.684,10.525-18.8c0.227-0.339-0.113-0.906-0.453-0.906
					c-1.357,0-5.885,0.679-6.224-0.34c-0.566-1.812,3.055-7.814,3.848-9.74c2.15-5.096,4.301-10.192,5.885-15.402
					c0.227-0.679-0.905-1.019-1.131-0.339c-2.83,9.173-7.018,17.667-10.64,26.5c-0.112,0.34,0.227,0.793,0.566,0.68
					c1.132-0.113,5.885-1.019,6.225-0.113c0.34,1.019-3.169,5.209-3.735,6.115c-2.376,3.738-4.753,7.588-6.111,11.892
					C210.556,390.771,211.574,391.111,211.801,390.432L211.801,390.432z"/>
			</g>
		</g>
		<g>
			<g>
				<path fill="#FFFFFF" d="M248.697,386.015c4.414-3.624,8.375-4.983,14.034-3.737c3.396,0.793,6.678,2.152,9.847,3.737
					c0.34,0.113,0.566-0.34,0.34-0.453c-4.188-2.039-8.489-3.737-13.129-4.417c-4.641-0.566-7.923,1.585-11.431,4.417
					C248.018,385.902,248.358,386.242,248.697,386.015L248.697,386.015z"/>
			</g>
		</g>
		<g>
			<g>
				<path fill="#FFFFFF" d="M278.237,403.116c0.452-7.021-4.754-11.098-10.413-14.269c-0.339-0.227-0.565,0.339-0.339,0.453
					c5.319,3.058,10.525,6.908,10.072,13.816C277.67,403.456,278.237,403.456,278.237,403.116L278.237,403.116z"/>
			</g>
		</g>
		<g>
			<g>
				<path fill="#FFFFFF" d="M75.423,361.553c-4.641-3.511-9.281-5.889-14.827-7.248c-0.339-0.113-0.453,0.453-0.113,0.566
					c5.545,1.359,10.186,3.737,14.713,7.135C75.536,362.346,75.762,361.78,75.423,361.553L75.423,361.553z"/>
			</g>
		</g>
		<g>
			<g>
				<path fill="#FFFFFF" d="M127.258,518.064c9.847-1.246,19.693-1.359,29.54-2.266c11.317-1.019,22.183-4.304,32.821-8.493
					c10.865-4.304,21.617-9.627,30.897-16.874c8.715-6.908,15.392-21.291,27.049-22.877c1.132-0.113,0.566-1.813-0.452-1.585
					c-10.525,1.472-16.185,12.344-23.088,19.139c-8.941,8.834-20.825,14.723-32.369,19.592c-11.091,4.644-22.748,8.381-34.858,9.4
					c-9.847,0.905-19.806,0.905-29.54,2.265C126.126,516.479,126.126,518.178,127.258,518.064L127.258,518.064z"/>
			</g>
		</g>
		<g>
			<g>
				<path fill="#FFFFFF" d="M248.131,466.762c0-1.132,0-2.265,0-3.397s-1.698-1.133-1.698,0s0,2.266,0,3.397
					C246.433,467.895,248.131,467.895,248.131,466.762L248.131,466.762z"/>
			</g>
		</g>
		<g>
			<g>
				<path fill="#FFFFFF" d="M127.258,516.479c0.227-2.944,2.83-5.322,3.056-8.38c0.113-1.133-1.584-1.133-1.698,0
					c-0.227,2.944-2.829,5.322-3.056,8.38C125.56,517.498,127.258,517.498,127.258,516.479L127.258,516.479z"/>
			</g>
		</g>
		<g>
			<g>
				<path fill="#FFFFFF" d="M6.498,408.325c0.453-0.906,0.453-1.925,0.453-2.944c0-0.68-1.132-0.68-1.132,0
					c0,0.792,0,1.585-0.34,2.378C5.253,408.438,6.158,409.005,6.498,408.325L6.498,408.325z"/>
			</g>
		</g>
		<g>
			<g>
				<path fill="#FFFFFF" d="M206.595,456.796c-22.749,17.78-51.722,19.818-78.658,27.18c-0.339,0.113-0.226,0.68,0.113,0.566
					c27.049-7.36,56.022-9.399,78.885-27.406C207.274,456.909,206.822,456.569,206.595,456.796L206.595,456.796z"/>
			</g>
		</g>
		<g>
			<g>
				<path fill="#FFFFFF" d="M202.861,454.418c-6.791,2.831-12.677,7.248-19.58,9.966c-7.47,2.831-15.166,5.097-22.975,7.021
					c-7.244,1.813-14.374,4.417-21.73,5.889c-6.111,1.246-12.449,0.906-17.995,4.077c-0.34,0.227,0,0.68,0.339,0.453
					c5.999-3.511,13.016-2.831,19.58-4.417c7.47-1.812,14.713-4.076,22.183-6.002c7.357-1.925,14.714-4.077,21.844-6.908
					c6.564-2.604,12.11-6.908,18.561-9.626C203.313,454.758,203.199,454.305,202.861,454.418L202.861,454.418z"/>
			</g>
		</g>
		<g>
			<g>
				<path fill="#FFFFFF" d="M197.54,451.813c-6.79,2.944-12.675,7.475-19.692,9.626c-7.243,2.265-14.826,3.058-22.183,4.757
					c-7.13,1.698-13.808,4.643-20.711,6.907c-6.791,2.266-14.147,1.926-20.938,4.417c-0.339,0.113-0.227,0.68,0.113,0.566
					c7.017-2.718,14.712-2.265,21.843-4.756c7.243-2.492,14.26-5.437,21.843-7.021c7.356-1.586,15.053-2.492,22.183-4.983
					c6.338-2.151,11.771-6.342,17.882-9.061C198.107,452.153,197.88,451.587,197.54,451.813L197.54,451.813z"/>
			</g>
		</g>
		<g>
			<g>
				<path fill="#FFFFFF" d="M178.527,442.64c-11.317,7.361-24.106,11.665-37.008,15.516c-13.694,4.076-27.163,7.021-41.536,7.248
					c-0.339,0-0.339,0.566,0,0.566c14.487-0.113,27.955-3.171,41.763-7.249c12.902-3.85,25.804-8.153,37.235-15.515
					C179.206,442.979,178.866,442.526,178.527,442.64L178.527,442.64z"/>
			</g>
		</g>
		<g>
			<g>
				<path fill="#FFFFFF" d="M173.321,441.168c-25.804,9.286-51.834,19.025-79.45,20.498c-0.34,0-0.34,0.565,0,0.565
					c27.615-1.358,53.759-11.211,79.563-20.497C173.887,441.507,173.66,441.055,173.321,441.168L173.321,441.168z"/>
			</g>
		</g>
		<g>
			<g>
				<path fill="#FFFFFF" d="M89.004,458.721c13.694-3.736,27.729-5.322,41.536-7.813c13.581-2.379,26.03-7.701,39.046-11.892
					c0.339-0.113,0.227-0.68-0.113-0.565c-13.128,4.189-25.465,9.513-39.046,11.891c-13.921,2.491-27.955,4.077-41.536,7.814
					C88.551,458.269,88.665,458.835,89.004,458.721L89.004,458.721z"/>
			</g>
		</g>
		<g>
			<g>
				<path fill="#FFFFFF" d="M76.555,446.943c12.563-2.038,24.898-5.437,37.461-8.041c11.883-2.491,23.427-5.436,34.971-9.399
					c0.34-0.113,0.227-0.68-0.112-0.566c-11.545,3.964-22.976,6.908-34.972,9.399c-12.45,2.605-24.786,6.003-37.462,8.041
					C75.989,446.49,76.215,447.057,76.555,446.943L76.555,446.943z"/>
			</g>
		</g>
		<g>
			<g>
				<path fill="#FFFFFF" d="M74.97,442.866c11.317-1.472,22.522-4.304,33.5-7.475c5.659-1.585,11.091-2.378,16.864-3.284
					c5.319-0.793,10.186-3.171,15.505-3.624c0.339,0,0.339-0.565,0-0.565c-3.848,0.34-7.356,2.038-11.091,2.831
					c-5.772,1.358-11.771,1.358-17.542,2.944c-12.45,3.284-24.56,6.908-37.235,8.606C74.631,442.3,74.631,442.866,74.97,442.866
					L74.97,442.866z"/>
			</g>
		</g>
		<g>
			<g>
				<path fill="#FFFFFF" d="M72.367,437.884c10.639-3.059,21.391-5.21,32.256-6.683c10.865-1.472,21.164-5.889,32.029-7.021
					c0.339,0,0.339-0.565,0-0.565c-10.299,1.019-19.919,5.322-30.105,6.682c-11.543,1.585-23.088,3.737-34.292,6.908
					C71.914,437.431,72.028,437.997,72.367,437.884L72.367,437.884z"/>
			</g>
		</g>
		<g>
			<g>
				<path fill="#FFFFFF" d="M69.311,433.014c10.525-1.133,20.938-3.171,31.237-5.549c9.846-2.266,20.032-3.851,29.2-8.154
					c0.34-0.113,0-0.68-0.339-0.453c-9.054,4.303-19.24,5.775-29.086,8.041c-10.299,2.378-20.599,4.416-31.011,5.549
					C68.859,432.447,68.859,433.014,69.311,433.014L69.311,433.014z"/>
			</g>
		</g>
		<g>
			<g>
				<path fill="#FFFFFF" d="M79.044,382.391c1.924-6.229-2.489-10.872-3.395-16.874c-0.113-0.34-0.566-0.227-0.566,0.113
					c0.905,5.775,5.206,10.419,3.396,16.534C78.365,382.618,78.931,382.731,79.044,382.391L79.044,382.391z"/>
			</g>
		</g>
		<g>
			<g>
				<path fill="#FFFFFF" d="M73.272,371.632c0.34,0.566,1.019,1.472,0.566,2.152s-1.698,0.453-2.377,0.453
					c0.226,0.113,0.34,0.227,0.566,0.453c-0.34-0.68-0.679-1.812-0.226-2.492c0.453-0.68,1.471-0.227,2.037,0.113
					c0.679,0.34,1.245-0.68,0.565-1.019c-1.018-0.566-2.49-1.02-3.396,0c-0.905,1.019-0.565,2.604-0.113,3.624
					c0.113,0.227,0.227,0.34,0.566,0.453c1.132,0.113,2.603,0.113,3.282-1.019c0.679-1.02,0-2.378-0.566-3.284
					C73.951,370.387,72.933,370.953,73.272,371.632L73.272,371.632z"/>
			</g>
		</g>
		<g>
			<g>
				<path fill="#FFFFFF" d="M73.839,363.479c-8.036,0-14.487,0.679-20.599,6.115c-5.885,5.21-12.902,11.438-15.618,19.026
					c-0.113,0.34,0.453,0.453,0.565,0.114c2.603-7.248,8.941-12.911,14.487-17.894c6.451-6.002,12.675-6.908,21.164-6.908
					C74.178,364.045,74.178,363.479,73.839,363.479L73.839,363.479z"/>
			</g>
		</g>
		<g>
			<g>
				<path fill="#FFFFFF" d="M243.377,433.58c1.698-3.851,1.245-7.814,1.132-11.892c0-0.339-0.565-0.339-0.565,0
					c0,3.964,0.565,7.928-1.132,11.552C242.698,433.693,243.152,433.92,243.377,433.58L243.377,433.58z"/>
			</g>
		</g>
		<g>
			<g>
				<path fill="#FFFFFF" d="M245.981,432.334c1.132-4.076,0.792-8.38,0.792-12.57c0-0.34-0.565-0.34-0.565,0
					c0,4.19,0.34,8.38-0.792,12.457C245.415,432.561,245.981,432.787,245.981,432.334L245.981,432.334z"/>
			</g>
		</g>
		<g>
			<g>
				<path fill="#FFFFFF" d="M249.49,430.862c1.471-4.077,0.792-8.381,0.792-12.571c0-0.34-0.565-0.34-0.565,0
					c0,4.19,0.679,8.381-0.793,12.458C248.81,431.089,249.263,431.201,249.49,430.862L249.49,430.862z"/>
			</g>
		</g>
		<g>
			<g>
				<path fill="#FFFFFF" d="M252.884,426.672c0.34-3.624,0.34-7.361,0-10.985c0-0.339-0.565-0.339-0.565,0
					c0.339,3.624,0.339,7.361,0,10.985C252.205,427.012,252.771,427.012,252.884,426.672L252.884,426.672z"/>
			</g>
		</g>
		<g>
			<g>
				<path fill="#FFFFFF" d="M255.488,424.407c0.34-3.058,0.34-6.003,0-9.06c0-0.34-0.566-0.34-0.566,0c0.34,3.057,0.34,6.002,0,9.06
					C254.921,424.747,255.488,424.747,255.488,424.407L255.488,424.407z"/>
			</g>
		</g>
		<g>
			<g>
				<path fill="#FFFFFF" d="M258.203,427.125c1.812-5.21,1.585-10.759,0.34-16.082c-0.113-0.34-0.679-0.227-0.565,0.113
					c1.132,5.209,1.357,10.645-0.34,15.742C257.525,427.238,257.978,427.465,258.203,427.125L258.203,427.125z"/>
			</g>
		</g>
		<g>
			<g>
				<path fill="#FFFFFF" d="M261.939,419.424c0.34-3.511,0.679-6.908,0-10.306c-0.113-0.34-0.566-0.227-0.566,0.113
					c0.68,3.397,0.34,6.795,0,10.192C261.372,419.764,261.939,419.764,261.939,419.424L261.939,419.424z"/>
			</g>
		</g>
		<g>
			<g>
				<path fill="#FFFFFF" d="M264.542,418.631c0.339-3.284,0.339-6.568,0-9.853c0-0.34-0.566-0.34-0.566,0
					c0.34,3.284,0.34,6.569,0,9.853C263.976,419.084,264.542,419.084,264.542,418.631L264.542,418.631z"/>
			</g>
		</g>
		<g>
			<g>
				<path fill="#FFFFFF" d="M266.918,420.216c0-3.963,0.679-7.814,0.793-11.778c0-0.34-0.566-0.34-0.566,0
					c0,3.964-0.679,7.814-0.792,11.778C266.353,420.556,266.918,420.556,266.918,420.216L266.918,420.216z"/>
			</g>
		</g>
		<g>
			<g>
				<path fill="#FFFFFF" d="M269.522,417.951c1.245-3.171,1.132-6.682,1.132-9.966c0-0.339-0.566-0.339-0.566,0
					c0,3.284,0.113,6.682-1.132,9.74C268.843,418.178,269.408,418.291,269.522,417.951L269.522,417.951z"/>
			</g>
		</g>
		<g>
			<g>
				<path fill="#FFFFFF" d="M273.256,416.366c0-3.397,0-6.794,0-10.192c0-0.34-0.565-0.34-0.565,0c0,3.398,0,6.795,0,10.192
					C272.691,416.819,273.256,416.819,273.256,416.366L273.256,416.366z"/>
			</g>
		</g>
		<g>
			<g>
				<path fill="#FFFFFF" d="M275.973,414.214c0.679-3.058,0.452-6.116,0.339-9.173c0-0.34-0.565-0.34-0.565,0
					c0,3.058,0.339,6.002-0.34,9.06C275.293,414.44,275.86,414.554,275.973,414.214L275.973,414.214z"/>
			</g>
		</g>
		<g>
			<g>
				<path fill="#FFFFFF" d="M278.575,410.704c0-2.605,0-5.096-0.339-7.701c0-0.34-0.566-0.226-0.566,0.113
					c0.34,2.492,0.34,4.983,0.34,7.475C278.01,411.043,278.575,411.043,278.575,410.704L278.575,410.704z"/>
			</g>
		</g>
		<g>
			<g>
				<path fill="#FFFFFF" d="M280.839,406.966c0-2.039,0-4.077-0.34-6.115c-0.113-0.34-0.565-0.227-0.565,0.113
					c0.34,1.925,0.34,3.963,0.34,6.002C280.274,407.306,280.839,407.306,280.839,406.966L280.839,406.966z"/>
			</g>
		</g>
		<g>
			<g>
				<path fill="#FFFFFF" d="M283.555,404.022c0.34-1.699,0.114-3.624-0.792-5.096c-0.226-0.34-0.679,0-0.452,0.34
					c0.905,1.359,1.019,3.057,0.679,4.756C282.876,404.135,283.443,404.362,283.555,404.022L283.555,404.022z"/>
			</g>
		</g>
		<g>
			<g>
				<path fill="#FFFFFF" d="M41.809,393.49c3.056-1.585,5.093-4.643,7.583-6.908c0.227-0.227-0.113-0.68-0.453-0.453
					c-2.49,2.265-4.527,5.209-7.47,6.795C41.13,393.263,41.469,393.716,41.809,393.49L41.809,393.49z"/>
			</g>
		</g>
		<g>
			<g>
				<path fill="#FFFFFF" d="M87.759,374.011c1.132-3.511,0-7.928-2.716-10.532c-0.226-0.227-0.679,0.113-0.453,0.453
					c2.603,2.378,3.735,6.568,2.603,9.966C87.08,374.237,87.646,374.351,87.759,374.011L87.759,374.011z"/>
			</g>
		</g>
		<g>
			<g>
				<path fill="#FFFFFF" d="M91.494,369.82c-0.453-3.284-1.245-6.455-3.508-8.947c-0.227-0.227-0.679,0.113-0.453,0.453
					c2.15,2.378,2.942,5.436,3.282,8.494C91.041,370.16,91.607,370.16,91.494,369.82L91.494,369.82z"/>
			</g>
		</g>
		<g>
			<g>
				<path fill="#FFFFFF" d="M94.55,363.932c-1.472-2.605-2.716-5.323-4.98-7.248c-0.227-0.227-0.679,0.113-0.453,0.453
					c2.264,1.925,3.396,4.644,4.866,7.135C94.21,364.611,94.663,364.271,94.55,363.932L94.55,363.932z"/>
			</g>
		</g>
		<g>
			<g>
				<path fill="#FFFFFF" d="M97.153,360.874c-1.132-2.265-2.49-4.303-4.187-6.115c-0.227-0.227-0.679,0.113-0.453,0.453
					c1.697,1.813,3.055,3.851,4.074,6.002C96.814,361.553,97.379,361.213,97.153,360.874L97.153,360.874z"/>
			</g>
		</g>
		<g>
			<g>
				<path fill="#FFFFFF" d="M99.416,356.004c-1.132-1.925-2.377-3.85-4.188-5.323c-0.226-0.227-0.679,0.113-0.453,0.453
					c1.811,1.472,2.942,3.284,4.074,5.209C99.19,356.57,99.643,356.344,99.416,356.004L99.416,356.004z"/>
			</g>
		</g>
		<g>
			<g>
				<path fill="#FFFFFF" d="M101.68,352.154c-1.132-1.925-2.264-3.737-3.848-5.323c-0.226-0.227-0.679,0.113-0.453,0.453
					c1.471,1.585,2.603,3.397,3.735,5.209C101.453,352.833,101.906,352.493,101.68,352.154L101.68,352.154z"/>
			</g>
		</g>
		<g>
			<g>
				<path fill="#FFFFFF" d="M104.736,350.229c-2.15-2.265-2.829-5.323-5.319-7.248c-0.34-0.227-0.566,0.227-0.34,0.453
					c2.377,1.812,3.169,4.983,5.207,7.135C104.509,350.908,104.962,350.568,104.736,350.229L104.736,350.229z"/>
			</g>
		</g>
		<g>
			<g>
				<path fill="#FFFFFF" d="M105.867,348.077c-0.453-2.605-2.038-5.096-3.848-6.908c-0.227-0.227-0.679,0.113-0.453,0.453
					c1.698,1.812,3.282,4.19,3.735,6.682C105.415,348.643,105.981,348.417,105.867,348.077L105.867,348.077z"/>
			</g>
		</g>
		<g>
			<g>
				<path fill="#FFFFFF" d="M107.452,344.339c-0.453-2.605-1.698-4.756-3.056-6.908c-0.227-0.34-0.679,0-0.453,0.34
					c1.245,2.151,2.603,4.303,3.056,6.795C106.886,344.792,107.452,344.679,107.452,344.339L107.452,344.339z"/>
			</g>
		</g>
		<g>
			<g>
				<path fill="#FFFFFF" d="M239.643,386.921c-1.019,0.113-2.15,0.906-2.942,1.472c-1.358,0.906-2.717,1.812-4.074,2.831
					c-0.34,0.227,0.112,0.68,0.452,0.453c1.132-0.906,2.377-1.699,3.622-2.492c0.792-0.566,2.036-1.472,2.942-1.585
					C240.095,387.487,240.095,386.921,239.643,386.921L239.643,386.921z"/>
			</g>
		</g>
		<g>
			<g>
				<path fill="#FFFFFF" d="M239.53,384.316c-3.396,1.585-6.225,3.851-9.507,5.663c-0.34,0.226,0,0.679,0.34,0.453
					c3.168-1.813,6.111-4.077,9.506-5.663C240.208,384.656,239.868,384.203,239.53,384.316L239.53,384.316z"/>
			</g>
		</g>
		<g>
			<g>
				<path fill="#FFFFFF" d="M236.474,382.844c-2.943,1.699-5.659,3.85-8.715,5.323c-0.339,0.113,0,0.68,0.34,0.453
					c3.056-1.359,5.771-3.624,8.715-5.322C237.153,383.071,236.814,382.618,236.474,382.844L236.474,382.844z"/>
			</g>
		</g>
		<g>
			<g>
				<path fill="#FFFFFF" d="M241.453,375.596c-4.188,2.265-7.47,5.889-11.771,7.927c-0.339,0.113,0,0.68,0.34,0.453
					c4.301-2.039,7.583-5.775,11.771-7.927C242.02,375.936,241.793,375.483,241.453,375.596L241.453,375.596z"/>
			</g>
		</g>
		<g>
			<g>
				<path fill="#FFFFFF" d="M242.246,370.613c-4.754,1.812-7.471,6.342-11.771,8.72c-0.339,0.227,0,0.679,0.34,0.453
					c4.301-2.378,7.017-6.908,11.657-8.72C242.812,371.066,242.585,370.5,242.246,370.613L242.246,370.613z"/>
			</g>
		</g>
		<g>
			<g>
				<path fill="#FFFFFF" d="M242.585,366.536c-4.414,2.605-8.035,6.116-11.771,9.513c-0.226,0.227,0.113,0.68,0.453,0.453
					c3.734-3.397,7.356-6.794,11.657-9.399C243.152,366.763,242.925,366.31,242.585,366.536L242.585,366.536z"/>
			</g>
		</g>
		<g>
			<g>
				<path fill="#FFFFFF" d="M242.698,362.686c-4.641,1.812-8.262,5.662-11.204,9.626c-0.227,0.34,0.226,0.566,0.452,0.34
					c2.717-3.851,6.338-7.588,10.865-9.4C243.152,363.139,243.038,362.572,242.698,362.686L242.698,362.686z"/>
			</g>
		</g>
		<g>
			<g>
				<path fill="#FFFFFF" d="M240.322,360.761c-3.508,1.246-6.111,3.737-8.488,6.568c-0.227,0.227,0.113,0.679,0.453,0.453
					c2.264-2.718,4.866-5.21,8.262-6.342C240.888,361.213,240.775,360.647,240.322,360.761L240.322,360.761z"/>
			</g>
		</g>
		<g>
			<g>
				<path fill="#FFFFFF" d="M227.532,464.95c-5.771,0.68-8.828,6.342-13.354,9.173c-0.34,0.227,0,0.68,0.34,0.453
					c4.413-2.718,7.582-8.38,13.128-9.06C227.986,465.517,227.986,464.95,227.532,464.95L227.532,464.95z"/>
			</g>
		</g>
		<g>
			<g>
				<path fill="#FFFFFF" d="M223.685,462.346c-4.074,2.038-7.922,4.643-11.431,7.587c-0.227,0.228,0.113,0.68,0.452,0.453
					c3.396-2.944,7.243-5.436,11.318-7.587C224.251,462.686,224.025,462.231,223.685,462.346L223.685,462.346z"/>
			</g>
		</g>
		<g>
			<g>
				<path fill="#FFFFFF" d="M217.573,461.213c-3.508,2.604-7.355,4.757-10.638,7.588c-0.227,0.227,0.112,0.68,0.452,0.452
					c3.282-2.831,7.131-4.869,10.525-7.587C218.139,461.553,217.912,460.986,217.573,461.213L217.573,461.213z"/>
			</g>
		</g>
		<g>
			<g>
				<path fill="#FFFFFF" d="M214.97,458.948c-3.961,2.718-8.035,5.096-11.771,8.04c-0.339,0.227,0.113,0.68,0.453,0.453
					c3.734-2.944,7.81-5.21,11.657-7.927C215.536,459.288,215.197,458.721,214.97,458.948L214.97,458.948z"/>
			</g>
		</g>
		<g>
			<g>
				<path fill="#FFFFFF" d="M190.298,450.681c-2.49,1.698-5.32,2.718-7.923,4.19c-0.34,0.227,0,0.679,0.339,0.453
					c2.604-1.473,5.433-2.492,7.923-4.19C190.864,450.907,190.637,450.454,190.298,450.681L190.298,450.681z"/>
			</g>
		</g>
		<g>
			<g>
				<path fill="#FFFFFF" d="M188.487,447.963c-3.621,1.245-6.904,3.397-10.299,5.322c-0.34,0.227,0,0.68,0.339,0.453
					c3.282-1.925,6.564-3.964,10.187-5.322C188.94,448.416,188.826,447.85,188.487,447.963L188.487,447.963z"/>
			</g>
		</g>
		<g>
			<g>
				<path fill="#FFFFFF" d="M185.091,445.697c-3.961,1.246-7.017,4.417-10.978,5.663c-0.34,0.113-0.227,0.679,0.112,0.566
					c3.962-1.359,7.018-4.417,10.979-5.663C185.544,446.15,185.431,445.584,185.091,445.697L185.091,445.697z"/>
			</g>
		</g>
		<g>
			<g>
				<path fill="#FFFFFF" d="M165.059,436.638c-3.396,0.68-6.111,2.944-9.507,3.737c-0.34,0.113-0.227,0.68,0.113,0.566
					c3.282-0.793,6.111-3.171,9.507-3.737C165.512,437.091,165.399,436.524,165.059,436.638L165.059,436.638z"/>
			</g>
		</g>
		<g>
			<g>
				<path fill="#FFFFFF" d="M161.211,432.107c-3.509,1.926-7.243,3.058-10.865,4.53c-0.34,0.113-0.227,0.68,0.113,0.566
					c3.734-1.473,7.47-2.719,11.091-4.53C161.777,432.334,161.438,431.881,161.211,432.107L161.211,432.107z"/>
			</g>
		</g>
		<g>
			<g>
				<path fill="#FFFFFF" d="M155.212,430.522c-3.168,0.792-6.225,2.151-9.167,3.851c-0.34,0.227,0,0.679,0.339,0.452
					c2.829-1.585,5.885-2.944,9.054-3.736C155.665,430.976,155.552,430.409,155.212,430.522L155.212,430.522z"/>
			</g>
		</g>
		<g>
			<g>
				<path fill="#FFFFFF" d="M121.372,415.8c-2.603,1.472-5.432,2.718-8.262,3.737c-0.339,0.113-0.226,0.679,0.114,0.566
					c2.829-1.133,5.658-2.265,8.375-3.851C122.052,416.14,121.712,415.573,121.372,415.8L121.372,415.8z"/>
			</g>
		</g>
		<g>
			<g>
				<path fill="#FFFFFF" d="M114.695,415.573c0.34,0,0.34-0.566,0-0.566C114.356,415.007,114.356,415.573,114.695,415.573
					L114.695,415.573z"/>
			</g>
		</g>
		<g>
			<g>
				<path fill="#FFFFFF" d="M201.729,436.978c0.339-0.793,0.452-1.586,0.452-2.378c0-0.34-0.565-0.34-0.565,0
					c0,0.792,0,1.472-0.34,2.151C201.049,437.091,201.502,437.317,201.729,436.978L201.729,436.978z"/>
			</g>
		</g>
		<g>
			<g>
				<path fill="#FFFFFF" d="M222.553,417.272c0.679-3.058,0.452-6.342-1.585-8.947c-0.226-0.34-0.679,0-0.452,0.34
					c1.924,2.492,2.15,5.549,1.472,8.494C221.873,417.385,222.44,417.612,222.553,417.272L222.553,417.272z"/>
			</g>
		</g>
		<g>
			<g>
				<path fill="#FFFFFF" d="M129.635,403.342c1.584-1.132,3.282-2.039,4.979-3.058c0.339-0.227,0-0.68-0.34-0.453
					c-1.697,1.02-3.395,1.925-4.979,3.058C129.069,403.116,129.295,403.569,129.635,403.342L129.635,403.342z"/>
			</g>
		</g>
		<g>
			<g>
				<path fill="#FFFFFF" d="M126.579,401.53c2.037-1.246,4.074-2.604,6.111-3.737c0.34-0.227,0-0.679-0.339-0.453
					c-2.037,1.246-4.074,2.604-6.111,3.737C126.013,401.19,126.24,401.644,126.579,401.53L126.579,401.53z"/>
			</g>
		</g>
		<g>
			<g>
				<path fill="#FFFFFF" d="M121.26,400.398c3.961-1.586,6.677-5.209,10.978-6.116c0.34-0.113,0.227-0.566-0.113-0.566
					c-4.301,0.906-7.017,4.53-10.979,6.116C120.694,399.945,120.92,400.511,121.26,400.398L121.26,400.398z"/>
			</g>
		</g>
		<g>
			<g>
				<path fill="#FFFFFF" d="M119.448,398.473c3.169-2.378,6.338-4.87,9.847-6.795c0.34-0.227,0-0.68-0.339-0.453
					c-3.509,1.925-6.678,4.417-9.847,6.795C118.883,398.133,119.109,398.699,119.448,398.473L119.448,398.473z"/>
			</g>
		</g>
		<g>
			<g>
				<path fill="#FFFFFF" d="M115.601,396.208c4.414-2.152,8.035-5.549,12.449-7.588c0.339-0.113,0-0.679-0.339-0.453
					c-4.527,2.038-8.036,5.436-12.45,7.588C115.035,395.868,115.261,396.321,115.601,396.208L115.601,396.208z"/>
			</g>
		</g>
		<g>
			<g>
				<path fill="#FFFFFF" d="M111.073,396.208c5.659-4.19,12.789-6.002,17.882-10.985c0.226-0.227-0.113-0.68-0.453-0.453
					c-4.98,5.096-12.11,6.795-17.769,10.985C110.508,395.868,110.734,396.434,111.073,396.208L111.073,396.208z"/>
			</g>
		</g>
		<g>
			<g>
				<path fill="#FFFFFF" d="M112.205,390.885c4.527-3.058,11.997-4.53,14.826-9.626c0.226-0.34-0.339-0.566-0.453-0.34
					c-2.83,4.87-10.186,6.342-14.713,9.4C111.639,390.545,111.866,391.111,112.205,390.885L112.205,390.885z"/>
			</g>
		</g>
		<g>
			<g>
				<path fill="#FFFFFF" d="M112.545,387.034c4.753-2.718,9.846-4.417,15.052-6.002c0.339-0.113,0.227-0.68-0.113-0.566
					c-5.206,1.585-10.413,3.397-15.166,6.116C111.979,386.808,112.319,387.261,112.545,387.034L112.545,387.034z"/>
			</g>
		</g>
		<g>
			<g>
				<path fill="#FFFFFF" d="M114.469,382.958c4.414-0.906,8.375-3.058,12.223-5.323c0.339-0.227,0-0.68-0.34-0.453
					c-3.848,2.265-7.696,4.417-11.997,5.323C113.903,382.504,114.016,383.071,114.469,382.958L114.469,382.958z"/>
			</g>
		</g>
		<g>
			<g>
				<path fill="#FFFFFF" d="M117.185,379.107c2.716-1.132,5.206-2.605,7.922-3.737c0.339-0.113,0-0.679-0.34-0.453
					c-2.716,1.133-5.206,2.605-7.922,3.737C116.506,378.767,116.846,379.22,117.185,379.107L117.185,379.107z"/>
			</g>
		</g>
		<g>
			<g>
				<path fill="#FFFFFF" d="M112.998,378.314c3.848-2.265,8.036-4.077,12.11-6.116c0.339-0.113,0-0.68-0.34-0.453
					c-4.074,2.039-8.262,3.737-12.11,6.116C112.319,378.087,112.658,378.541,112.998,378.314L112.998,378.314z"/>
			</g>
		</g>
		<g>
			<g>
				<path fill="#FFFFFF" d="M113.677,374.237c3.508-1.925,7.13-3.737,10.638-5.663c0.34-0.227,0-0.68-0.339-0.453
					c-3.509,1.925-7.13,3.737-10.639,5.662C113.111,373.897,113.45,374.351,113.677,374.237L113.677,374.237z"/>
			</g>
		</g>
		<g>
			<g>
				<path fill="#FFFFFF" d="M114.016,370.047c3.622-1.246,6.564-3.737,10.186-4.87c0.339-0.113,0.226-0.68-0.114-0.566
					c-3.622,1.246-6.564,3.737-10.186,4.869C113.563,369.594,113.677,370.16,114.016,370.047L114.016,370.047z"/>
			</g>
		</g>
		<g>
			<g>
				<path fill="#FFFFFF" d="M113.677,366.197c3.508-1.473,7.13-2.718,9.959-5.323c0.227-0.227-0.113-0.679-0.453-0.453
					c-2.716,2.604-6.337,3.737-9.733,5.209C113.111,365.857,113.45,366.423,113.677,366.197L113.677,366.197z"/>
			</g>
		</g>
		<g>
			<g>
				<path fill="#FFFFFF" d="M113.677,362.12c2.829-1.246,5.771-2.378,8.375-4.19c0.34-0.227,0-0.679-0.339-0.453
					c-2.603,1.812-5.433,2.945-8.375,4.19C113.111,361.78,113.45,362.232,113.677,362.12L113.677,362.12z"/>
			</g>
		</g>
		<g>
			<g>
				<path fill="#FFFFFF" d="M112.205,359.854c2.83-1.925,6.338-2.378,8.714-4.983c0.227-0.227-0.113-0.68-0.453-0.453
					c-2.376,2.492-5.885,3.058-8.601,4.87C111.639,359.515,111.866,359.968,112.205,359.854L112.205,359.854z"/>
			</g>
		</g>
		<g>
			<g>
				<path fill="#FFFFFF" d="M112.205,357.476c2.716-1.585,5.319-3.058,8.262-4.19c0.34-0.113,0.227-0.68-0.113-0.566
					c-2.943,1.132-5.659,2.605-8.375,4.19C111.639,357.25,111.866,357.703,112.205,357.476L112.205,357.476z"/>
			</g>
		</g>
		<g>
			<g>
				<path fill="#FFFFFF" d="M114.13,352.606c1.697-0.792,3.282-1.812,4.979-2.604c0.339-0.113,0-0.68-0.339-0.453
					c-1.698,0.792-3.282,1.812-4.98,2.605C113.45,352.267,113.79,352.72,114.13,352.606L114.13,352.606z"/>
			</g>
		</g>
		<g>
			<g>
				<path fill="#FFFFFF" d="M110.621,350.681c3.169-0.906,5.885-2.718,8.828-4.19c0.339-0.113,0-0.68-0.339-0.453
					c-2.83,1.472-5.546,3.284-8.601,4.19C110.168,350.229,110.281,350.794,110.621,350.681L110.621,350.681z"/>
			</g>
		</g>
		<g>
			<g>
				<path fill="#FFFFFF" d="M110.621,348.077c2.604-0.793,4.867-2.605,7.583-3.058c0.34-0.113,0.227-0.566-0.113-0.566
					c-2.716,0.453-4.98,2.265-7.583,3.058C110.168,347.624,110.281,348.19,110.621,348.077L110.621,348.077z"/>
			</g>
		</g>
		<g>
			<g>
				<path fill="#FFFFFF" d="M111.753,343.886c1.811-0.339,3.508-1.246,4.64-2.718c0.227-0.34-0.227-0.68-0.453-0.453
					c-1.131,1.472-2.603,2.152-4.414,2.605C111.3,343.433,111.413,344,111.753,343.886L111.753,343.886z"/>
			</g>
		</g>
		<g>
			<g>
				<path fill="#FFFFFF" d="M110.734,342.754c1.698-0.906,3.396-1.925,4.867-3.058c0.34-0.227,0-0.68-0.34-0.453
					c-1.584,1.132-3.168,2.152-4.867,3.058C110.055,342.414,110.394,342.867,110.734,342.754L110.734,342.754z"/>
			</g>
		</g>
		<g>
			<g>
				<path fill="#FFFFFF" d="M129.069,511.609c-2.376,0.792-4.527,1.925-6.564,3.511c-0.339,0.226,0.114,0.565,0.453,0.452
					c1.924-1.472,4.075-2.604,6.338-3.283C129.521,512.062,129.408,511.496,129.069,511.609L129.069,511.609z"/>
			</g>
		</g>
		<g>
			<g>
				<path fill="#FFFFFF" d="M183.734,412.742c-3.962-2.492-5.32-7.928-7.131-12.005c-1.811-4.19-4.526-7.701-6.79-11.551
					c-2.83-4.756-5.433-9.513-8.036-14.496c-0.565-1.246-1.358-2.378-1.811-3.737c-0.905-2.492-1.472-3.171,1.132-3.171
					c2.15-0.114,4.414,0.906,6.564,1.132c0.226,0,0.339-0.227,0.226-0.453c-4.413-9.966-10.412-19.139-14.712-29.218
					c-0.114-0.227-0.34-0.113-0.453,0c-0.227,0.34-0.453,0.793-0.793,1.132c-0.226,0.34,0.34,0.566,0.453,0.34
					c0.793-1.246,1.585,1.925,1.924,2.492c0.792,1.472,1.472,3.058,2.264,4.53c1.698,3.397,3.621,6.682,5.433,9.966
					c0.679,1.133,5.206,8.041,4.641,9.173c-0.905,1.699-7.018,0.113-8.828,0.227c-0.227,0-0.34,0.227-0.227,0.453
					c5.093,10.079,10.865,19.592,16.637,29.332c3.057,5.096,3.849,12.91,9.281,16.308
					C183.846,413.422,184.073,412.968,183.734,412.742L183.734,412.742z"/>
			</g>
		</g>
	</g>
	<g>
		<g>
			<path fill="#FFFFFF" d="M68.632,418.518c0-1.699,0.679-3.285,2.264-4.078c0.339-0.226,0-0.679-0.34-0.453
				c-1.697,0.906-2.49,2.718-2.49,4.643C68.066,418.858,68.632,418.858,68.632,418.518L68.632,418.518z"/>
		</g>
	</g>
	<g>
		<g>
			<path fill="#FFFFFF" d="M67.5,416.933c0.453-2.265,2.038-3.851,4.188-4.53c0.34-0.113,0.227-0.68-0.113-0.566
				c-2.377,0.792-4.074,2.491-4.527,4.982C66.822,417.159,67.387,417.385,67.5,416.933L67.5,416.933z"/>
		</g>
	</g>
	<g>
		<g>
			<path fill="#FFFFFF" d="M69.085,412.629c0.453-1.132,1.471-1.812,2.603-2.152c0.34-0.113,0.227-0.68-0.113-0.566
				c-1.245,0.453-2.49,1.246-2.943,2.604C68.406,412.742,68.971,412.968,69.085,412.629L69.085,412.629z"/>
		</g>
	</g>
	<g>
		<g>
			<path fill="#FFFFFF" d="M69.424,409.911c0.792-0.793,1.698-1.473,2.716-1.925c0.34-0.113,0-0.68-0.339-0.453
				c-1.019,0.566-2.038,1.246-2.83,2.039C68.745,409.797,69.085,410.25,69.424,409.911L69.424,409.911z"/>
		</g>
	</g>
	<g>
		<g>
			<path fill="#FFFFFF" d="M69.651,406.4c1.245-0.453,2.151-1.246,3.282-2.038c0.339-0.227,0-0.68-0.339-0.453
				c-1.019,0.679-1.924,1.585-3.056,1.925C69.198,406.061,69.311,406.513,69.651,406.4L69.651,406.4z"/>
		</g>
	</g>
	<g>
		<g>
			<path fill="#FFFFFF" d="M71.009,403.569c0.34-0.68,1.019-1.019,1.585-1.585c0.226-0.227-0.113-0.68-0.453-0.453
				c-0.565,0.566-1.245,0.906-1.584,1.699C70.33,403.569,70.896,403.909,71.009,403.569L71.009,403.569z"/>
		</g>
	</g>
	<g>
		<g>
			<path fill="#FFFFFF" d="M69.311,402.097c1.245-0.793,2.376-1.925,2.943-3.397c0.113-0.34-0.453-0.453-0.566-0.113
				c-0.453,1.246-1.584,2.265-2.603,3.058C68.745,401.757,69.085,402.21,69.311,402.097L69.311,402.097z"/>
		</g>
	</g>
	<g>
		<g>
			<path fill="#FFFFFF" d="M69.311,399.718c0.792-0.453,1.245-0.906,1.358-1.812c0-0.34-0.566-0.34-0.566,0
				c0,0.68-0.453,1.02-1.018,1.359C68.745,399.378,68.971,399.832,69.311,399.718L69.311,399.718z"/>
		</g>
	</g>
	<g>
		<g>
			<path fill="#FFFFFF" d="M65.123,406.173c0.34-2.944-0.792-5.662-2.376-8.041c-0.226-0.34-0.679,0-0.453,0.34
				c1.584,2.378,2.603,4.87,2.376,7.814C64.558,406.513,65.123,406.513,65.123,406.173L65.123,406.173z"/>
		</g>
	</g>
	<g>
		<g>
			<path fill="#FFFFFF" d="M63.879,408.892c-0.453-3.058-1.245-5.889-2.377-8.72c-0.113-0.34-0.679-0.227-0.565,0.113
				c1.132,2.831,1.924,5.776,2.376,8.72C63.426,409.344,63.992,409.231,63.879,408.892L63.879,408.892z"/>
		</g>
	</g>
	<g>
		<g>
			<path fill="#FFFFFF" d="M61.502,410.59c0.453-2.265-0.113-4.53-1.245-6.568c-0.227-0.34-0.679,0-0.453,0.34
				c1.018,1.925,1.584,3.963,1.132,6.115C60.936,410.817,61.502,410.93,61.502,410.59L61.502,410.59z"/>
		</g>
	</g>
	<g>
		<g>
			<path fill="#FFFFFF" d="M59.917,412.516c0-2.378-0.453-4.53-1.245-6.795c-0.113-0.34-0.679-0.227-0.566,0.113
				c0.679,2.152,1.132,4.417,1.132,6.682C59.352,412.855,59.917,412.855,59.917,412.516L59.917,412.516z"/>
		</g>
	</g>
	<g>
		<g>
			<path fill="#FFFFFF" d="M58.333,413.648c-0.34-1.812-0.453-3.624-1.245-5.209c-0.113-0.34-0.679,0-0.453,0.34
				c0.792,1.585,0.792,3.397,1.132,5.096C57.88,414.101,58.446,413.988,58.333,413.648L58.333,413.648z"/>
		</g>
	</g>
	<g>
		<g>
			<path fill="#FFFFFF" d="M52.561,401.644c0.34,0,0.34-0.566,0-0.566C52.108,401.077,52.108,401.644,52.561,401.644L52.561,401.644
				z"/>
		</g>
	</g>
	<g>
		<g>
			<path fill="#FFFFFF" d="M85.269,397.34c-2.943-5.663-7.696-7.135-13.808-6.116c-0.339,0.113-0.227,0.566,0.113,0.566
				c5.772-0.906,10.299,0.453,13.128,5.775C85.043,397.906,85.496,397.566,85.269,397.34L85.269,397.34z"/>
		</g>
	</g>
</g>
</svg>
