<?xml version="1.0" encoding="utf-8"?>
<!-- Generator: Adobe Illustrator 18.1.1, SVG Export Plug-In . SVG Version: 6.00 Build 0)  -->
<svg version="1.1" id="Layer_1" xmlns="http://www.w3.org/2000/svg" xmlns:xlink="http://www.w3.org/1999/xlink" x="0px" y="0px"
	 viewBox="0 0 227.2 155.5" enable-background="new 0 0 227.2 155.5" xml:space="preserve">
<g>
	<g>
		<g>
			<path fill="#262261" d="M151.8,22c1.1-1.4,2.2-2.8,3.2-4.2c0.6-0.8-0.7-1.5-1.3-0.8c-1,1.3-1.9,2.7-2.9,3.9
				C150.1,21.7,151.2,22.7,151.8,22L151.8,22z"/>
		</g>
	</g>
	<g>
		<g>
			<path fill="#262261" d="M142.7,16.1c0.8-1.2,1.7-2.3,2.7-3.3c0.7-0.7-0.4-1.7-1.1-1.1c-1.1,1.1-2.1,2.3-3,3.6
				C140.9,16.2,142.2,16.9,142.7,16.1L142.7,16.1z"/>
		</g>
	</g>
	<g>
		<g>
			<path fill="#262261" d="M145.5,11.3c-1-1-1.7-2.3-0.7-3.6c0.6-0.8-0.7-1.5-1.3-0.8c-1.4,1.8-0.5,3.9,0.9,5.4
				C145.1,13.1,146.1,12,145.5,11.3L145.5,11.3z"/>
		</g>
	</g>
	<g>
		<g>
			<path fill="#262261" d="M154.4,18.1c1.7,0.5,3.8,0.4,5-1.1c0.4-0.5-0.3-1.2-0.7-0.7c-1,1.2-2.6,1.3-4,0.9
				C154,16.9,153.8,17.9,154.4,18.1L154.4,18.1z"/>
		</g>
	</g>
	<g>
		<g>
			<path fill="#262261" d="M159.3,16.8c0.8-2.9-3.9-5.4-5.8-6.5c-2.3-1.3-6.7-4.2-9.6-3.4c-0.9,0.3-0.5,1.7,0.4,1.4
				c2.1-0.6,5.6,1.7,7.4,2.7c1.3,0.7,6.8,3.3,6.2,5.4C157.6,17.3,159.1,17.7,159.3,16.8L159.3,16.8z"/>
		</g>
	</g>
	<g>
		<g>
			<path fill="#262261" d="M69.6,21.7c-1.4-1.3-1.9-3.7-2.3-5.5c-0.1-0.6-1.1-0.4-1,0.3c0.4,1.9,1,4.6,2.6,5.9
				C69.4,22.9,70.1,22.1,69.6,21.7L69.6,21.7z"/>
		</g>
	</g>
	<g>
		<g>
			<path fill="#262261" d="M79.5,16.7c-0.5-1-0.9-2.1-1.4-3.1c-0.3-0.5-0.6-1.6-1.3-1.8c-0.6-0.2-0.9,0.8-0.3,1
				c-0.1,0,0.1,0.2,0.1,0.3c0.1,0.2,0.2,0.3,0.3,0.5c0.2,0.4,0.4,0.8,0.6,1.3c0.4,0.8,0.7,1.7,1.2,2.5
				C78.9,17.8,79.8,17.3,79.5,16.7L79.5,16.7z"/>
		</g>
	</g>
	<g>
		<g>
			<path fill="#262261" d="M65.7,15.4c-0.8,0.4-1.7,0.8-2.5,1.2c0.3,0.3,0.5,0.5,0.8,0.8c-0.2-2.6,4.8-4.8,6.6-5.7
				c2.4-1.2,5.4-2.8,8.1-2.9c-0.3-0.3-0.5-0.5-0.8-0.8c-0.1,1.2-1.3,1.9-2.3,2.4c-0.9,0.4-0.1,1.7,0.8,1.3c1.6-0.8,2.9-1.9,3-3.7
				c0-0.4-0.4-0.8-0.8-0.8c-3.4,0.2-7.2,2.1-10.1,3.7c-2.2,1.2-6.3,3.4-6.1,6.4c0,0.4,0.3,0.8,0.8,0.8c1.5-0.2,2.4-0.6,3.6-1.6
				C67.5,15.8,66.4,14.8,65.7,15.4L65.7,15.4z"/>
		</g>
	</g>
	<g>
		<g>
			<path fill="#262261" d="M28.7,43.5c1-1.8,1.5-3.7,2.3-5.6c0.2-0.6-0.7-0.9-1-0.3c-0.7,1.8-1.3,3.7-2.2,5.4
				C27.5,43.6,28.4,44.1,28.7,43.5L28.7,43.5z"/>
		</g>
	</g>
	<g>
		<g>
			<path fill="#262261" d="M30.9,38.4c11.5-5,24.4-5.8,35.7-11c0.6-0.3,0.1-1.1-0.5-0.9c-6,2.8-12.7,3.7-19,5.5
				c-5.6,1.6-11.3,3.2-16.7,5.5C29.8,37.8,30.4,38.7,30.9,38.4L30.9,38.4z"/>
		</g>
	</g>
	<g>
		<g>
			<path fill="#262261" d="M67.1,27.6c0.1-2.2-1.1-5.3,1.2-6.7c0.5-0.3,0-1.2-0.5-0.9c-2.8,1.7-1.5,4.9-1.7,7.6
				C66.1,28.2,67.1,28.2,67.1,27.6L67.1,27.6z"/>
		</g>
	</g>
	<g>
		<g>
			<path fill="#262261" d="M78.6,15.6c5.4-3.8,12.2-5.1,15.6-11.3c0.5-0.8-0.8-1.6-1.3-0.8c-3.2,5.9-9.9,7.1-15,10.7
				C77.1,14.8,77.8,16.1,78.6,15.6L78.6,15.6z"/>
		</g>
	</g>
	<g>
		<g>
			<path fill="#262261" d="M93.3,4.4c1.7,0.3,3.7-0.1,5.3,0.7c0.8,0.5,1.6-0.8,0.8-1.3c-1.8-1-3.8-0.5-5.7-0.9
				C92.8,2.8,92.4,4.2,93.3,4.4L93.3,4.4z"/>
		</g>
	</g>
	<g>
		<g>
			<path fill="#262261" d="M122.1,5.1c2.3,0,4.6,0,6.9,0c1,0,1-1.5,0-1.5c-2.3,0-4.6,0-6.9,0C121.1,3.6,121.1,5.1,122.1,5.1
				L122.1,5.1z"/>
		</g>
	</g>
	<g>
		<g>
			<path fill="#262261" d="M128.7,4.3c0.9,6.6,6.8,9,12.2,11.5c0.9,0.4,1.6-0.9,0.8-1.3c-4.7-2.1-10.7-4.3-11.5-10.2
				C130.1,3.4,128.6,3.4,128.7,4.3L128.7,4.3z"/>
		</g>
	</g>
	<g>
		<g>
			<path fill="#262261" d="M152,21c0.4,0.9,0.9,1.8,1.3,2.8c0.4,1.1-0.1,2.1-0.6,3.1c-0.3,0.6,0.6,1.1,0.9,0.5c0.5-1,1-2.1,0.9-3.2
				c-0.2-1.2-1-2.4-1.4-3.5C152.7,20.1,151.8,20.4,152,21L152,21z"/>
		</g>
	</g>
	<g>
		<g>
			<path fill="#262261" d="M154.4,27.8c5.8,4,12.2,6.4,19.2,7.5c6.5,1,14.9,1.1,16,9.4c0.1,0.9,1.6,1,1.5,0
				c-0.7-5.7-4.2-8.4-9.6-9.7c-9.5-2.2-17.9-2.8-26.2-8.5C154.3,26,153.6,27.3,154.4,27.8L154.4,27.8z"/>
		</g>
	</g>
	<g>
		<g>
			<path fill="#262261" d="M189.8,44.1c-4.2,2.9-13.3,4.5-18.1,2.2c-0.6-0.3-1.1,0.6-0.5,0.9c5,2.4,14.6,0.8,19.1-2.2
				C190.8,44.6,190.3,43.7,189.8,44.1L189.8,44.1z"/>
		</g>
	</g>
	<g>
		<g>
			<path fill="#262261" d="M174.7,117.8c9.6-2,17.3-5.5,25.7-10.5c6.7-3.9,13.3-8.4,17.4-15.1c0.5-0.8-0.8-1.6-1.3-0.8
				c-4.2,7-11.2,11.3-18.1,15.3c-7.8,4.6-15.2,7.8-24.1,9.6C173.4,116.6,173.8,118,174.7,117.8L174.7,117.8z"/>
		</g>
	</g>
	<g>
		<g>
			<path fill="#262261" d="M188.8,46.3c5.9,0,11.6-0.3,17.4-1.7c4.1-1,8.5-1.8,11.5-4.9c0.7-0.7-0.4-1.8-1.1-1.1
				c-3.1,3.1-7.9,3.8-12,4.8c-5.2,1.2-10.5,1.3-15.8,1.3C187.9,44.8,187.9,46.3,188.8,46.3L188.8,46.3z"/>
		</g>
	</g>
	<g>
		<g>
			<path fill="#262261" d="M190.2,43.6c6.8,0,13.2-0.6,19-4.4c0.5-0.3,0-1.2-0.5-0.9c-5.7,3.6-11.9,4.2-18.5,4.2
				C189.6,42.6,189.6,43.6,190.2,43.6L190.2,43.6z"/>
		</g>
	</g>
	<g>
		<g>
			<path fill="#262261" d="M217.2,93.2c3.7,0.1,4.4-10.7,4.8-12.9c1.5-9.5,2.2-19.3,2.4-28.9c0.1-5.1,1.4-13.7-4.6-15.9
				c-2.1-0.8-4.6-0.8-6.9-0.9c-3-0.1-6.5-0.6-9.5-0.1c-1.5,0.3-3,0.8-4,2.1c-0.7,1-0.7,1.1-1,2.2c0,0.8-0.1,1.5-0.1,2.3
				c-0.3,0.8-0.1,1.1,0.7,0.8c-0.3-0.6-1.1-0.1-0.9,0.5c0.1,0.1,0.1,0.3,0.2,0.4c0.2,0.5,1,0.2,0.9-0.3c-0.2-3.8,4-7.3,7.6-7.1
				c1.8,0.1,3.6,0.1,5.4,0.1c4.2,0.1,9.4,0.1,10.6,4.9c1.3,5.1,0.5,11.4,0.2,16.6c-0.3,7.2-0.9,14.4-2,21.6
				c-0.2,1.6-1.4,13.6-4,13.5C216.5,92.1,216.5,93.1,217.2,93.2L217.2,93.2z"/>
		</g>
	</g>
	<g>
		<g>
			<path fill="#262261" d="M203.4,41.8c0.4-1.9,3.1-2.9,4.7-3.1c0.8-0.1,1.8,0,2.6,0.1c3.2,0.1,6.3,0.3,8.2,3.6
				c1.2,2.1,0.8,6.9,0.9,9.3c0.1,2.7,0,5.5-0.1,8.2c-0.5,10.6-0.3,22.5-3.5,32.7c-0.2,0.6,0.8,0.9,1,0.3c2.4-7.7,2.4-15.9,3-23.8
				c0.6-8.2,1.9-17.5,0.1-25.6c-1.1-4.9-4.3-5.4-8.8-5.6c-3.5-0.2-8-0.5-8.9,3.8C202.3,42.2,203.3,42.4,203.4,41.8L203.4,41.8z"/>
		</g>
	</g>
	<g>
		<g>
			<path fill="#262261" d="M220,91.6c5.2-4.7,6.4-11.5,6.9-18.2c0.6-9.8,0.6-19.7-0.2-29.5c-0.4-5.9-1.1-11.1-7.5-12.8
				c-6.3-1.7-13.5-0.4-18.4,3.9c-0.5,0.4,0.2,1.1,0.7,0.7c4.9-4.3,14.5-6.3,20.4-2.6c5.4,3.4,4.1,15.1,4.2,20.6
				c0.3,11.3,2.4,28.8-6.8,37.2C218.8,91.3,219.5,92,220,91.6L220,91.6z"/>
		</g>
	</g>
	<g>
		<g>
			<path fill="#262261" d="M220.8,31.7c-4-4.2-10.3-4.2-15.7-4.5c-9-0.5-18.5,0-26.9-3.9c-0.6-0.3-1.1,0.6-0.5,0.9
				c6.4,3,13.6,3.4,20.6,3.7c6.7,0.3,16.8-0.7,21.8,4.6C220.5,32.9,221.2,32.2,220.8,31.7L220.8,31.7z"/>
		</g>
	</g>
	<g>
		<g>
			<path fill="#262261" d="M177.7,33.3c0.1-4.2,2.1-11-3-12.9c-6.2-2.4-14.6-1.9-21.1-1.7c-0.6,0-0.6,1,0,1
				c5.6-0.2,11.3,0.1,16.8,0.9c3.5,0.5,6.4,1.3,6.7,5.5c0.2,2.4-0.4,4.9-0.4,7.3C176.7,33.9,177.7,33.9,177.7,33.3L177.7,33.3z"/>
		</g>
	</g>
	<g>
		<g>
			<path fill="#262261" d="M217.6,84.4c-2.3,3.3-6.2,5.1-9.3,7.5c-2,1.6-4.9,4.9-7.6,5.1c-8.1,0.6-4.7-23.4-4-28.1
				c0.6-3.7,1-8.6,3.7-11.5c2.2-2.3,5.5-3.2,8.5-4.2c4.1-1.4,8.3-2.7,10.6-6.7c0.2-0.3-0.3-0.5-0.4-0.3c-4,7.1-13.8,5.3-19,10.8
				c-2.5,2.6-2.9,6.7-3.6,10.1c-0.9,5.1-1.5,10.3-1.4,15.5c0,3.5-0.6,15.5,5.3,14.9c2.8-0.3,5.4-3,7.5-4.7c3.4-2.7,7.6-4.6,10.2-8.2
				C218.2,84.4,217.8,84.1,217.6,84.4L217.6,84.4z"/>
		</g>
	</g>
	<g>
		<g>
			<path fill="#262261" d="M219.2,76c-3.5,4.7-7,9.5-10.4,14.3c-0.2,0.3,0.2,0.5,0.4,0.3c3.4-4.8,6.9-9.5,10.4-14.3
				C219.8,76,219.4,75.8,219.2,76L219.2,76z"/>
		</g>
	</g>
	<g>
		<g>
			<path fill="#262261" d="M213.9,78.5c-2.3,3.4-4.6,6.8-6.9,10.2c-0.2,0.3,0.2,0.5,0.4,0.3c2.4-3.4,4.6-6.8,6.9-10.2
				C214.5,78.4,214.1,78.2,213.9,78.5L213.9,78.5z"/>
		</g>
	</g>
	<g>
		<g>
			<path fill="#262261" d="M216.6,68.7c-4.9,8-10,15.9-14.9,23.9c-0.2,0.3,0.3,0.5,0.4,0.3c4.9-8,10-15.9,14.9-23.9
				C217.2,68.6,216.7,68.4,216.6,68.7L216.6,68.7z"/>
		</g>
	</g>
	<g>
		<g>
			<path fill="#262261" d="M212.7,69.5c-4.5,6.5-8.7,13.2-13.1,19.8c-0.2,0.3,0.3,0.5,0.4,0.3c4.3-6.6,8.6-13.3,13.1-19.8
				C213.3,69.5,212.9,69.2,212.7,69.5L212.7,69.5z"/>
		</g>
	</g>
	<g>
		<g>
			<path fill="#262261" d="M211.5,66.8c-3.7,5.7-7.3,11.5-11.6,16.7c-0.2,0.2,0.1,0.6,0.4,0.4c4.4-5.3,7.9-11.1,11.7-16.8
				C212.1,66.8,211.6,66.6,211.5,66.8L211.5,66.8z"/>
		</g>
	</g>
	<g>
		<g>
			<path fill="#262261" d="M210.2,65.2c-3.8,5.6-7.5,11.3-11.8,16.7c-0.2,0.2,0.2,0.6,0.4,0.4c4.3-5.4,8-11.1,11.9-16.8
				C210.8,65.2,210.4,64.9,210.2,65.2L210.2,65.2z"/>
		</g>
	</g>
	<g>
		<g>
			<path fill="#262261" d="M207.2,65.6c-1.4,2-2.7,3.9-4.1,5.9c-0.2,0.3,0.3,0.5,0.4,0.3c1.3-2,2.7-4,4.1-5.9
				C207.8,65.6,207.4,65.3,207.2,65.6L207.2,65.6z"/>
		</g>
	</g>
	<g>
		<g>
			<path fill="#262261" d="M205.1,63.8c-2.6,4-5.4,7.9-8.2,11.8c-0.2,0.3,0.3,0.5,0.4,0.3c2.7-3.9,5.5-7.8,8.2-11.8
				C205.7,63.8,205.3,63.5,205.1,63.8L205.1,63.8z"/>
		</g>
	</g>
	<g>
		<g>
			<path fill="#262261" d="M205.3,59.7c-2.9,4.2-5.9,8.3-8.6,12.7c-0.2,0.3,0.3,0.5,0.4,0.3c2.7-4.3,5.6-8.5,8.6-12.7
				C205.9,59.7,205.5,59.4,205.3,59.7L205.3,59.7z"/>
		</g>
	</g>
	<g>
		<g>
			<path fill="#262261" d="M201.3,62.1c0.3,0,0.3-0.5,0-0.5C200.9,61.6,200.9,62.1,201.3,62.1L201.3,62.1z"/>
		</g>
	</g>
	<g>
		<g>
			<path fill="#262261" d="M48.6,48.3c-3.3,0.1-6.7-0.3-9.9-0.9c-2.9-0.5-8.9-1.3-10.2-4.5c-0.2-0.6-1.2-0.3-1,0.3
				c1.2,3,5.4,3.9,8.1,4.6c4.2,1,8.7,1.6,13,1.5C49.3,49.3,49.3,48.3,48.6,48.3L48.6,48.3z"/>
		</g>
	</g>
	<g>
		<g>
			<path fill="#262261" d="M30.6,38.8c3.8,2.8,9.4,1.3,13.6,0.4c6-1.4,12-3.5,17.5-6.3c0.6-0.3,0.1-1.2-0.5-0.9
				c-4.7,2.4-9.7,4.2-14.8,5.6C42,38.8,35.2,41,31.1,38C30.6,37.6,30.1,38.4,30.6,38.8L30.6,38.8z"/>
		</g>
	</g>
	<g>
		<g>
			<path fill="#262261" d="M186,37.6c-11.3,0.4-23.3-2.8-31.5-10.8c-0.7-0.7-1.8,0.4-1.1,1.1c8.5,8.3,20.9,11.7,32.6,11.2
				C186.9,39.1,186.9,37.6,186,37.6L186,37.6z"/>
		</g>
	</g>
	<g>
		<g>
			<path fill="#262261" d="M152.4,22.2c-3.5-0.6-6.9-2.9-9.9-4.7c-3.6-2.2-7-4.8-10.2-7.6c-0.2-0.2-0.6,0.1-0.4,0.4
				c3.2,2.9,6.6,5.5,10.3,7.7c3.1,1.9,6.4,4.2,10,4.8C152.5,22.8,152.7,22.3,152.4,22.2L152.4,22.2z"/>
		</g>
	</g>
	<g>
		<g>
			<path fill="#262261" d="M67.4,21.3c-0.5,0.9-0.3,0.6-0.6,1.5c0,0.1,0,0.2,0.1,0.2c3.9,3.1,10.5-2.2,13.8-4.1
				c5.7-3.3,11.9-8.1,12.8-15.1c0-0.3-0.5-0.3-0.5,0c-0.8,6.6-6.8,11.3-12.1,14.4c-1.5,0.9-3,1.8-4.5,2.7c-0.6,0.3-10.2,4.1-8.4,0.6
				C68,21.3,67.6,21,67.4,21.3L67.4,21.3z"/>
		</g>
	</g>
	<g>
		<g>
			<path fill="#262261" d="M116.1,4c1.2,2.9,0.8,6.3,0.8,9.3c0,0.3,0.5,0.3,0.5,0c0-3.1,0.4-6.5-0.8-9.5C116.5,3.5,116,3.7,116.1,4
				L116.1,4z"/>
		</g>
	</g>
	<g>
		<g>
			<path fill="#262261" d="M112.3,4.1c-0.4,3-0.4,6.1-0.6,9.2c0,0.3,0.5,0.3,0.5,0c0.2-3.1,0.2-6.1,0.6-9.2
				C112.8,3.8,112.3,3.8,112.3,4.1L112.3,4.1z"/>
		</g>
	</g>
	<g>
		<g>
			<path fill="#262261" d="M108,4.7c0,2.9,0,5.8,0,8.8c0,0.3,0.5,0.3,0.5,0c0-2.9,0-5.8,0-8.8C108.5,4.4,108,4.4,108,4.7L108,4.7z"
				/>
		</g>
	</g>
	<g>
		<g>
			<path fill="#262261" d="M103.7,3.6c-0.9,3.1-0.9,6.6-0.2,9.7c0.1,0.3,0.5,0.2,0.5-0.1c-0.6-3.1-0.6-6.4,0.2-9.5
				C104.3,3.5,103.8,3.3,103.7,3.6L103.7,3.6z"/>
		</g>
	</g>
	<g>
		<g>
			<path fill="#262261" d="M119.1,3.9c0,1.2,0,2.3,0,3.5c0,0.6,1,0.6,1,0c0-1.2,0-2.3,0-3.5C120.1,3.3,119.1,3.3,119.1,3.9
				L119.1,3.9z"/>
		</g>
	</g>
	<g>
		<g>
			<path fill="#262261" d="M118.4,12.6c-5.5,0.7-12,1.8-17.1-1c-0.6-0.3-1.1,0.6-0.5,0.9c5.2,2.9,11.9,1.8,17.6,1.1
				C119.1,13.5,119.1,12.5,118.4,12.6L118.4,12.6z"/>
		</g>
	</g>
	<g>
		<g>
			<path fill="#262261" d="M119.2,1.8c-3,1.1-6.4,1.3-9.5,1.4c-3,0.1-7.2,0.5-9.9-1.2c0,0.4,0,0.9,0,1.3c2.4-1.8,6.4-1.8,9.3-1.8
				c3.1-0.1,6.9-0.2,9.7,1.2c0.9,0.4,1.6-0.9,0.8-1.3c-3.1-1.5-7.1-1.5-10.5-1.4c-3.1,0.1-7.5,0-10,2c-0.4,0.3-0.5,1,0,1.3
				c2.7,1.7,6.6,1.5,9.7,1.4c3.6-0.1,7.5-0.3,10.9-1.5C120.5,2.9,120.2,1.4,119.2,1.8L119.2,1.8z"/>
		</g>
	</g>
	<g>
		<g>
			<path fill="#262261" d="M110.3,15c27.2-1.4,56.2,16.9,66.1,42.1c14,35.8-3.9,78.7-40.2,92c-17.3,6.3-37.4,6.1-54.2-1.6
				c-14.4-6.6-25.9-18.4-33.1-32.4c-8.2-15.7-10-32.1-5.5-49c3.2-11.9,8.9-23.2,17.6-32.1c13-13.2,30.9-18.6,49-19.3
				c0.6,0,0.6-1,0-1c-16.5,0.6-32.9,5-45.7,15.9C55,37.4,48.4,47.9,44.4,59.1c-6.1,17.1-6.4,34,0.8,50.9
				c13.8,32.2,47.1,50.3,81.7,42.8c38.2-8.3,60.6-46,53.8-83.8c-5.7-31.9-38-56.7-70.4-55C109.6,14.1,109.6,15.1,110.3,15L110.3,15z
				"/>
		</g>
	</g>
	<g>
		<g>
			<path fill="#262261" d="M110.5,15.6c27.2-1.4,56.2,16.9,66.1,42.1c14,35.8-3.9,78.7-40.2,92c-17.3,6.3-37.4,6.1-54.2-1.6
				c-14.4-6.6-25.9-18.4-33.1-32.4c-8.2-15.7-10-32.1-5.5-49c3.2-11.9,8.9-23.2,17.6-32.1c13-13.2,30.9-18.6,49-19.3
				c0.6,0,0.6-1,0-1c-16.5,0.6-32.9,5-45.7,15.9c-9.2,7.8-15.7,18.2-19.8,29.4c-6.1,17.1-6.4,34,0.8,50.9
				c13.8,32.2,47.1,50.3,81.7,42.8c38.2-8.3,60.6-46,53.8-83.8c-5.7-31.9-38-56.7-70.4-55C109.8,14.7,109.8,15.7,110.5,15.6
				L110.5,15.6z"/>
		</g>
	</g>
	<g>
		<g>
			<path fill="#262261" d="M110.1,23.1c1,0,1-1.5,0-1.5C109.2,21.6,109.2,23.1,110.1,23.1L110.1,23.1z"/>
		</g>
	</g>
	<g>
		<g>
			<path fill="#262261" d="M68.4,130.1c-13.5-14.2-21.8-33.3-19.7-53c1.6-15.3,8.6-30.2,20.8-39.9c11.6-9.3,26.4-13,41-13.9
				c0.6,0,0.6-1,0-1C87.6,23.6,65.3,32.8,54.4,54c-4.9,9.5-7.2,20.1-7.1,30.7c0.1,17.2,8.7,33.7,20.4,46
				C68.1,131.2,68.8,130.5,68.4,130.1L68.4,130.1z"/>
		</g>
	</g>
	<g>
		<g>
			<path fill="#262261" d="M110.5,23.3c24.9-1.2,51.2,15.9,59.4,39.4c11.8,33.9-7.2,72.5-42.2,81.7c-21.2,5.6-43.7,0.2-59.5-15
				c-0.7-0.7-1.8,0.4-1.1,1.1c26.5,25.6,72.2,22.7,94.7-6.9c20.9-27.5,16.2-69.9-12.8-89.6c-11-7.5-25.2-12.7-38.7-12
				C109.6,21.9,109.5,23.4,110.5,23.3L110.5,23.3z"/>
		</g>
	</g>
	<g>
		<g>
			<path fill="#262261" d="M110.2,28.6c1,0,1-1.5,0-1.5C109.3,27.1,109.2,28.6,110.2,28.6L110.2,28.6z"/>
		</g>
	</g>
	<g>
		<g>
			<path fill="#262261" d="M83.8,134.5C66,123.9,52.2,102.8,54,81.5c1.2-14.1,7.2-28.3,17.6-38c10.7-10,24.9-14.2,39.3-15
				c0.6,0,0.6-1,0-1c-23,1.3-43.4,12.1-52.8,33.8c-5,11.6-6.8,24.3-3.4,36.6c4.3,15.7,14.6,29.2,28.6,37.5
				C83.8,135.7,84.3,134.8,83.8,134.5L83.8,134.5z"/>
		</g>
	</g>
	<g>
		<g>
			<path fill="#262261" d="M109,28.6c22.5-0.5,46.2,12.3,54.9,33.7c11,27.1-0.9,60.5-27.5,73.1c-16.4,7.8-36.3,7.5-52.3-1.1
				c-0.9-0.5-1.6,0.8-0.8,1.3c27.2,14.6,63.5,5.1,78.6-22.2c14.2-25.7,7.9-59.6-17-75.9c-10.6-6.9-23.3-10.7-35.9-10.5
				C108,27.1,108,28.6,109,28.6L109,28.6z"/>
		</g>
	</g>
	<g>
		<g>
			<path fill="#262261" d="M31.3,45.6c-7.7,0.7-16.3-0.1-23.7-2.5c-2-0.7-5.5-1.9-6.3-4.2c-0.9-2.7,1-5.4,3.1-6.7
				c2.9-1.8,6.3-2.9,9.4-4c8.3-2.9,17-4.7,25.8-5.7c9.1-1.1,18.3-2.5,27.5-2.4c0.6,0,0.6-1,0-1c-11.9-0.1-24.3,1.6-36,3.7
				c-9.1,1.6-19.8,3.8-27.7,8.9c-4.8,3.1-4.6,8,0.4,10.9c7.4,4.3,19.2,4.7,27.4,4C31.9,46.6,31.9,45.6,31.3,45.6L31.3,45.6z"/>
		</g>
	</g>
	<g>
		<g>
			<path fill="#262261" d="M28.4,41.2c-5.1,0.2-10.5,0.1-15.5-1.4c-3.7-1.2-8.8-3.8-4.6-7.6c2.5-2.3,6.1-3.7,9.2-4.8
				c2.5-0.9,5.5-2.3,8.2-2.3c0.6,0,0.6-1,0-1c-3.5,0-7.5,1.9-10.7,3.2c-3,1.3-7.8,3.1-9.2,6.3c-3.9,8.6,18.8,8.7,22.6,8.6
				C29.1,42.1,29.1,41.1,28.4,41.2L28.4,41.2z"/>
		</g>
	</g>
	<g>
		<g>
			<path fill="#262261" d="M0.4,37.6c0,17.5,0,35.1,0,52.6c0,0.6,1,0.6,1,0c0-17.5,0-35.1,0-52.6C1.4,36.9,0.4,36.9,0.4,37.6
				L0.4,37.6z"/>
		</g>
	</g>
	<g>
		<g>
			<path fill="#262261" d="M47.2,115c-9.7-0.2-18.6-3.5-27.2-7.9c-3.9-2-7.8-4.3-11.2-7.2c-3.1-2.6-8.4-7.4-7.3-11.9
				c0.1-0.6-0.8-0.9-1-0.3c-1.8,7.8,10.2,15.2,15.7,18.4c9.5,5.4,19.9,9.6,30.9,9.8C47.9,116,47.9,115,47.2,115L47.2,115z"/>
		</g>
	</g>
	<g>
		<g>
			<path fill="#262261" d="M57.6,128.9c-5.6-1.3-10.6-4.5-16.1-6.4c-5.4-1.9-9.3-3.5-10.7-9.6c-0.2-0.6-1.1-0.4-1,0.3
				c1,4.3,3.1,6.9,7.2,8.7c2.9,1.3,5.9,2.1,8.8,3.3c3.8,1.7,7.4,3.7,11.5,4.6C57.9,130,58.2,129.1,57.6,128.9L57.6,128.9z"/>
		</g>
	</g>
	<g>
		<g>
			<path fill="#262261" d="M23.8,97.6c0.3-7.4-0.3-14.8-0.4-22.2c-0.1-4.7,1.3-10.1,0.4-14.7c-0.6-3.2-2.2-4.1-5.1-4.8
				c-5.9-1.4-13.1-4.2-17.8-8.2c-0.2-0.2-0.6,0.1-0.4,0.4c3.3,2.9,7.6,4.6,11.6,6.3c1.7,0.8,3.5,1.4,5.3,1.9c4.1,1,6,3.3,6,7.5
				c0,4.8-0.6,9.6-0.5,14.5c0.2,6.5,0.6,13,0.3,19.4C23.3,97.9,23.8,97.9,23.8,97.6L23.8,97.6z"/>
		</g>
	</g>
	<g>
		<g>
			<path fill="#262261" d="M23,97.3c-3.5,1.6-8.2-3.8-11.5-5.4c-3.6-1.7-8.7-3.2-10.4-7.2c-0.1-0.3-0.6,0-0.4,0.3
				c2,4.6,7.9,5.9,11.9,8c3.3,1.7,6.6,6.6,10.7,4.7C23.6,97.6,23.3,97.2,23,97.3L23,97.3z"/>
		</g>
	</g>
	<g>
		<g>
			<path fill="#262261" d="M21.8,91.4c-1.5,0.9-2.8,2.2-3.9,3.5c-0.2,0.2,0.1,0.6,0.4,0.4c1.1-1.3,2.3-2.5,3.8-3.4
				C22.3,91.7,22.1,91.3,21.8,91.4L21.8,91.4z"/>
		</g>
	</g>
	<g>
		<g>
			<path fill="#262261" d="M22.2,88.4c-2.3,1.6-4.3,3.5-6.2,5.5c-0.2,0.2,0.1,0.6,0.4,0.4c1.8-2,3.8-3.9,6.1-5.5
				C22.7,88.6,22.5,88.2,22.2,88.4L22.2,88.4z"/>
		</g>
	</g>
	<g>
		<g>
			<path fill="#262261" d="M21.6,85.9c-3.1,0.9-5,3.9-7.3,6c-0.2,0.2,0.1,0.6,0.4,0.4c2.2-2,4.1-5,7-5.9
				C22.1,86.3,22,85.8,21.6,85.9L21.6,85.9z"/>
		</g>
	</g>
	<g>
		<g>
			<path fill="#262261" d="M21.1,82.7c-2.3,1.9-4.8,3.6-6.9,5.7c-0.2,0.2,0.1,0.6,0.4,0.4c2.1-2.1,4.6-3.8,6.9-5.7
				C21.7,82.8,21.4,82.5,21.1,82.7L21.1,82.7z"/>
		</g>
	</g>
	<g>
		<g>
			<path fill="#262261" d="M19.3,80.9c-2.7,3-6.1,5.1-9.2,7.5c-0.3,0.2,0.1,0.6,0.4,0.4c3.1-2.5,6.5-4.6,9.2-7.5
				C19.9,81,19.5,80.6,19.3,80.9L19.3,80.9z"/>
		</g>
	</g>
	<g>
		<g>
			<path fill="#262261" d="M20.1,76.2c-4.2,3.5-7.8,7.6-12.4,10.6c-0.3,0.2,0,0.6,0.3,0.4c4.7-2.9,8.3-7.2,12.5-10.6
				C20.7,76.3,20.4,76,20.1,76.2L20.1,76.2z"/>
		</g>
	</g>
	<g>
		<g>
			<path fill="#262261" d="M18.7,74.1c-3.1,3.5-6.8,6.2-10.4,9.2c-0.2,0.2,0.1,0.6,0.4,0.4c3.6-2.9,7.3-5.7,10.4-9.2
				C19.2,74.2,18.9,73.9,18.7,74.1L18.7,74.1z"/>
		</g>
	</g>
	<g>
		<g>
			<path fill="#262261" d="M15.4,73.1c-4.3,3.5-8.5,7.1-12.7,10.8c-0.2,0.2,0.1,0.6,0.4,0.4c4.1-3.7,8.3-7.3,12.7-10.8
				C16,73.3,15.7,72.9,15.4,73.1L15.4,73.1z"/>
		</g>
	</g>
	<g>
		<g>
			<path fill="#262261" d="M17.2,68.4c-4.3,3.7-8.8,7.1-13.1,10.8c-0.2,0.2,0.1,0.6,0.4,0.4c4.3-3.7,8.8-7.1,13.1-10.8
				C17.8,68.6,17.5,68.2,17.2,68.4L17.2,68.4z"/>
		</g>
	</g>
	<g>
		<g>
			<path fill="#262261" d="M17.5,64.1C13.7,67.9,9,70.4,5,73.9c-0.2,0.2,0.1,0.6,0.4,0.4c4-3.5,8.7-6,12.4-9.8
				C18,64.3,17.7,63.9,17.5,64.1L17.5,64.1z"/>
		</g>
	</g>
	<g>
		<g>
			<path fill="#262261" d="M16.2,61.1c-3.1,2.9-6.2,5.7-9.9,7.7c-0.3,0.2,0,0.6,0.3,0.4c3.7-2.1,6.9-4.9,10-7.8
				C16.8,61.2,16.5,60.8,16.2,61.1L16.2,61.1z"/>
		</g>
	</g>
	<g>
		<g>
			<path fill="#262261" d="M12.4,60.3c-2.2,2.2-4.2,4.9-7.2,6.1c-0.3,0.1-0.2,0.6,0.1,0.5c3.2-1.2,5.2-3.9,7.5-6.2
				C12.9,60.4,12.6,60,12.4,60.3L12.4,60.3z"/>
		</g>
	</g>
	<g>
		<g>
			<path fill="#262261" d="M8.7,59.8c-1,1.2-2.1,2.3-3.3,3.3c-0.2,0.2,0.1,0.6,0.4,0.4C7,62.5,8,61.4,9,60.2
				C9.2,60,8.9,59.6,8.7,59.8L8.7,59.8z"/>
		</g>
	</g>
	<g>
		<g>
			<path fill="#262261" d="M4.6,60.3c0.3,0,0.3-0.5,0-0.5C4.3,59.8,4.2,60.3,4.6,60.3L4.6,60.3z"/>
		</g>
	</g>
	<g>
		<g>
			<path fill="#262261" d="M101.6,11.7c-0.7-2.7-1.2-5.6-2.9-7.9c-0.4-0.5-1.2,0-0.9,0.5c1.7,2.2,2.2,5,2.8,7.6
				C100.8,12.6,101.7,12.4,101.6,11.7L101.6,11.7z"/>
		</g>
	</g>
	<g>
		<g>
			<path fill="#262261" d="M98.9,2.9c0,1.4,0,2.9,0,4.3c0,0.6,1,0.6,1,0c0-1.4,0-2.9,0-4.3C99.9,2.2,98.9,2.2,98.9,2.9L98.9,2.9z"/>
		</g>
	</g>
	<g>
		<g>
			<path fill="#262261" d="M119.5,11.9c-0.1-2.8,1.2-4.9,2.2-7.4c0.2-0.6-0.7-0.9-1-0.3c-1,2.6-2.4,4.8-2.3,7.7
				C118.6,12.5,119.6,12.5,119.5,11.9L119.5,11.9z"/>
		</g>
	</g>
	<g>
		<g>
			<path fill="#262261" d="M119.1,3.3c0,0.4,0,0.8,0,1.2c0,0.6,1,0.6,1,0c0-0.4,0-0.8,0-1.2C120.1,2.7,119.1,2.7,119.1,3.3
				L119.1,3.3z"/>
		</g>
	</g>
	<g>
		<g>
			<path fill="#262261" d="M158,16.5c-5.1-0.5-10.4-5.2-13.9-8.7c-0.2-0.2-0.6,0.1-0.4,0.4c3.7,3.6,8.9,8.3,14.3,8.8
				C158.3,17,158.3,16.5,158,16.5L158,16.5z"/>
		</g>
	</g>
	<g>
		<g>
			<path fill="#262261" d="M153.4,16.9c-3.1-1.2-6.5-2.4-8.7-5c-0.2-0.2-0.6,0.1-0.4,0.4c2.3,2.7,5.7,3.9,8.9,5.2
				C153.5,17.5,153.7,17,153.4,16.9L153.4,16.9z"/>
		</g>
	</g>
	<g>
		<g>
			<path fill="#262261" d="M68.1,16.6c3-1.1,5.6-3.1,7.9-5.4c0.2-0.2-0.1-0.6-0.4-0.4c-2.2,2.2-4.7,4.1-7.6,5.2
				C67.7,16.2,67.8,16.7,68.1,16.6L68.1,16.6z"/>
		</g>
	</g>
	<g>
		<g>
			<path fill="#262261" d="M99.6,10.4c-2.4,0.4-4.8,0.3-7,1.5c-0.3,0.1,0,0.6,0.3,0.4c2.2-1.1,4.5-1,6.9-1.4
				C100,10.8,99.9,10.4,99.6,10.4L99.6,10.4z"/>
		</g>
	</g>
	<g>
		<g>
			<path fill="#262261" d="M129.6,11.2c-2.9,0-5.8-0.4-8.8-0.4c-0.3,0-0.3,0.5,0,0.5c2.9,0,5.8,0.4,8.8,0.4
				C130,11.7,130,11.2,129.6,11.2L129.6,11.2z"/>
		</g>
	</g>
	<g>
		<g>
			<path fill="#262261" d="M186.1,43.9c-1.7,0.6-3.4,1.2-5.2,1c-0.3,0-0.3,0.5,0,0.5c1.9,0.2,3.6-0.4,5.4-1
				C186.5,44.2,186.4,43.8,186.1,43.9L186.1,43.9z"/>
		</g>
	</g>
	<g>
		<g>
			<path fill="#262261" d="M186.4,42.4c-2,0.2-4.1,0.8-6.1,0.8c-0.3,0-0.3,0.5,0,0.5c2.1,0,4.1-0.6,6.1-0.8
				C186.7,42.9,186.7,42.4,186.4,42.4L186.4,42.4z"/>
		</g>
	</g>
	<g>
		<g>
			<path fill="#262261" d="M184.3,41c-1.5,0.2-2.9,0.4-4.4,0.4c-0.3,0-0.3,0.5,0,0.5c1.5,0,3-0.2,4.6-0.4
				C184.7,41.4,184.6,41,184.3,41L184.3,41z"/>
		</g>
	</g>
	<g>
		<g>
			<path fill="#262261" d="M34.6,40.5c-1.2,0-2.4-0.6-3.5-1c-0.6-0.2-0.9,0.8-0.3,1c1.3,0.4,2.5,1,3.8,1
				C35.2,41.6,35.2,40.6,34.6,40.5L34.6,40.5z"/>
		</g>
	</g>
	<g>
		<g>
			<path fill="#262261" d="M34.2,42c-1.1,0-2.2-0.2-3.2-0.7c-0.6-0.3-1.1,0.5-0.5,0.9c1.1,0.6,2.4,0.9,3.7,0.9
				C34.8,43,34.8,42,34.2,42L34.2,42z"/>
		</g>
	</g>
	<g>
		<g>
			<path fill="#262261" d="M33.3,43.6c-0.7,0-1.4-0.2-1.9-0.7c-0.5-0.4-1.2,0.3-0.7,0.7c0.7,0.7,1.6,0.9,2.6,1
				C34,44.6,34,43.6,33.3,43.6L33.3,43.6z"/>
		</g>
	</g>
	<g>
		<g>
			<path fill="#262261" d="M111.4,28.2c-0.2,2.2-0.2,4.5-0.2,6.7c0,0.6,1,0.6,1,0c0-2.2,0-4.5,0.2-6.7
				C112.4,27.5,111.4,27.6,111.4,28.2L111.4,28.2z"/>
		</g>
	</g>
	<g>
		<g>
			<path fill="#262261" d="M110.6,132.6c-0.6,2.1-0.6,4.2-1,6.3c-0.1,0.3,0.4,0.4,0.5,0.1c0.4-2.1,0.4-4.3,1-6.3
				C111.2,132.4,110.7,132.3,110.6,132.6L110.6,132.6z"/>
		</g>
	</g>
	<g>
		<g>
			<path fill="#262261" d="M167.6,83.2c-2.3-0.2-4.6,0.2-6.9,0.2c-0.6,0-0.6,1,0,1c2.3,0,4.6-0.4,6.9-0.2
				C168.2,84.2,168.2,83.2,167.6,83.2L167.6,83.2z"/>
		</g>
	</g>
	<g>
		<g>
			<path fill="#262261" d="M61.9,81.6c-2.3,0-4.6,0.4-6.9,0.2c-0.6,0-0.6,1,0,1c2.3,0.2,4.6-0.2,6.9-0.2
				C62.5,82.5,62.6,81.5,61.9,81.6L61.9,81.6z"/>
		</g>
	</g>
	<g>
		<g>
			<path fill="#262261" d="M138.1,38.2c-1.1,0.5-1.9,1.5-2.4,2.6c-0.1,0.3,0.4,0.4,0.5,0.1c0.4-1,1.1-1.9,2.1-2.3
				C138.6,38.5,138.4,38,138.1,38.2L138.1,38.2z"/>
		</g>
	</g>
	<g>
		<g>
			<path fill="#262261" d="M158.3,56.9c-0.9,0.7-1.9,1.3-2.9,2c-0.3,0.2,0,0.6,0.3,0.4c0.9-0.7,1.9-1.3,2.9-2
				C158.8,57.2,158.5,56.8,158.3,56.9L158.3,56.9z"/>
		</g>
	</g>
	<g>
		<g>
			<path fill="#262261" d="M157.7,109.6c-1.2-0.4-2.2-1.2-3.2-1.8c-0.3-0.2-0.5,0.3-0.3,0.4c1.1,0.7,2.1,1.4,3.3,1.9
				C157.8,110.2,158,109.7,157.7,109.6L157.7,109.6z"/>
		</g>
	</g>
	<g>
		<g>
			<path fill="#262261" d="M137.4,129.1c-0.6-1.2-1-2.7-1.9-3.7c-0.2-0.2-0.6,0.1-0.4,0.4c0.9,1,1.2,2.5,1.8,3.6
				C137.1,129.6,137.6,129.3,137.4,129.1L137.4,129.1z"/>
		</g>
	</g>
	<g>
		<g>
			<path fill="#262261" d="M85.2,126.8c-0.6,1-1.3,1.9-2.2,2.6c-0.3,0.2,0.1,0.5,0.4,0.4c0.9-0.7,1.7-1.7,2.3-2.7
				C85.8,126.8,85.3,126.5,85.2,126.8L85.2,126.8z"/>
		</g>
	</g>
	<g>
		<g>
			<path fill="#262261" d="M65.9,106.1c-1.1,0.8-2.2,1.5-3.6,1.8c-0.3,0.1-0.2,0.5,0.1,0.5c1.4-0.2,2.7-1,3.8-1.9
				C66.6,106.2,66.2,105.9,65.9,106.1L65.9,106.1z"/>
		</g>
	</g>
	<g>
		<g>
			<path fill="#262261" d="M66.5,57.2c-1-0.6-2-1.4-3.1-2c-0.3-0.2-0.5,0.3-0.3,0.4c1,0.6,2,1.4,3.1,2
				C66.5,57.8,66.8,57.3,66.5,57.2L66.5,57.2z"/>
		</g>
	</g>
	<g>
		<g>
			<path fill="#262261" d="M84.8,38.3c-0.2-0.8-0.7-1.5-1.3-2.2c-0.2-0.2-0.6,0.1-0.4,0.4c0.5,0.6,1,1.2,1.2,1.9
				C84.4,38.8,84.9,38.6,84.8,38.3L84.8,38.3z"/>
		</g>
	</g>
	<g>
		<g>
			<path fill="#262261" d="M188.3,113.5c-0.6,6.2-7.2,8.4-12.3,10.3c-2.1,0.8-6.6,1.5-8.2,3.2c-0.4,0.5,0.3,1.2,0.7,0.7
				c1.1-1.2,4.6-1.8,6-2.3c2-0.7,4-1.4,5.9-2.3c4.6-2.1,8.3-4.2,8.8-9.6C189.4,112.8,188.4,112.8,188.3,113.5L188.3,113.5z"/>
		</g>
	</g>
	<g>
		<g>
			<path fill="#262261" d="M117.6,44.3c0,2.8-0.2,5.6-0.2,8.4c0,0.3,0.5,0.3,0.5,0c0-2.8,0.2-5.6,0.2-8.4
				C118.1,44,117.6,44,117.6,44.3L117.6,44.3z"/>
		</g>
	</g>
	<g>
		<g>
			<path fill="#262261" d="M115.4,52.2c-2.5,0.2-5.9,1-8.3,0.5c-1.7-0.4-1.3-1.8-1.3-3.3c0-1.4,0-2.7,0-4.1c0-0.9-0.3-2.8,0.4-3.5
				c0.7-0.8,2.6-0.5,3.6-0.5c2.8-0.1,5.5-0.1,8.2,0.4c0.3,0.1,0.4-0.4,0.1-0.5c-4.1-0.8-8.3-0.4-12.5-0.2c-0.1,0-0.2,0.1-0.3,0.3
				c-0.2,3.9-0.2,7.8,0,11.6c0,0.1,0.1,0.2,0.3,0.3c3.3,0.1,6.5-0.2,9.8-0.4C115.7,52.7,115.7,52.2,115.4,52.2L115.4,52.2z"/>
		</g>
	</g>
	<g>
		<g>
			<path fill="#262261" d="M63.3,28.9c1.5-2,2.1-4.5,3.3-6.7c0.1-0.3-0.3-0.5-0.4-0.3c-1.2,2.2-1.8,4.7-3.3,6.7
				C62.7,28.9,63.2,29.2,63.3,28.9L63.3,28.9z"/>
		</g>
	</g>
	<g>
		<g>
			<path fill="#262261" d="M61.5,28.3c1.3-2.3,2.8-4.5,3.5-7c0.1-0.3-0.4-0.4-0.5-0.1c-0.7,2.5-2.2,4.6-3.4,6.9
				C60.9,28.3,61.4,28.6,61.5,28.3L61.5,28.3z"/>
		</g>
	</g>
	<g>
		<g>
			<path fill="#262261" d="M58.2,29.1c1.7-2.5,3.5-4.8,4.5-7.6c0.1-0.3-0.4-0.4-0.5-0.1c-1,2.8-2.8,5.1-4.5,7.5
				C57.6,29.1,58.1,29.4,58.2,29.1L58.2,29.1z"/>
		</g>
	</g>
	<g>
		<g>
			<path fill="#262261" d="M55.6,29.5c1.7-2.5,3.4-4.9,4.7-7.5c0.1-0.3-0.3-0.5-0.4-0.3c-1.3,2.7-3,5.1-4.7,7.5
				C55,29.6,55.4,29.8,55.6,29.5L55.6,29.5z"/>
		</g>
	</g>
	<g>
		<g>
			<path fill="#262261" d="M52.9,29.9c1.5-2.7,2.8-5.6,4.9-7.9c0.2-0.2-0.1-0.6-0.4-0.4c-2.1,2.4-3.5,5.2-4.9,8
				C52.4,30,52.8,30.2,52.9,29.9L52.9,29.9z"/>
		</g>
	</g>
	<g>
		<g>
			<path fill="#262261" d="M48.8,32.1c1.9-3.3,3.8-6.6,5.4-10.1c0.1-0.3-0.3-0.5-0.4-0.3c-1.6,3.5-3.5,6.8-5.4,10.1
				C48.2,32.1,48.6,32.3,48.8,32.1L48.8,32.1z"/>
		</g>
	</g>
	<g>
		<g>
			<path fill="#262261" d="M45,32.3c1.8-3,3.4-6.1,4.9-9.3c0.1-0.3-0.3-0.5-0.4-0.3c-1.5,3.2-3.1,6.3-4.9,9.3
				C44.4,32.4,44.8,32.6,45,32.3L45,32.3z"/>
		</g>
	</g>
	<g>
		<g>
			<path fill="#262261" d="M41.4,34.2c2.1-3.7,4.2-7.5,5.8-11.5c0.1-0.3-0.4-0.4-0.5-0.1c-1.6,3.9-3.7,7.7-5.8,11.4
				C40.9,34.3,41.3,34.5,41.4,34.2L41.4,34.2z"/>
		</g>
	</g>
	<g>
		<g>
			<path fill="#262261" d="M37.4,35c2.1-3.7,4.3-7.5,6.4-11.2c0.2-0.3-0.3-0.5-0.4-0.3c-2.1,3.8-4.3,7.5-6.4,11.2
				C36.8,35.1,37.2,35.3,37.4,35L37.4,35z"/>
		</g>
	</g>
	<g>
		<g>
			<path fill="#262261" d="M34.1,36.1c2.4-4.1,4.8-8.3,7-12.5c0.1-0.3-0.3-0.5-0.4-0.3c-2.2,4.3-4.6,8.4-7,12.5
				C33.5,36.2,33.9,36.4,34.1,36.1L34.1,36.1z"/>
		</g>
	</g>
	<g>
		<g>
			<path fill="#262261" d="M30.8,37.5c2.2-3.7,4.1-7.7,6.3-11.4c0.2-0.3-0.3-0.5-0.4-0.3c-2.2,3.8-4,7.7-6.3,11.4
				C30.2,37.5,30.7,37.8,30.8,37.5L30.8,37.5z"/>
		</g>
	</g>
	<g>
		<g>
			<path fill="#262261" d="M25.9,41.3c2.5-4.6,5.2-9.1,7.4-13.8c0.1-0.3-0.3-0.5-0.4-0.3c-2.2,4.8-5,9.2-7.4,13.8
				C25.4,41.3,25.8,41.6,25.9,41.3L25.9,41.3z"/>
		</g>
	</g>
	<g>
		<g>
			<path fill="#262261" d="M21.9,41.6c2.6-4.3,5.7-8.4,7.4-13.1c0.1-0.3-0.4-0.4-0.5-0.1c-1.7,4.7-4.8,8.8-7.4,13
				C21.3,41.6,21.7,41.9,21.9,41.6L21.9,41.6z"/>
		</g>
	</g>
	<g>
		<g>
			<path fill="#262261" d="M19.1,41C21,37.7,22.9,34.2,25,31c0.2-0.3-0.3-0.5-0.4-0.3c-2.1,3.2-4,6.7-5.8,10.1
				C18.6,41.1,19,41.3,19.1,41L19.1,41z"/>
		</g>
	</g>
	<g>
		<g>
			<path fill="#262261" d="M15.8,41.1c2.4-2.5,4.4-6,5.9-9.1c0.1-0.3-0.3-0.5-0.4-0.3c-1.4,3.1-3.5,6.5-5.8,9
				C15.3,41,15.6,41.3,15.8,41.1L15.8,41.1z"/>
		</g>
	</g>
	<g>
		<g>
			<path fill="#262261" d="M193.4,43.6c2-1.5,3.7-3.4,5.6-5c0.2-0.2-0.1-0.6-0.4-0.4c-1.8,1.6-3.5,3.4-5.5,4.9
				C192.9,43.3,193.2,43.8,193.4,43.6L193.4,43.6z"/>
		</g>
	</g>
	<g>
		<g>
			<path fill="#262261" d="M190.5,43c3.1-2.4,6.3-4.7,9.1-7.5c0.2-0.2-0.1-0.6-0.4-0.4c-2.8,2.7-6.1,5-9.1,7.5
				C189.9,42.8,190.2,43.2,190.5,43L190.5,43z"/>
		</g>
	</g>
	<g>
		<g>
			<path fill="#262261" d="M189.4,40.8c3.1-2.6,6.7-4.9,9.4-8c0.2-0.2-0.1-0.6-0.4-0.4c-2.7,3.1-6.2,5.4-9.4,8
				C188.8,40.7,189.2,41,189.4,40.8L189.4,40.8z"/>
		</g>
	</g>
	<g>
		<g>
			<path fill="#262261" d="M188,38.6c2.6-2.3,5.6-4.3,8.1-6.8c0.2-0.2-0.1-0.6-0.4-0.4c-2.5,2.5-5.5,4.5-8.1,6.8
				C187.4,38.5,187.8,38.8,188,38.6L188,38.6z"/>
		</g>
	</g>
	<g>
		<g>
			<path fill="#262261" d="M187.1,36.6c2.5-1.9,4.8-4,7-6.2c0.2-0.2-0.1-0.6-0.4-0.4c-2.2,2.2-4.4,4.2-6.9,6.1
				C186.6,36.3,186.9,36.8,187.1,36.6L187.1,36.6z"/>
		</g>
	</g>
	<g>
		<g>
			<path fill="#262261" d="M184.5,35.9c2.1-1.9,4.5-3.5,6.3-5.7c0.2-0.2-0.1-0.6-0.4-0.4c-1.8,2.2-4.2,3.8-6.3,5.7
				C183.9,35.8,184.3,36.1,184.5,35.9L184.5,35.9z"/>
		</g>
	</g>
	<g>
		<g>
			<path fill="#262261" d="M181.5,35.1c3.1-1.5,5.2-3.7,7.5-6.2c0.2-0.2-0.1-0.6-0.4-0.4c-2.3,2.4-4.4,4.6-7.4,6.1
				C180.9,34.8,181.2,35.3,181.5,35.1L181.5,35.1z"/>
		</g>
	</g>
	<g>
		<g>
			<path fill="#262261" d="M178.8,34.6c2.2-1.9,4.7-3.4,6.7-5.6c0.2-0.2-0.1-0.6-0.4-0.4c-2,2.1-4.5,3.7-6.7,5.6
				C178.2,34.4,178.5,34.8,178.8,34.6L178.8,34.6z"/>
		</g>
	</g>
	<g>
		<g>
			<path fill="#262261" d="M174.5,35.1c3.3-1.9,6.7-4.4,8.7-7.6c0.2-0.3-0.3-0.5-0.4-0.3c-1.9,3.2-5.3,5.6-8.5,7.5
				C173.9,34.9,174.2,35.3,174.5,35.1L174.5,35.1z"/>
		</g>
	</g>
	<g>
		<g>
			<path fill="#262261" d="M172,33.7c2.6-2.3,5.4-4.3,8-6.6c0.2-0.2-0.1-0.6-0.4-0.4c-2.6,2.3-5.4,4.3-8,6.6
				C171.4,33.6,171.8,34,172,33.7L172,33.7z"/>
		</g>
	</g>
	<g>
		<g>
			<path fill="#262261" d="M166.7,33.7c3.3-1.9,6-4.6,8.8-7.2c0.2-0.2-0.1-0.6-0.4-0.4c-2.8,2.6-5.5,5.2-8.7,7.1
				C166.2,33.4,166.4,33.9,166.7,33.7L166.7,33.7z"/>
		</g>
	</g>
	<g>
		<g>
			<path fill="#262261" d="M164.6,31.9c2.9-2.3,6.1-4.3,8.9-6.8c0.2-0.2-0.1-0.6-0.4-0.4c-2.8,2.4-5.9,4.4-8.8,6.7
				C164.1,31.6,164.3,32.1,164.6,31.9L164.6,31.9z"/>
		</g>
	</g>
	<g>
		<g>
			<path fill="#262261" d="M162.7,31.1c2.6-1.9,4.9-4.4,7.7-6.1c0.3-0.2,0-0.6-0.3-0.4c-2.8,1.7-5.1,4.2-7.7,6.1
				C162.2,30.8,162.4,31.2,162.7,31.1L162.7,31.1z"/>
		</g>
	</g>
	<g>
		<g>
			<path fill="#262261" d="M160,29.1c2.4-1.9,5.1-3.5,7.7-5.2c0.3-0.2,0-0.6-0.3-0.4c-2.6,1.7-5.3,3.3-7.8,5.3
				C159.4,29,159.8,29.3,160,29.1L160,29.1z"/>
		</g>
	</g>
	<g>
		<g>
			<path fill="#262261" d="M157.3,28.3c2.1-1.8,4.2-3.7,6.2-5.6c0.2-0.2-0.1-0.6-0.4-0.4c-2,2-4.1,3.8-6.2,5.6
				C156.7,28.2,157.1,28.5,157.3,28.3L157.3,28.3z"/>
		</g>
	</g>
	<g>
		<g>
			<path fill="#262261" d="M153.7,27.5c2.2-1.2,4-3.2,5.9-4.9c0.2-0.2-0.1-0.6-0.4-0.4c-1.9,1.6-3.6,3.6-5.8,4.8
				C153.2,27.2,153.4,27.7,153.7,27.5L153.7,27.5z"/>
		</g>
	</g>
	<g>
		<g>
			<path fill="#262261" d="M164.3,130.4c-1.6-1.3-2.9-3-4.7-3.9c-0.3-0.1-0.5,0.3-0.3,0.4c1.8,0.9,3.1,2.6,4.6,3.8
				C164.2,131,164.6,130.6,164.3,130.4L164.3,130.4z"/>
		</g>
	</g>
	<g>
		<g>
			<path fill="#262261" d="M159.8,131.4c-1.4-1-2.7-1.9-3.8-3.2c-0.2-0.2-0.6,0.1-0.4,0.4c1.1,1.3,2.5,2.3,3.9,3.3
				C159.8,132,160,131.6,159.8,131.4L159.8,131.4z"/>
		</g>
	</g>
	<g>
		<g>
			<path fill="#262261" d="M156.8,134.7c-1.1-1.1-2.2-2.3-3.3-3.5c-0.2-0.2-0.6,0.1-0.4,0.4c1,1.2,2.1,2.3,3.3,3.5
				C156.6,135.3,157,135,156.8,134.7L156.8,134.7z"/>
		</g>
	</g>
	<g>
		<g>
			<path fill="#262261" d="M151.4,133.1c0.7,1.8,1.8,3.3,2.7,5c0.1,0.3,0.6,0,0.4-0.3c-0.8-1.6-1.9-3.1-2.6-4.8
				C151.8,132.7,151.3,132.8,151.4,133.1L151.4,133.1z"/>
		</g>
	</g>
	<g>
		<g>
			<path fill="#262261" d="M148,134.8c1.1,2,2.8,3.6,3.7,5.7c0.1,0.3,0.6,0,0.4-0.3c-0.9-2.1-2.6-3.7-3.7-5.7
				C148.3,134.3,147.8,134.5,148,134.8L148,134.8z"/>
		</g>
	</g>
	<g>
		<g>
			<path fill="#262261" d="M145.3,139.3c0.6,1.1,1.3,2.1,1.8,3.3c0.1,0.3,0.6,0,0.4-0.3c-0.6-1.1-1.2-2.2-1.8-3.3
				C145.6,138.8,145.2,139,145.3,139.3L145.3,139.3z"/>
		</g>
	</g>
	<g>
		<g>
			<path fill="#262261" d="M142.7,139.9c0.6,1.6,1.4,3.2,1.8,4.9c0.1,0.3,0.6,0.2,0.5-0.1c-0.5-1.7-1.2-3.3-1.8-4.9
				C143,139.4,142.6,139.6,142.7,139.9L142.7,139.9z"/>
		</g>
	</g>
	<g>
		<g>
			<path fill="#262261" d="M140.4,140.8c0.1,2,1.1,3.7,1.2,5.7c0,0.3,0.5,0.3,0.5,0c-0.1-2-1.2-3.7-1.2-5.7
				C140.9,140.5,140.4,140.5,140.4,140.8L140.4,140.8z"/>
		</g>
	</g>
	<g>
		<g>
			<path fill="#262261" d="M137.8,141.6c-0.1,2,0.6,3.8,1.2,5.6c0.1,0.3,0.6,0.2,0.5-0.1c-0.6-1.8-1.4-3.5-1.2-5.4
				C138.3,141.3,137.8,141.3,137.8,141.6L137.8,141.6z"/>
		</g>
	</g>
	<g>
		<g>
			<path fill="#262261" d="M134.9,142.4c0.1,2.5,0.8,4.8,1.2,7.2c0.1,0.3,0.5,0.2,0.5-0.1c-0.5-2.4-1.2-4.7-1.2-7.1
				C135.4,142.1,134.9,142.1,134.9,142.4L134.9,142.4z"/>
		</g>
	</g>
	<g>
		<g>
			<path fill="#262261" d="M131,144.4c0.6,1.9,0.4,4.1,0.4,6.1c0,0.3,0.5,0.3,0.5,0c0-2,0.2-4.3-0.4-6.2
				C131.4,143.9,130.9,144,131,144.4L131,144.4z"/>
		</g>
	</g>
	<g>
		<g>
			<path fill="#262261" d="M127,145.4c0.4,2,1.2,4.1,0.8,6.2c-0.1,0.3,0.4,0.5,0.5,0.1c0.4-2.2-0.4-4.3-0.8-6.5
				C127.4,144.9,126.9,145.1,127,145.4L127,145.4z"/>
		</g>
	</g>
	<g>
		<g>
			<path fill="#262261" d="M124.3,146.3c0,2.1,0.5,4.4,0,6.5c-0.1,0.3,0.4,0.4,0.5,0.1c0.5-2.1,0-4.4,0-6.6
				C124.8,146,124.3,146,124.3,146.3L124.3,146.3z"/>
		</g>
	</g>
	<g>
		<g>
			<path fill="#262261" d="M121.2,148c-0.2,1.7,0,3.4-0.4,5c-0.1,0.3,0.4,0.4,0.5,0.1c0.4-1.7,0.2-3.4,0.4-5.2
				C121.8,147.6,121.3,147.6,121.2,148L121.2,148z"/>
		</g>
	</g>
	<g>
		<g>
			<path fill="#262261" d="M118.4,147.8c-0.1,0.9,0.2,5.7-0.8,5.9c-0.3,0-0.2,0.5,0.1,0.5c0.8-0.1,0.9-1.4,0.9-2
				c0.2-1.4,0.1-2.9,0.3-4.3C118.9,147.4,118.4,147.4,118.4,147.8L118.4,147.8z"/>
		</g>
	</g>
	<g>
		<g>
			<path fill="#262261" d="M115.3,147.1c-0.1,2.1,0.1,4-0.6,6.1c-0.1,0.3,0.4,0.4,0.5,0.1c0.8-2.1,0.5-4,0.6-6.2
				C115.8,146.8,115.3,146.8,115.3,147.1L115.3,147.1z"/>
		</g>
	</g>
	<g>
		<g>
			<path fill="#262261" d="M112.5,148.6c-0.7,0.7-0.9,1.9-1,2.8c-0.2,1.3-0.3,2.6-0.3,3.9c0,0.3,0.5,0.3,0.5,0
				c0-1.1,0.1-2.1,0.2-3.2c0.1-1,0.2-2.5,1-3.2C113.1,148.7,112.8,148.4,112.5,148.6L112.5,148.6z"/>
		</g>
	</g>
	<g>
		<g>
			<path fill="#262261" d="M108.2,147.7c-0.5,2.1-1.4,4-1.6,6.2c0,0.3,0.5,0.3,0.5,0c0.2-2.1,1.2-4,1.6-6.1
				C108.7,147.5,108.3,147.4,108.2,147.7L108.2,147.7z"/>
		</g>
	</g>
	<g>
		<g>
			<path fill="#262261" d="M104.9,146.9c-0.3,1.9-1,3.6-1.6,5.4c-0.1,0.3,0.4,0.4,0.5,0.1c0.6-1.8,1.4-3.6,1.6-5.6
				C105.5,146.6,105,146.6,104.9,146.9L104.9,146.9z"/>
		</g>
	</g>
	<g>
		<g>
			<path fill="#262261" d="M101.5,147.7c-0.4,1.8-0.8,3.6-1.4,5.3c-0.1,0.3,0.4,0.4,0.5,0.1c0.6-1.7,1-3.5,1.4-5.3
				C102,147.5,101.5,147.4,101.5,147.7L101.5,147.7z"/>
		</g>
	</g>
	<g>
		<g>
			<path fill="#262261" d="M98.4,147.2c-0.8,1.4-1.4,2.8-1.9,4.3c-0.1,0.3,0.4,0.4,0.5,0.1c0.4-1.5,1.1-2.9,1.8-4.2
				C99,147.2,98.6,146.9,98.4,147.2L98.4,147.2z"/>
		</g>
	</g>
	<g>
		<g>
			<path fill="#262261" d="M95.6,145.8c-0.8,1.7-1,3.7-2.2,5.3c-0.2,0.2,0.2,0.6,0.4,0.4c1.2-1.6,1.4-3.6,2.3-5.4
				C96.1,145.8,95.7,145.5,95.6,145.8L95.6,145.8z"/>
		</g>
	</g>
	<g>
		<g>
			<path fill="#262261" d="M93.1,145.2c-0.8,1.5-1.7,3-2.3,4.5c-0.1,0.3,0.4,0.4,0.5,0.1c0.6-1.5,1.4-3,2.2-4.4
				C93.7,145.2,93.3,144.9,93.1,145.2L93.1,145.2z"/>
		</g>
	</g>
	<g>
		<g>
			<path fill="#262261" d="M90.1,144.4c-0.8,1.4-1.2,3-2,4.5c-0.2,0.3,0.3,0.5,0.4,0.3c0.8-1.4,1.2-3,2-4.5
				C90.6,144.3,90.2,144.1,90.1,144.4L90.1,144.4z"/>
		</g>
	</g>
	<g>
		<g>
			<path fill="#262261" d="M87.4,143.1c-1.3,1.4-1.9,3.3-2.9,4.9c-0.2,0.3,0.3,0.5,0.4,0.3c1-1.6,1.5-3.5,2.8-4.8
				C88,143.2,87.7,142.9,87.4,143.1L87.4,143.1z"/>
		</g>
	</g>
	<g>
		<g>
			<path fill="#262261" d="M84.4,142.5c-1,1.3-1.6,2.8-2.3,4.3c-0.1,0.3,0.3,0.5,0.4,0.3c0.6-1.5,1.2-3,2.2-4.2
				C84.9,142.6,84.6,142.2,84.4,142.5L84.4,142.5z"/>
		</g>
	</g>
	<g>
		<g>
			<path fill="#262261" d="M82.7,140.2c-1.4,1.5-2.5,3.3-3.3,5.2c-0.1,0.3,0.3,0.5,0.4,0.3c0.8-1.8,1.8-3.6,3.2-5.1
				C83.3,140.4,83,140,82.7,140.2L82.7,140.2z"/>
		</g>
	</g>
	<g>
		<g>
			<path fill="#262261" d="M79.9,139.2c-1.7,1.3-2.6,3.2-3.7,4.9c-0.2,0.3,0.3,0.5,0.4,0.3c1.1-1.7,2-3.6,3.6-4.8
				C80.5,139.4,80.1,139,79.9,139.2L79.9,139.2z"/>
		</g>
	</g>
	<g>
		<g>
			<path fill="#262261" d="M77.2,136.8c-1.8,1.5-2.7,3.8-4.3,5.5c-0.2,0.2,0.1,0.6,0.4,0.4c1.6-1.7,2.5-4,4.3-5.5
				C77.8,136.9,77.5,136.6,77.2,136.8L77.2,136.8z"/>
		</g>
	</g>
	<g>
		<g>
			<path fill="#262261" d="M73.6,135.7c-1.9,1.3-2.6,3.5-3.8,5.4c-0.2,0.3,0.3,0.5,0.4,0.3c1.1-1.8,1.8-3.9,3.6-5.2
				C74.1,136,73.9,135.5,73.6,135.7L73.6,135.7z"/>
		</g>
	</g>
	<g>
		<g>
			<path fill="#262261" d="M70.5,133.9c-1.5,1.3-2.5,3-3.1,4.8c-0.1,0.3,0.4,0.4,0.5,0.1c0.6-1.8,1.6-3.3,3-4.6
				C71.1,134,70.7,133.7,70.5,133.9L70.5,133.9z"/>
		</g>
	</g>
	<g>
		<g>
			<path fill="#262261" d="M68.7,131.5c-1.8,1.7-3.3,3.7-4.3,6c-0.1,0.3,0.3,0.5,0.4,0.3c1-2.2,2.4-4.2,4.2-5.9
				C69.3,131.6,68.9,131.2,68.7,131.5L68.7,131.5z"/>
		</g>
	</g>
	<g>
		<g>
			<path fill="#262261" d="M65.6,129.2c-1.2,1.1-2,2.4-2.7,3.9c-0.1,0.3,0.3,0.5,0.4,0.3c0.6-1.4,1.4-2.8,2.6-3.8
				C66.2,129.4,65.8,129,65.6,129.2L65.6,129.2z"/>
		</g>
	</g>
	<g>
		<g>
			<path fill="#262261" d="M64.6,127c-1.3,1.1-2.8,1.8-3.7,3.3c-0.2,0.3,0.3,0.5,0.4,0.3c0.9-1.4,2.4-2.2,3.6-3.2
				C65.2,127.1,64.8,126.8,64.6,127L64.6,127z"/>
		</g>
	</g>
	<g>
		<g>
			<path fill="#262261" d="M60.6,125.7c-1.3,0.9-2.3,1.9-3.3,3.1c-0.2,0.2,0.1,0.6,0.4,0.4c1-1.1,2-2.2,3.2-3
				C61.1,126,60.8,125.5,60.6,125.7L60.6,125.7z"/>
		</g>
	</g>
	<g>
		<g>
			<path fill="#262261" d="M189.9,109c-3.1,1.5-6.6,2.2-10.1,2.2c-0.3,0-0.3,0.5,0,0.5c3.5-0.1,7.1-0.8,10.3-2.3
				C190.5,109.3,190.2,108.8,189.9,109L189.9,109z"/>
		</g>
	</g>
	<g>
		<g>
			<path fill="#262261" d="M188.1,107.3c-2.7,0.8-5.4,1.4-8.2,1.8c-0.3,0-0.2,0.5,0.1,0.5c2.8-0.4,5.5-1,8.2-1.8
				C188.6,107.7,188.4,107.2,188.1,107.3L188.1,107.3z"/>
		</g>
	</g>
	<g>
		<g>
			<path fill="#262261" d="M186.1,103.6c-1.8,0.6-3.7,1.2-5.5,1.8c-0.3,0.1-0.2,0.6,0.1,0.5c1.8-0.6,3.7-1.2,5.5-1.8
				C186.5,104,186.4,103.5,186.1,103.6L186.1,103.6z"/>
		</g>
	</g>
	<g>
		<g>
			<path fill="#262261" d="M189.5,100c-2.4,2-5.6,2-8.5,2.8c-0.3,0.1-0.2,0.6,0.1,0.5c3-0.8,6.2-0.9,8.7-2.9
				C190.1,100.2,189.7,99.8,189.5,100L189.5,100z"/>
		</g>
	</g>
	<g>
		<g>
			<path fill="#262261" d="M188.1,98.7c-2.1,0.4-4.1,1.2-6.1,1.8c-0.3,0.1-0.2,0.6,0.1,0.5c2-0.6,4-1.4,6.1-1.8
				C188.6,99.2,188.5,98.7,188.1,98.7L188.1,98.7z"/>
		</g>
	</g>
	<g>
		<g>
			<path fill="#262261" d="M188.1,96.3c-1.8,0.6-3.7,0.9-5.5,1.6c-0.3,0.1-0.2,0.6,0.1,0.5c1.8-0.7,3.7-1,5.5-1.6
				C188.6,96.7,188.4,96.2,188.1,96.3L188.1,96.3z"/>
		</g>
	</g>
	<g>
		<g>
			<path fill="#262261" d="M186.3,93.4c-0.8,0.2-1.6,0.4-2.4,0.6c-0.3,0.1-0.2,0.6,0.1,0.5c0.8-0.2,1.6-0.4,2.4-0.6
				C186.7,93.8,186.6,93.4,186.3,93.4L186.3,93.4z"/>
		</g>
	</g>
	<g>
		<g>
			<path fill="#262261" d="M42.3,110.4c-2.9,0.1-5.4-1.2-8.1-1.8c-0.3-0.1-0.4,0.4-0.1,0.5c2.8,0.7,5.3,1.9,8.2,1.8
				C42.6,110.9,42.6,110.4,42.3,110.4L42.3,110.4z"/>
		</g>
	</g>
	<g>
		<g>
			<path fill="#262261" d="M38.2,106.9c-1.9-0.2-3.7-0.9-5.4-1.8c-0.3-0.2-0.5,0.3-0.3,0.4c1.8,1,3.6,1.6,5.6,1.9
				C38.6,107.4,38.6,106.9,38.2,106.9L38.2,106.9z"/>
		</g>
	</g>
	<g>
		<g>
			<path fill="#262261" d="M39.5,103.4c-2.3-0.4-4.9-0.6-6.6-2.4c-0.2-0.2-0.6,0.1-0.4,0.4c1.8,1.9,4.4,2.1,6.8,2.5
				C39.7,104,39.8,103.5,39.5,103.4L39.5,103.4z"/>
		</g>
	</g>
	<g>
		<g>
			<path fill="#262261" d="M38,99.4c-2.3-0.3-4.4-1.2-6.2-2.6c-0.3-0.2-0.5,0.2-0.3,0.4c1.9,1.4,4.1,2.4,6.5,2.7
				C38.4,99.9,38.4,99.4,38,99.4L38,99.4z"/>
		</g>
	</g>
	<g>
		<g>
			<path fill="#262261" d="M36.4,95.3c-2.1-0.2-4-0.9-5.8-2c-0.3-0.2-0.5,0.3-0.3,0.4c1.8,1.2,3.9,1.8,6,2.1
				C36.7,95.8,36.7,95.3,36.4,95.3L36.4,95.3z"/>
		</g>
	</g>
	<g>
		<g>
			<path fill="#262261" d="M35.2,92.6c-1.6-0.4-3-1.3-4.5-1.8c-0.3-0.1-0.4,0.4-0.1,0.5c1.5,0.6,2.9,1.4,4.5,1.8
				C35.4,93.2,35.6,92.7,35.2,92.6L35.2,92.6z"/>
		</g>
	</g>
	<g>
		<g>
			<path fill="#262261" d="M35.4,89.6c-1.4-0.4-2.7-0.8-4-1.4c-0.3-0.1-0.5,0.3-0.3,0.4c1.3,0.6,2.7,1,4.1,1.5
				C35.6,90.1,35.8,89.7,35.4,89.6L35.4,89.6z"/>
		</g>
	</g>
	<g>
		<g>
			<path fill="#262261" d="M34.2,86.9c-0.9-0.2-1.8-0.5-2.7-0.8c-0.3-0.1-0.4,0.4-0.1,0.5c0.9,0.3,1.8,0.6,2.7,0.8
				C34.4,87.5,34.5,87,34.2,86.9L34.2,86.9z"/>
		</g>
	</g>
	<g>
		<g>
			<g>
				<path fill="#262261" d="M69.5,111c-0.3-11.4,10-19,18.8-24.4c5.5-3.4,12.8-7.3,15.1-13.8c2-5.8-1.2-13-7.9-13.1
					c-8.3,0-13.1,6.4-14.1,14c-0.1,1,1.4,0.9,1.5,0c0.7-5.6,3.3-10.4,9.2-12c5.8-1.6,10.8,1.8,10.4,8c-0.4,6.8-8,11.2-13.2,14.4
					C79.6,90.2,67.6,98.1,68,111C68,111.9,69.5,111.9,69.5,111L69.5,111z"/>
			</g>
		</g>
		<g>
			<g>
				<path fill="#262261" d="M81.8,73.9c-2.4-0.2-4.7,0.4-7.1,0.5c-0.6,0-0.6,1,0,1c2.4-0.1,4.7-0.7,7.1-0.5
					C82.5,75,82.5,74,81.8,73.9L81.8,73.9z"/>
			</g>
		</g>
		<g>
			<g>
				<path fill="#262261" d="M75.3,75.1c1.8-4.3,2-9,4.9-12.9c3.1-4,8.5-6.9,13.6-7.2c10.7-0.7,16.1,10.5,13.6,19.8
					c-2.3,8.3-11.4,13.1-18.2,17.5c-5.4,3.4-11,5.6-12.4,12.3c-0.2,0.9,1.2,1.3,1.4,0.4c1.3-6.4,6.8-8.3,11.7-11.4
					c3.9-2.4,7.9-5,11.5-7.9c6.7-5.3,10.1-13.7,7.1-22.1c-2.4-6.9-8.9-11.1-16.3-10c-4.1,0.6-8.3,2.7-11.3,5.5
					c-4.6,4.3-4.6,9.7-6.9,15.1C73.7,75.2,75,75.9,75.3,75.1L75.3,75.1z"/>
			</g>
		</g>
		<g>
			<g>
				<path fill="#262261" d="M104.2,110.3c-7.5,0-15,0-22.5,0c-1,0-1,1.5,0,1.5c0.5,0,0.9,0,1.4,0c1,0,1-1.5,0-1.5
					c-4.8,0-9.5,0-14.3,0c-1,0-1,1.5,0,1.5c4.8,0,9.5,0,14.3,0c1,0,1-1.5,0-1.5c-0.5,0-0.9,0-1.4,0c-1,0-1,1.5,0,1.5
					c7.5,0,15,0,22.5,0C105.1,111.8,105.1,110.3,104.2,110.3L104.2,110.3z"/>
			</g>
		</g>
		<g>
			<g>
				<path fill="#262261" d="M104.6,111c0.6-1.6,0.6-3.5,1-5.2c0.2-0.9-1.3-1.3-1.4-0.4c-0.3,1.7-0.3,3.6-1,5.2
					C102.8,111.5,104.3,111.8,104.6,111L104.6,111z"/>
			</g>
		</g>
		<g>
			<g>
				<path fill="#262261" d="M104.9,105.1c-9.2,0-18.4,0-27.6,0c-0.6,0-0.6,1,0,1c9.2,0,18.4,0,27.6,0
					C105.5,106.1,105.5,105.1,104.9,105.1L104.9,105.1z"/>
			</g>
		</g>
		<g>
			<g>
				<path fill="#262261" d="M140.8,111.7c0.8-4.6,1.9-9.2,2.4-13.8c0.1-1-1.4-0.9-1.5,0c-0.5,4.5-1.6,8.9-2.4,13.4
					C139.2,112.2,140.6,112.7,140.8,111.7L140.8,111.7z"/>
			</g>
		</g>
		<g>
			<g>
				<path fill="#262261" d="M145.3,92.5c0.5-5.9,2.1-11.4,3.1-17.1c1.3-6.8,2-13.6,4-20.3c0.3-0.9-1.2-1.3-1.4-0.4
					c-2.1,7-2.7,14.1-4.1,21.2c-1.1,5.5-2.5,10.9-3,16.5C143.7,93.4,145.2,93.4,145.3,92.5L145.3,92.5z"/>
			</g>
		</g>
		<g>
			<g>
				<path fill="#262261" d="M152,54.6c-2,0-4,0-5.9,0c-0.6,0-0.6,1,0,1c2,0,4,0,5.9,0C152.6,55.6,152.6,54.6,152,54.6L152,54.6z"/>
			</g>
		</g>
		<g>
			<g>
				<path fill="#262261" d="M151.2,99c0.5-2.3,0.7-4.7,1.4-6.9c0.2-0.6-0.8-0.9-1-0.3c-0.7,2.3-0.9,4.6-1.4,6.9
					C150.2,99.4,151.1,99.7,151.2,99L151.2,99z"/>
			</g>
		</g>
		<g>
			<g>
				<path fill="#262261" d="M150.5,98.1c-2.8,0.2-5.5-0.2-8.3-0.2c-0.6,0-0.6,1,0,1c2.8,0,5.5,0.4,8.3,0.2
					C151.2,99.1,151.2,98.1,150.5,98.1L150.5,98.1z"/>
			</g>
		</g>
		<g>
			<g>
				<path fill="#262261" d="M133.7,112c0.1-4.3,1.2-8.6,2.4-12.7c0.2-0.6-0.8-0.9-1-0.3c-1.2,4.2-2.3,8.6-2.4,13
					C132.7,112.6,133.7,112.6,133.7,112L133.7,112z"/>
			</g>
		</g>
		<g>
			<g>
				<path fill="#262261" d="M140.1,110.8c-2.2,0-4.4,0-6.7,0c-0.6,0-0.6,1,0,1c2.2,0,4.4,0,6.7,0
					C140.7,111.8,140.7,110.8,140.1,110.8L140.1,110.8z"/>
			</g>
		</g>
		<g>
			<g>
				<path fill="#262261" d="M152.1,91.5c-2.5-0.4-5,0.2-7.5,0.2c-0.6,0-0.6,1,0,1c2.4-0.1,4.8-0.7,7.2-0.3
					C152.5,92.6,152.7,91.6,152.1,91.5L152.1,91.5z"/>
			</g>
		</g>
		<g>
			<g>
				<path fill="#262261" d="M137.2,91.7c-5.7,0-11.4,0-17.1,0c-0.6,0-0.6,1,0,1c5.7,0,11.4,0,17.1,0
					C137.9,92.7,137.9,91.7,137.2,91.7L137.2,91.7z"/>
			</g>
		</g>
		<g>
			<g>
				<path fill="#262261" d="M137.7,91.4c1.7-8.2,3.7-16.3,4.8-24.6c0.1-0.6-0.9-0.6-1,0c-1,8.2-3.1,16.2-4.7,24.3
					C136.6,91.7,137.6,92,137.7,91.4L137.7,91.4z"/>
			</g>
		</g>
		<g>
			<g>
				<path fill="#262261" d="M141.7,66c-7.5,8.4-15.4,16.5-22.6,25.2c-0.6,0.7,0.4,1.8,1.1,1.1c7.2-8.7,15.1-16.8,22.6-25.2
					C143.4,66.3,142.3,65.3,141.7,66L141.7,66z"/>
			</g>
		</g>
		<g>
			<g>
				<path fill="#262261" d="M114.1,91.9c4.4-7,10.3-12.9,15.7-19.1c5.1-5.9,10.1-11.8,16-17.1c0.7-0.6-0.3-1.7-1.1-1.1
					c-6.2,5.5-11.4,11.8-16.9,18.1c-5.2,5.9-10.8,11.7-15.1,18.4C112.3,91.9,113.6,92.7,114.1,91.9L114.1,91.9z"/>
			</g>
		</g>
		<g>
			<g>
				<path fill="#262261" d="M112.4,91.5c-0.3,2-0.7,3.9-1,5.9c-0.1,1,1.4,0.9,1.5,0c0.3-2,0.7-3.9,1-5.9
					C114,90.5,112.5,90.5,112.4,91.5L112.4,91.5z"/>
			</g>
		</g>
		<g>
			<g>
				<path fill="#262261" d="M136,97.7c-7.8,0-15.7,0-23.5,0c-1,0-1,1.5,0,1.5c7.8,0,15.7,0,23.5,0C137,99.2,137,97.7,136,97.7
					L136,97.7z"/>
			</g>
		</g>
	</g>
</g>
</svg>
