<?xml version="1.0" encoding="utf-8"?>
<!-- Generator: Adobe Illustrator 16.0.0, SVG Export Plug-In . SVG Version: 6.00 Build 0)  -->
<!DOCTYPE svg PUBLIC "-//W3C//DTD SVG 1.1//EN" "http://www.w3.org/Graphics/SVG/1.1/DTD/svg11.dtd">
<svg version="1.1" id="Layer_1" xmlns="http://www.w3.org/2000/svg" xmlns:xlink="http://www.w3.org/1999/xlink" x="0px" y="0px"
	 width="595.279px" height="591.052px" viewBox="0 125.351 595.279 591.052" enable-background="new 0 125.351 595.279 591.052"
	 xml:space="preserve">
<g>
	<g>
		<g>
			<path fill="#252160" d="M259.029,379.265c0,35.032,0.256,69.807,0.256,104.839c0,2.557,3.836,2.557,3.836,0
				c0-35.032-0.256-69.808-0.256-104.839C262.865,376.708,259.029,376.708,259.029,379.265L259.029,379.265z"/>
		</g>
	</g>
	<g>
		<g>
			<path fill="#252160" d="M262.353,336.818c0-60.602-0.767-121.204-0.767-182.062c0-2.557-3.836-2.557-3.836,0
				c0,60.602,0.767,121.204,0.767,182.062C258.517,339.12,262.353,339.375,262.353,336.818L262.353,336.818z"/>
		</g>
	</g>
	<g>
		<g>
			<path fill="#252160" d="M572.011,604.029c0-90.008,0-180.016,0-270.279c0-48.073,0-95.89,0-143.962
				c0-14.831,6.393-47.05-12.529-54.977c-10.229-4.091-25.826-1.79-36.821-2.301c-20.969-0.511-42.191-1.023-63.159-1.79
				c-46.794-1.278-93.332-2.813-140.126-4.347c-10.996-0.256-21.991-0.512-33.242-1.023c-17.644-0.767-28.639,9.206-28.383,28.895
				c0,2.557,3.836,2.557,3.836,0c0-18.411,9.717-25.826,26.337-25.059c10.74,0.512,21.735,0.767,32.475,1.023
				c42.447,1.278,84.894,2.557,127.597,3.835c33.241,1.023,66.738,1.279,99.98,2.557c12.273,0.512,19.689,5.881,20.456,18.411
				c0.768,12.018-0.256,24.548-0.256,36.822c0,43.725,0,87.451,0,131.176c0,93.333,0,186.92,0,280.252
				C568.175,606.587,572.011,606.587,572.011,604.029L572.011,604.029z"/>
		</g>
	</g>
	<g>
		<g>
			<path fill="#252160" d="M568.175,606.075c-1.278,22.758-16.876,29.406-36.565,31.963c-17.644,2.302-35.543,4.603-53.187,7.16
				c-30.429,4.091-60.857,8.183-91.542,12.018c-2.302,0.256-2.558,4.092,0,3.836c35.287-4.603,70.574-9.461,106.117-14.063
				c15.854-2.046,31.963-3.58,47.561-6.393c19.689-3.58,30.43-14.575,31.452-34.521
				C572.011,603.519,568.175,603.773,568.175,606.075L568.175,606.075z"/>
		</g>
	</g>
	<g>
		<g>
			<path fill="#252160" d="M311.959,492.542c-0.767-38.867,12.529-109.953-43.47-115.834c-25.059-2.557-57.277,2.557-74.665,22.502
				c-13.297,15.599-15.343,35.032-16.365,54.721c-0.768,12.53-1.278,25.06-1.278,37.333c0,3.58-1.535,13.041,2.045,15.598
				c2.046,1.535,3.836-1.789,2.046-3.323c-2.046-1.535,0-21.479,0.256-24.548c0.256-10.229,0.767-20.712,1.278-30.94
				c1.79-28.895,12.785-55.232,43.214-63.67c15.854-4.347,35.799-7.16,51.908-2.557c15.854,4.603,24.548,17.388,28.639,32.73
				c6.648,25.314,2.046,52.163,2.557,77.989C308.123,495.1,311.959,495.1,311.959,492.542L311.959,492.542z"/>
		</g>
	</g>
	<g>
		<g>
			<path fill="#252160" d="M349.548,493.565L349.548,493.565c0.256,2.301,3.068,2.813,3.835,0.511
				c1.279-3.835,0.768-9.205,0.768-13.296c0.256-11.507,0.256-22.758-0.512-34.265c-1.79-25.826-5.881-53.698-19.944-75.944
				c-16.109-25.315-48.584-34.776-76.967-36.566c-36.311-2.301-74.666,8.438-98.446,37.589
				c-29.918,37.077-25.826,90.263-25.826,134.756c0,2.557,3.835,2.557,3.835,0c0-39.635-2.557-81.314,15.854-117.369
				c18.411-35.798,56.256-51.652,94.867-51.652c30.173,0,66.994,8.438,83.87,36.054c12.785,20.968,16.877,47.562,18.667,71.598
				c0.767,10.995,1.022,21.99,0.767,32.985c0,4.348,0.512,10.74-0.767,14.831c1.278,0.256,2.557,0.256,3.835,0.512l0,0
				C353.128,491.264,349.292,491.264,349.548,493.565L349.548,493.565z"/>
		</g>
	</g>
	<g>
		<g>
			<g>
				<path fill="#252160" d="M189.221,355.485c-21.734,14.319-37.844,35.287-43.725,61.113c-6.648,28.896-5.114,59.835-5.114,89.241
					c0,1.278,1.79,1.278,2.045,0c0-27.104-0.511-54.721,3.836-81.569c4.603-28.128,20.712-51.397,44.237-66.995
					C191.267,356.252,190.244,354.718,189.221,355.485L189.221,355.485z"/>
			</g>
		</g>
	</g>
	<g>
		<g>
			<path fill="#252160" d="M342.388,489.474L342.388,489.474c0,1.023,1.534,1.534,1.79,0.256c1.278-5.37,0.768-11.763,0.768-17.132
				c0.256-14.064-0.512-28.128-2.302-41.936c-3.324-25.57-9.973-56.511-32.73-71.853c-1.022-0.767-2.045,1.022-1.022,1.534
				c24.292,16.109,30.173,51.141,32.73,77.99c1.022,11.251,1.534,22.758,1.534,34.265c0,3.835-0.512,7.927-0.256,11.762
				c0,1.279-0.256,2.302-0.256,3.58c0,1.79,1.79,1.278,1.79,1.534C344.178,488.195,342.388,488.195,342.388,489.474L342.388,489.474
				z"/>
		</g>
	</g>
	<g>
		<g>
			<path fill="#252160" d="M111.488,688.924c-1.023-32.73-3.068-65.461-3.58-98.446c-0.256-17.644,0.256-35.032,0.256-52.676
				c0-6.393-1.279-14.831,1.022-20.968c3.836-10.228,15.598-12.018,24.548-14.319c2.301-0.512,1.278-4.347-1.023-3.58
				c-10.483,2.813-23.269,5.37-27.104,16.877c-1.79,5.625-1.022,12.019-1.022,17.899c0,10.995-0.256,21.99-0.256,33.241
				c0,40.657,2.557,81.314,3.836,122.228C107.907,691.48,111.742,691.48,111.488,688.924L111.488,688.924z"/>
		</g>
	</g>
	<g>
		<g>
			<path fill="#252160" d="M350.571,483.849c12.785,2.046,32.986,4.091,35.031,19.944c0.512,3.58,0,7.672,0,11.507
				c0,17.644-0.255,35.287-0.255,52.931c-0.256,32.219,0.767,64.693-0.768,96.912c0,2.558,3.836,2.558,3.836,0
				c1.534-36.565,0.767-73.387,0.767-109.953c0-16.109,0.512-32.219,0.256-48.328c-0.256-20.456-20.968-24.036-37.844-26.593
				C349.036,479.757,348.014,483.337,350.571,483.849L350.571,483.849z"/>
		</g>
	</g>
	<g>
		<g>
			<path fill="#252160" d="M308.379,480.524c-43.214,0.511-87.962,5.881-130.409,12.273c-2.557,0.256-1.278,4.092,1.023,3.58
				c42.191-6.393,86.684-11.507,129.642-12.019C310.937,484.359,310.937,480.524,308.379,480.524L308.379,480.524z"/>
		</g>
	</g>
	<g>
		<g>
			<path fill="#252160" d="M384.579,665.143c-0.512,25.06-38.1,25.57-56.255,28.128c-26.593,3.836-53.187,6.904-79.779,9.973
				c-24.804,2.813-49.607,5.369-74.41,7.415c-7.927,0.768-16.109,1.278-24.036,1.79c-4.092,0.256-8.183,0.256-12.274,0
				c-14.319-1.278-22.502-10.483-26.593-23.78c-0.768-2.302-4.348-1.279-3.58,1.022c6.648,22.246,22.758,27.616,44.492,26.594
				c18.923-1.023,37.589-2.813,56.511-4.858c46.539-4.604,93.333-9.461,139.615-17.133c17.132-2.813,39.634-6.904,39.89-28.895
				C388.415,662.586,384.579,662.586,384.579,665.143L384.579,665.143z"/>
		</g>
	</g>
	<g>
		<g>
			<path fill="#252160" d="M176.436,506.351c1.023,10.483-41.168,11.251-40.146,2.046c0.256-2.558-3.58-2.558-3.835,0
				c-1.023,10.228,17.132,9.972,23.524,9.972c6.904,0,25.314-1.79,24.292-11.762C180.272,503.793,176.436,503.793,176.436,506.351
				L176.436,506.351z"/>
		</g>
	</g>
	<g>
		<g>
			<path fill="#252160" d="M349.548,491.52c0.511,5.881-15.343,7.927-19.434,7.927c-4.347,0.256-21.224,0.256-17.899-7.415
				c1.022-2.302-2.302-4.092-3.324-2.046c-8.438,19.434,46.282,16.877,44.492,1.534C353.128,489.218,349.292,489.218,349.548,491.52
				L349.548,491.52z"/>
		</g>
	</g>
	<g>
		<g>
			<path fill="#252160" d="M383.301,497.656c2.301,3.836-29.406,9.973-32.219,10.229c-11.507,1.79-23.27,3.068-34.776,4.603
				c-23.269,3.324-46.538,6.393-70.063,8.438c-25.059,2.045-50.374,5.114-75.433,6.904c-9.717,0.767-63.159,7.927-61.113-10.996
				c0.256-2.557-3.58-2.557-3.836,0c-2.046,19.178,28.383,16.365,40.401,16.109c34.265-0.511,68.784-5.369,103.049-8.438
				c30.429-2.813,60.602-7.416,91.03-11.251c6.138-0.768,53.698-5.114,46.539-17.645
				C385.347,493.565,382.023,495.355,383.301,497.656L383.301,497.656z"/>
		</g>
	</g>
	<g>
		<g>
			<g>
				<path fill="#252160" d="M138.592,699.919c-4.347-0.256-8.694,0.256-13.041-0.512c-5.626-1.022-9.461-5.625-12.529-10.228
					c-0.768-1.023-2.302,0-1.534,1.022c2.813,4.091,6.137,8.693,10.995,10.483c5.114,1.79,10.995,1.023,16.365,1.279
					C139.615,701.965,139.615,699.919,138.592,699.919L138.592,699.919z"/>
			</g>
		</g>
		<g>
			<g>
				<path fill="#252160" d="M138.592,691.736c-4.347-0.256-8.694,0.256-12.785-0.512c-5.626-1.022-9.461-5.369-12.785-9.973
					c-0.768-1.022-2.302,0-1.534,1.023c2.813,4.091,6.393,8.438,11.251,9.973c5.113,1.789,10.739,1.022,16.109,1.278
					C139.615,693.782,139.615,691.992,138.592,691.736L138.592,691.736z"/>
			</g>
		</g>
		<g>
			<g>
				<path fill="#252160" d="M138.592,683.81c-4.092-0.256-8.183,0-12.274-0.512c-5.881-1.022-9.972-4.858-13.296-9.461
					c-0.768-1.022-2.302,0-1.534,1.022c2.813,3.836,6.393,7.927,10.995,9.461c5.114,1.79,10.995,1.279,16.365,1.535
					C139.615,685.855,139.615,683.81,138.592,683.81L138.592,683.81z"/>
			</g>
		</g>
		<g>
			<g>
				<path fill="#252160" d="M138.592,675.627c-4.092-0.256-8.183,0-12.019-0.512c-5.881-1.022-9.973-4.603-13.552-9.205
					c-0.768-1.022-2.302,0-1.534,1.022c2.813,3.836,6.393,7.671,10.995,9.206c5.114,1.789,10.739,1.278,16.109,1.278
					C139.615,677.673,139.615,675.627,138.592,675.627L138.592,675.627z"/>
			</g>
		</g>
		<g>
			<g>
				<path fill="#252160" d="M138.592,667.7c-4.347-0.256-8.95,0.256-13.297-0.768c-5.114-1.022-9.205-4.858-12.273-8.693
					c-0.768-1.023-2.046,0.511-1.279,1.278c3.069,3.836,6.904,7.671,11.763,8.949c4.858,1.534,10.229,1.023,15.343,1.023
					C139.615,669.49,139.615,667.7,138.592,667.7L138.592,667.7z"/>
			</g>
		</g>
		<g>
			<g>
				<path fill="#252160" d="M138.592,659.518c-4.347-0.256-8.694,0.256-13.041-0.768c-5.114-1.022-9.205-4.603-12.529-8.438
					c-0.768-1.023-2.046,0.511-1.279,1.278c3.069,3.835,7.16,7.159,11.763,8.693c4.858,1.279,9.973,0.768,15.087,1.023
					C139.615,661.563,139.615,659.518,138.592,659.518L138.592,659.518z"/>
			</g>
		</g>
		<g>
			<g>
				<path fill="#252160" d="M138.592,651.335c-4.347-0.256-8.694,0.256-13.041-0.512c-5.114-1.022-9.205-4.347-12.529-8.183
					c-0.768-1.022-2.046,0.512-1.279,1.279c3.324,3.579,7.16,6.903,12.019,8.182c4.858,1.279,9.973,0.768,14.831,1.023
					C139.615,653.381,139.615,651.335,138.592,651.335L138.592,651.335z"/>
			</g>
		</g>
		<g>
			<g>
				<path fill="#252160" d="M138.592,643.408c-4.347-0.256-8.694,0.256-12.785-0.512c-5.114-1.022-9.206-4.091-12.785-7.671
					c-0.768-1.022-2.302,0.512-1.279,1.278c3.324,3.58,7.416,6.648,12.019,7.927c4.858,1.278,9.973,0.768,14.831,1.023
					C139.615,645.198,139.615,643.408,138.592,643.408L138.592,643.408z"/>
			</g>
		</g>
		<g>
			<g>
				<path fill="#252160" d="M138.592,635.226c-9.973-0.256-17.899-0.256-25.314-7.927c-0.768-0.768-2.302,0.511-1.279,1.278
					c3.324,3.324,7.416,6.393,12.274,7.671c4.858,1.023,9.717,0.768,14.575,1.023C139.615,637.271,139.615,635.226,138.592,635.226
					L138.592,635.226z"/>
			</g>
		</g>
		<g>
			<g>
				<path fill="#252160" d="M138.592,627.043c-9.717-0.256-17.899-0.256-25.314-7.671c-0.768-0.768-2.302,0.511-1.279,1.278
					c7.927,7.671,16.365,7.671,26.85,8.183C139.615,629.089,139.615,627.299,138.592,627.043L138.592,627.043z"/>
			</g>
		</g>
		<g>
			<g>
				<path fill="#252160" d="M138.592,619.116c-9.717-0.256-17.644-0.256-25.314-7.16c-1.023-0.767-2.302,0.512-1.279,1.279
					c7.927,7.415,16.365,7.415,26.594,7.671C139.615,620.906,139.615,619.116,138.592,619.116L138.592,619.116z"/>
			</g>
		</g>
		<g>
			<g>
				<path fill="#252160" d="M138.592,610.934c-9.461-0.256-17.644-0.256-25.314-6.648c-1.023-0.767-2.302,0.512-1.279,1.278
					c8.183,6.904,16.621,7.16,26.594,7.416C139.615,612.979,139.615,610.934,138.592,610.934L138.592,610.934z"/>
			</g>
		</g>
		<g>
			<g>
				<path fill="#252160" d="M138.592,603.007c-9.205-0.256-17.644-0.256-25.314-6.393c-1.023-0.768-2.302,0.512-1.279,1.278
					c8.183,6.648,16.621,6.648,26.594,6.904C139.615,604.797,139.615,603.007,138.592,603.007L138.592,603.007z"/>
			</g>
		</g>
		<g>
			<g>
				<path fill="#252160" d="M138.592,594.824c-9.205-0.256-17.644-0.256-25.314-6.137c-1.023-0.768-2.046,1.022-1.023,1.534
					c7.927,6.137,16.621,6.137,26.338,6.393C139.615,596.87,139.615,594.824,138.592,594.824L138.592,594.824z"/>
			</g>
		</g>
		<g>
			<g>
				<path fill="#252160" d="M138.592,586.642c-9.205-0.256-17.644-0.256-25.314-5.625c-1.023-0.768-2.046,1.022-1.023,1.534
					c7.927,5.881,16.877,5.881,26.338,5.881C139.615,588.688,139.615,586.642,138.592,586.642L138.592,586.642z"/>
			</g>
		</g>
		<g>
			<g>
				<path fill="#252160" d="M138.592,578.715c-8.95-0.256-17.644,0-25.314-5.37c-1.023-0.767-2.046,1.023-1.023,1.534
					c7.927,5.37,16.877,5.37,26.338,5.626C139.615,580.505,139.615,578.715,138.592,578.715L138.592,578.715z"/>
			</g>
		</g>
		<g>
			<g>
				<path fill="#252160" d="M138.592,570.532c-8.95-0.256-17.388,0-25.314-4.858c-1.023-0.768-2.046,1.022-1.023,1.534
					c7.927,5.114,17.133,5.114,26.338,5.114C139.615,572.578,139.615,570.532,138.592,570.532L138.592,570.532z"/>
			</g>
		</g>
		<g>
			<g>
				<path fill="#252160" d="M138.592,562.35c-8.694-0.256-17.388,0-25.314-4.603c-1.023-0.512-2.046,1.022-1.023,1.534
					c8.183,4.858,17.133,4.603,26.082,4.858C139.615,564.396,139.615,562.35,138.592,562.35L138.592,562.35z"/>
			</g>
		</g>
		<g>
			<g>
				<path fill="#252160" d="M138.592,554.423c-8.694-0.256-17.388,0-25.06-4.091c-1.022-0.512-2.045,1.022-1.022,1.534
					c8.183,4.347,17.132,4.347,26.082,4.347C139.615,556.213,139.615,554.423,138.592,554.423L138.592,554.423z"/>
			</g>
		</g>
		<g>
			<g>
				<path fill="#252160" d="M138.592,546.24c-8.438,0-17.388,0.256-25.06-3.836c-1.022-0.511-2.045,1.023-1.022,1.535
					c8.183,4.091,17.132,3.835,26.082,4.091C139.615,548.286,139.615,546.24,138.592,546.24L138.592,546.24z"/>
			</g>
		</g>
		<g>
			<g>
				<path fill="#252160" d="M138.592,538.313c-8.438,0-17.388,0.256-25.06-3.324c-1.022-0.512-2.045,1.022-1.022,1.534
					c8.183,3.836,17.388,3.58,26.082,3.58C139.615,540.104,139.615,538.313,138.592,538.313L138.592,538.313z"/>
			</g>
		</g>
	</g>
	<g>
		<g>
			<g>
				<path fill="#252160" d="M373.073,514.021c-11.763,5.626-24.803,5.37-37.077,8.438c-0.767,0.256-0.511,1.534,0.256,1.278
					c12.785-3.068,25.57-3.068,37.589-8.694C374.607,514.789,373.84,513.766,373.073,514.021L373.073,514.021z"/>
			</g>
		</g>
		<g>
			<g>
				<path fill="#252160" d="M373.328,521.948c-11.763,5.626-24.804,5.626-37.333,8.694c-0.767,0.256-0.511,1.534,0.256,1.278
					c12.785-3.068,25.57-3.068,37.589-8.694C374.607,522.716,374.096,521.437,373.328,521.948L373.328,521.948z"/>
			</g>
		</g>
		<g>
			<g>
				<path fill="#252160" d="M373.328,529.875c-11.763,5.882-24.804,5.626-37.333,8.95c-0.767,0.256-0.511,1.534,0.256,1.278
					c12.785-3.068,25.57-3.068,37.589-8.95C374.607,530.643,374.096,529.364,373.328,529.875L373.328,529.875z"/>
			</g>
		</g>
		<g>
			<g>
				<path fill="#252160" d="M373.328,537.546c-11.763,6.138-24.804,5.882-37.333,8.95c-0.767,0.256-0.511,1.534,0.256,1.278
					c12.785-3.068,25.826-3.068,37.589-9.205C374.863,538.313,374.096,537.291,373.328,537.546L373.328,537.546z"/>
			</g>
		</g>
		<g>
			<g>
				<path fill="#252160" d="M373.328,545.474c-11.507,6.393-24.804,6.137-37.333,9.205c-0.767,0.256-0.511,1.534,0.256,1.278
					c12.785-3.068,25.826-3.068,37.589-9.461C374.863,546.24,374.096,545.218,373.328,545.474L373.328,545.474z"/>
			</g>
		</g>
		<g>
			<g>
				<path fill="#252160" d="M373.584,553.4c-11.507,6.393-24.804,6.393-37.333,9.461c-0.767,0.256-0.512,1.534,0.256,1.278
					c12.529-3.068,26.082-3.068,37.589-9.717C374.863,554.167,374.096,553.145,373.584,553.4L373.584,553.4z"/>
			</g>
		</g>
		<g>
			<g>
				<path fill="#252160" d="M373.584,561.327c-11.251,6.648-25.06,6.393-37.333,9.717c-0.767,0.256-0.512,1.534,0.256,1.278
					c12.529-3.324,26.338-3.068,37.844-9.717C374.863,562.094,374.351,560.815,373.584,561.327L373.584,561.327z"/>
			</g>
		</g>
		<g>
			<g>
				<path fill="#252160" d="M373.584,569.254c-11.251,6.904-25.06,6.648-37.589,9.973c-0.767,0.255-0.511,1.534,0.256,1.278
					c12.529-3.324,26.594-3.068,37.845-9.973C374.863,569.766,374.351,568.742,373.584,569.254L373.584,569.254z"/>
			</g>
		</g>
		<g>
			<g>
				<path fill="#252160" d="M373.584,577.181c-10.995,7.159-25.06,6.904-37.589,9.973c-0.767,0.256-0.511,1.534,0.256,1.278
					c12.529-3.324,26.594-3.068,37.845-10.229C375.118,577.692,374.351,576.669,373.584,577.181L373.584,577.181z"/>
			</g>
		</g>
		<g>
			<g>
				<path fill="#252160" d="M373.84,584.852c-10.74,7.416-25.315,7.16-37.589,10.229c-0.767,0.256-0.512,1.534,0.256,1.278
					c12.529-3.068,26.849-3.068,37.844-10.483C375.118,585.619,374.351,584.596,373.84,584.852L373.84,584.852z"/>
			</g>
		</g>
		<g>
			<g>
				<path fill="#252160" d="M373.84,592.778c-10.74,7.416-25.315,7.416-37.589,10.484c-0.767,0.256-0.512,1.534,0.256,1.278
					c12.529-3.068,27.104-3.068,37.844-10.484C375.118,593.546,374.607,592.268,373.84,592.778L373.84,592.778z"/>
			</g>
		</g>
		<g>
			<g>
				<path fill="#252160" d="M373.84,600.705c-10.484,7.672-25.57,7.416-37.589,10.74c-0.767,0.256-0.512,1.534,0.256,1.278
					c12.273-3.068,27.36-3.068,38.1-10.739C375.118,601.473,374.607,600.194,373.84,600.705L373.84,600.705z"/>
			</g>
		</g>
		<g>
			<g>
				<path fill="#252160" d="M373.84,608.632c-10.229,7.927-25.57,7.672-37.845,10.74c-0.767,0.256-0.511,1.534,0.256,1.278
					c12.273-3.068,27.616-3.068,38.1-10.995C375.118,609.144,374.607,608.121,373.84,608.632L373.84,608.632z"/>
			</g>
		</g>
		<g>
			<g>
				<path fill="#252160" d="M373.84,616.559c-9.973,7.928-25.826,7.928-37.589,10.996c-0.767,0.256-0.512,1.534,0.256,1.278
					c12.273-3.068,27.872-3.068,38.1-11.251C375.374,617.07,374.607,616.048,373.84,616.559L373.84,616.559z"/>
			</g>
		</g>
		<g>
			<g>
				<path fill="#252160" d="M373.84,624.486c-9.717,8.182-25.826,8.182-37.589,11.251c-0.767,0.255-0.512,1.534,0.256,1.278
					c12.273-3.068,28.383-3.068,38.355-11.507C375.374,624.741,374.607,623.975,373.84,624.486L373.84,624.486z"/>
			</g>
		</g>
		<g>
			<g>
				<path fill="#252160" d="M374.096,632.413c-9.206,8.438-26.082,8.438-37.845,11.251c-0.767,0.256-0.512,1.534,0.256,1.278
					c12.018-3.068,28.639-3.068,38.355-11.763C375.63,632.668,374.607,631.901,374.096,632.413L374.096,632.413z"/>
			</g>
		</g>
		<g>
			<g>
				<path fill="#252160" d="M374.096,640.34c-8.95,8.438-26.338,8.438-37.845,11.507c-0.767,0.255-0.512,1.534,0.256,1.278
					c12.018-3.068,28.895-3.068,38.355-11.763C375.63,640.596,374.607,639.572,374.096,640.34L374.096,640.34z"/>
			</g>
		</g>
		<g>
			<g>
				<path fill="#252160" d="M374.096,648.011c-8.694,8.694-26.338,8.694-37.845,11.763c-0.767,0.256-0.512,1.534,0.256,1.278
					c11.763-3.068,29.406-3.068,38.355-12.019C375.63,648.522,374.607,647.499,374.096,648.011L374.096,648.011z"/>
			</g>
		</g>
		<g>
			<g>
				<path fill="#252160" d="M374.096,655.938c-8.183,8.694-26.594,8.95-37.845,12.019c-0.767,0.255-0.512,1.534,0.256,1.278
					c11.507-3.068,29.662-3.068,38.355-12.274C375.63,656.193,374.863,655.426,374.096,655.938L374.096,655.938z"/>
			</g>
		</g>
		<g>
			<g>
				<path fill="#252160" d="M374.351,663.864c-4.603,5.114-12.273,6.393-18.666,7.671c-6.393,1.279-12.785,2.813-19.178,4.348
					c-0.768,0.256-0.512,1.534,0.256,1.278c7.671-2.046,15.342-3.324,23.013-5.114c5.37-1.278,11.763-2.813,15.599-7.415
					C375.63,664.12,374.863,663.354,374.351,663.864L374.351,663.864z"/>
			</g>
		</g>
		<g>
			<g>
				<path fill="#252160" d="M374.351,671.791c-4.091,5.114-11.762,6.393-17.899,7.672c-6.647,1.534-13.296,2.813-19.944,4.603
					c-0.768,0.255-0.512,1.534,0.256,1.278c7.927-2.046,15.854-3.58,23.78-5.37c5.114-1.278,11.251-3.068,14.831-7.159
					C375.63,672.047,374.863,671.024,374.351,671.791L374.351,671.791z"/>
			</g>
		</g>
	</g>
	<g>
		<g>
			<path fill="#252160" d="M386.881,544.706c-1.023,10.484-30.174,13.041-37.845,14.575c-12.273,2.302-24.804,4.091-37.333,5.625
				c-23.013,3.324-46.026,6.138-69.04,7.928c-24.547,1.789-49.095,4.858-73.898,6.648c-10.483,0.767-63.926,7.927-61.881-12.274
				c0.256-1.278-1.789-1.278-2.045,0c-1.79,17.388,24.803,15.343,36.054,15.343c33.498,0,66.995-5.114,100.492-7.672
				c28.128-2.301,55.999-5.881,83.871-9.972c15.854-2.302,31.963-4.858,47.306-9.206c6.137-1.79,15.342-3.835,16.109-11.251
				C388.926,543.428,387.136,543.428,386.881,544.706L386.881,544.706z"/>
		</g>
	</g>
	<g>
		<g>
			<path fill="#252160" d="M386.881,591.5c-1.79,8.694-25.06,11.507-31.964,13.297c-12.529,3.068-25.314,5.114-38.1,6.904
				c-23.524,3.579-47.305,6.393-71.086,8.438c-22.502,1.79-45.004,3.58-67.506,4.858c-19.434,1.278-68.528,11.251-70.83-18.41
				c0-1.279-2.046-1.279-2.046,0c1.79,24.036,27.36,22.246,45.26,21.734c30.685-1.022,61.369-3.58,92.054-5.881
				c28.64-2.302,57.278-5.882,85.405-10.484c15.598-2.557,30.685-5.881,45.771-10.483c5.114-1.534,13.297-3.324,14.575-9.461
				C389.182,590.732,387.392,590.222,386.881,591.5L386.881,591.5z"/>
		</g>
	</g>
	<g>
		<g>
			<path fill="#252160" d="M386.881,636.504c-1.79,8.694-24.804,11.507-31.708,13.297c-13.296,3.324-26.849,5.37-40.401,7.415
				c-23.524,3.58-47.305,6.393-71.085,8.183c-24.292,1.79-48.584,4.347-73.132,5.882c-19.945,1.278-57.533,9.205-61.881-18.411
				c-0.255-1.278-2.045-0.768-1.79,0.512c3.58,22.246,24.037,21.223,42.191,20.712c31.708-0.768,63.159-4.603,94.611-6.904
				c28.383-2.301,56.766-5.881,84.894-10.483c15.342-2.558,30.685-5.882,45.516-10.484c5.113-1.534,13.041-3.324,14.575-9.461
				C389.182,635.737,387.136,635.226,386.881,636.504L386.881,636.504z"/>
		</g>
	</g>
	<g>
		<g>
			<path fill="#252160" d="M477.911,253.714c0.256-11.507,0-23.269,0.256-34.776c0.256-6.393,1.278-13.552,0.256-19.945
				c-1.534-8.438-6.648-12.274-14.831-12.786c-11.763-0.767-25.57-2.045-37.333-0.255c-10.228,1.534-13.296,8.183-14.575,17.899
				c-1.022,8.694,0,17.388-0.256,26.082c0,7.927-1.534,16.109-0.767,24.036c1.022,10.484,6.648,15.854,16.876,17.132
				c11.507,1.279,26.082,1.534,37.333-1.534c8.183-2.301,12.019-7.16,13.041-15.598c0.256-1.278-1.79-1.278-2.046,0
				c-1.534,14.32-14.83,14.831-25.826,15.087c-9.972,0.256-29.149,3.068-35.287-6.648c-4.858-7.416-2.045-19.178-1.789-27.616
				c0.511-10.484-2.302-24.292,0.767-34.52c4.091-12.785,14.575-12.529,25.826-12.529c6.904,0,14.575-0.512,21.479,0.511
				c19.434,2.301,14.83,18.155,14.575,30.94c-0.256,11.506,0,23.269-0.256,34.775C476.121,254.993,477.911,254.993,477.911,253.714
				L477.911,253.714z"/>
		</g>
	</g>
	<g>
		<g>
			<path fill="#252160" d="M412.963,212.546c20.967,0.511,42.19,2.045,63.158,1.023c1.279,0,1.279-2.046,0-2.046
				c-20.968,1.023-42.191-0.511-63.158-1.023C411.684,210.5,411.684,212.29,412.963,212.546L412.963,212.546z"/>
		</g>
	</g>
	<g>
		<g>
			<path fill="#252160" d="M460.78,187.743c0,7.927,0,15.854,0,24.036c0,1.278,2.046,1.278,2.046,0c0-7.927,0-15.854,0-24.036
				C462.825,186.72,460.78,186.72,460.78,187.743L460.78,187.743z"/>
		</g>
	</g>
	<g>
		<g>
			<path fill="#252160" d="M445.437,187.743c0,7.927,0,15.854,0,24.036c0,1.278,2.046,1.278,2.046,0c0-7.927,0-15.854,0-24.036
				C447.227,186.72,445.437,186.72,445.437,187.743L445.437,187.743z"/>
		</g>
	</g>
	<g>
		<g>
			<path fill="#252160" d="M431.373,187.487c0,7.927,0,15.854,0,24.036c0,1.279,2.046,1.279,2.046,0c0-0.255,0-0.511,0-0.511
				c0-1.279-2.046-1.279-2.046,0c0,0.256,0,0.511,0,0.511c0,1.279,2.046,1.279,2.046,0c0-0.255,0-0.511,0-0.511
				c0-1.279-2.046-1.279-2.046,0c0,0.256,0,0.511,0,0.511c0,1.279,2.046,1.279,2.046,0c0-7.927,0-15.854,0-24.036
				C433.419,186.208,431.373,186.208,431.373,187.487L431.373,187.487z"/>
		</g>
	</g>
	<g>
		<g>
			<path fill="#252160" d="M461.035,269.824c0-9.206,0-18.411,0-27.616c0-1.278-2.046-1.278-2.046,0c0,9.206,0,18.411,0,27.616
				C459.245,271.102,461.035,271.102,461.035,269.824L461.035,269.824z"/>
		</g>
	</g>
	<g>
		<g>
			<path fill="#252160" d="M459.756,241.952c-7.415-1.023-14.574-0.256-21.99-0.256c-8.693,0-17.644-0.256-26.338,0.511
				c-1.278,0-1.278,2.046,0,2.046c8.694-0.767,17.644-0.512,26.338-0.512c7.416,0,14.575-0.767,21.99,0.256
				C461.035,243.998,461.035,241.952,459.756,241.952L459.756,241.952z"/>
		</g>
	</g>
	<g>
		<g>
			<path fill="#252160" d="M432.141,269.568c0-8.95,0-17.644,0-26.593c0-1.278-2.046-1.278-2.046,0c0,8.95,0,17.644,0,26.593
				C430.095,270.591,432.141,270.847,432.141,269.568L432.141,269.568z"/>
		</g>
	</g>
	<g>
		<g>
			<path fill="#252160" d="M446.204,268.801c0-8.438,0-16.876,0-25.314c0-1.279-2.046-1.279-2.046,0c0,8.438,0,16.876,0,25.314
				C444.414,270.079,446.204,270.079,446.204,268.801L446.204,268.801z"/>
		</g>
	</g>
	<g>
		<g>
			<path fill="#252160" d="M535.956,628.833c8.694-2.813,17.133-4.092,21.735-12.785c5.114-9.973,2.045-21.735,2.557-32.219
				c0-1.278-1.79-1.278-2.046,0c-0.511,8.438,1.79,17.899-0.511,26.082c-3.324,12.018-12.274,13.808-22.502,17.132
				C534.166,627.555,534.678,629.345,535.956,628.833L535.956,628.833z"/>
		</g>
	</g>
	<g>
		<g>
			<path fill="#252160" d="M502.203,206.409c0-3.069,0-6.393,0-9.461c0-1.278-2.046-1.278-2.046,0c0,3.069,0,6.393,0,9.461
				C500.413,207.688,502.203,207.688,502.203,206.409L502.203,206.409z"/>
		</g>
	</g>
	<g>
		<g>
			<path fill="#252160" d="M503.482,197.971c3.324-0.511,6.904,1.023,9.973-0.767c1.022-0.511,0-2.301-1.022-1.534
				c-2.813,1.534-6.393,0-9.461,0.511C501.948,196.181,502.459,198.227,503.482,197.971L503.482,197.971z"/>
		</g>
	</g>
	<g>
		<g>
			<path fill="#252160" d="M513.198,197.459c5.882-2.301,11.763-4.347,17.644-6.393c1.279-0.511,0.768-2.301-0.511-1.79
				c-5.882,2.045-11.763,4.091-17.644,6.393C511.664,196.181,512.176,197.971,513.198,197.459L513.198,197.459z"/>
		</g>
	</g>
	<g>
		<g>
			<path fill="#252160" d="M531.098,189.788c0,2.301,0,4.603,0.768,6.648c0.256,1.278,2.301,0.767,1.79-0.512
				c-0.512-2.045-0.768-4.091-0.768-6.137C532.888,188.765,531.098,188.765,531.098,189.788L531.098,189.788z"/>
		</g>
	</g>
	<g>
		<g>
			<path fill="#252160" d="M531.098,195.925c-4.091,1.79-7.415,4.603-11.507,5.881c-1.278,0.512-0.767,2.301,0.512,1.79
				c4.347-1.534,7.927-4.347,12.019-6.137C533.144,196.948,532.376,195.414,531.098,195.925L531.098,195.925z"/>
		</g>
	</g>
	<g>
		<g>
			<path fill="#252160" d="M522.149,204.363c2.813,1.023,5.625,1.534,8.438,2.301c1.278,0.256,1.789-1.534,0.511-1.79
				c-2.813-0.767-5.625-1.534-8.438-2.301C521.637,202.062,521.125,203.852,522.149,204.363L522.149,204.363z"/>
		</g>
	</g>
	<g>
		<g>
			<path fill="#252160" d="M530.331,208.199c0,1.79-0.256,3.324-0.512,5.114c-0.256,1.278,1.534,1.79,1.79,0.511
				c0.256-1.79,0.767-3.835,0.767-5.625C532.376,206.92,530.331,206.92,530.331,208.199L530.331,208.199z"/>
		</g>
	</g>
	<g>
		<g>
			<path fill="#252160" d="M530.331,213.057c-5.114-4.603-13.553-2.045-18.155-7.16c-0.768-1.023-2.302,0.512-1.278,1.278
				c4.858,5.37,13.041,2.557,18.155,7.16C529.82,215.358,531.098,214.08,530.331,213.057L530.331,213.057z"/>
		</g>
	</g>
	<g>
		<g>
			<path fill="#252160" d="M510.642,204.875c-3.324,0-6.904,0-9.973,1.023c-1.278,0.512-0.767,2.301,0.512,1.79
				c3.068-1.023,6.393-1.023,9.461-1.023C511.92,206.665,511.92,204.875,510.642,204.875L510.642,204.875z"/>
		</g>
	</g>
	<g>
		<g>
			<path fill="#252160" d="M530.075,222.007c1.022,6.904-0.256,12.018-7.927,13.041c-5.114,0.767-12.785,1.278-17.644-1.023
				c-4.092-2.045-5.37-7.671-2.813-11.762c2.046-3.324,5.882-4.091,9.462-4.347c6.903-0.511,15.342-0.255,19.434,6.137
				c0.767,1.022,2.301,0,1.534-1.023c-4.858-7.671-15.599-8.183-24.036-6.648c-7.16,1.279-12.274,8.694-8.438,15.854
				c3.835,6.904,15.854,5.625,22.502,4.858c8.693-1.023,10.739-6.904,9.461-14.831C531.865,220.729,529.82,220.729,530.075,222.007
				L530.075,222.007z"/>
		</g>
	</g>
	<g>
		<g>
			<path fill="#252160" d="M524.961,224.564c1.79,6.137-12.529,3.324-15.087,2.301c-1.022-0.256-2.813-0.767-3.579-1.79
				c-1.023-1.278,0.256-0.511,1.278-0.511c1.278,0,2.557,0,3.835,0c4.604,0.256,9.462,1.534,14.064,0.767
				c1.278-0.256,0.767-2.045-0.512-1.79c-6.904,1.023-13.808-1.79-20.968-0.255c-0.256,0-0.767,0.511-0.767,1.022
				c0.511,4.858,9.461,5.881,13.041,6.137c3.835,0.255,11.762-0.256,9.972-6.137C526.495,222.774,524.705,223.286,524.961,224.564
				L524.961,224.564z"/>
		</g>
	</g>
	<g>
		<g>
			<path fill="#252160" d="M530.331,239.906c0,2.301,0,4.603,0,6.648c0,1.278,2.045,1.278,2.045,0c0-2.302,0-4.603,0-6.648
				C532.121,238.628,530.331,238.628,530.331,239.906L530.331,239.906z"/>
		</g>
	</g>
	<g>
		<g>
			<path fill="#252160" d="M530.587,246.555c-5.626-1.023-25.571-6.137-26.85,3.068c-0.511,4.347,3.58,5.114,7.16,5.114
				c2.557,0,4.858-0.512,7.415-0.768c4.347-0.255,8.694,1.023,13.041,0c1.278-0.255,0.768-2.045-0.512-1.79
				c-4.858,1.023-9.972-0.256-15.086,0.255c-2.302,0.256-14.319,1.023-8.95-4.347c2.558-2.557,8.694-1.79,12.274-1.534
				c3.835,0.255,7.415,1.022,11.251,1.79C531.098,248.6,531.61,246.81,530.587,246.555L530.587,246.555z"/>
		</g>
	</g>
	<g>
		<g>
			<path fill="#252160" d="M530.331,252.691c-0.256,2.557-0.768,4.858-0.256,7.416c0.256,1.278,2.046,1.278,2.046,0
				c-0.256-2.301,0-4.603,0.255-6.904C532.376,251.924,530.587,251.413,530.331,252.691L530.331,252.691z"/>
		</g>
	</g>
	<g>
		<g>
			<path fill="#252160" d="M530.842,260.107c-8.182,0.511-27.615,6.137-30.939-4.858c-2.302-7.671,4.091-12.785,10.995-13.297
				c5.881-0.255,12.018,0.767,18.155,0.767c1.278,0,1.278-2.045,0-2.045c-10.484,0-33.754-4.858-31.196,13.296
				c2.046,14.575,23.524,8.438,32.985,7.671C532.121,261.897,532.121,260.107,530.842,260.107L530.842,260.107z"/>
		</g>
	</g>
	<g>
		<g>
			<path fill="#252160" d="M501.437,273.659c0-2.557,0-5.114,0.255-7.671c0.256-1.279-1.789-1.279-2.045,0
				c-0.256,2.557-0.256,5.114-0.256,7.671C499.647,274.682,501.437,274.682,501.437,273.659L501.437,273.659z"/>
		</g>
	</g>
	<g>
		<g>
			<path fill="#252160" d="M502.715,267.522c7.159-0.767,14.575,0.767,21.734-0.767c1.279-0.256,0.768-2.046-0.511-1.79
				c-7.16,1.534-14.319-0.256-21.224,0.767C501.437,265.732,501.437,267.522,502.715,267.522L502.715,267.522z"/>
		</g>
	</g>
	<g>
		<g>
			<path fill="#252160" d="M525.473,267.267c6.137,2.557,6.393,8.95,3.068,14.064c-3.324,5.37-9.461,6.648-13.041,0.767
				c-0.512-1.023-2.302,0-1.534,1.022c4.091,6.648,11.251,6.137,15.598,0.256s4.092-14.319-3.068-17.644
				C525.217,265.221,524.195,266.755,525.473,267.267L525.473,267.267z"/>
		</g>
	</g>
	<g>
		<g>
			<path fill="#252160" d="M512.944,282.609c-2.046,4.603-8.95,2.301-12.786,1.534c-1.278-0.255-1.789,1.534-0.511,1.79
				c4.603,1.023,12.273,3.068,14.831-2.557C514.989,282.353,513.454,281.331,512.944,282.609L512.944,282.609z"/>
		</g>
	</g>
	<g>
		<g>
			<path fill="#252160" d="M499.647,284.91c0-2.301,0-4.603,0-7.16c0-1.278-2.046-1.278-2.046,0c0,2.301,0,4.603,0,7.16
				C497.601,286.189,499.647,286.189,499.647,284.91L499.647,284.91z"/>
		</g>
	</g>
	<g>
		<g>
			<path fill="#252160" d="M499.903,278.773c3.835-0.512,7.671,0.767,11.506,0c1.79-0.256,4.348-2.557,3.069-4.603
				c-1.023-1.79-4.604-1.79-6.394-2.046c-2.301-0.256-4.603,0-6.647,0c-1.279,0-1.279,2.046,0,2.046
				c3.324,0,7.671-0.768,10.739,0.767c0.768,0.256,1.022,0.256,0.512,1.023c-0.768,1.023-2.302,1.023-3.324,1.023
				c-3.068,0-6.137-0.511-9.206,0C498.623,276.983,498.623,279.029,499.903,278.773L499.903,278.773z"/>
		</g>
	</g>
	<g>
		<g>
			<path fill="#252160" d="M525.729,274.171c0.511,1.022,0.767,2.301-0.256,3.068c-0.768,0.511-2.046,0.511-3.068,0.511
				c-1.534,0-3.58-0.256-4.858-1.023c-1.023-0.511-1.278-1.278-0.512-2.301c0.768-1.023,1.79-1.023,3.068-1.023
				C521.893,273.659,523.683,274.426,525.729,274.171c1.022,0,1.022-2.046,0-1.79c-2.813,0.255-6.393-1.79-9.206,0
				c-2.045,1.534-2.557,4.347-0.256,5.881c2.302,1.534,5.37,1.79,7.928,1.279c3.323-0.511,4.603-2.557,3.323-5.881
				C527.007,272.381,525.217,272.892,525.729,274.171L525.729,274.171z"/>
		</g>
	</g>
	<g>
		<g>
			<path fill="#252160" d="M499.647,317.641c-0.512-5.114-1.278-11.251,4.347-14.32c2.813-1.534,7.671-0.511,10.995-0.255
				c3.068,0,6.648-0.256,9.717,0.767c5.882,2.301,6.393,9.461,3.836,14.575c-2.302,4.603-4.603,2.813-10.74,0
				c-0.255,0,0-1.023-0.255-1.023c-1.023-0.256-0.512-0.767-2.046-0.511c-1.534,0.255-2.046,1.022-2.813,1.79
				c-1.023,1.023-1.023,2.046-2.046,3.068c-2.813,2.046-8.95,1.279-9.461-3.324c0-1.279-2.046-1.279-2.046,0
				c0.256,3.835,3.836,5.881,7.671,6.137c1.534,0,3.58,0,4.858-1.023c1.023-0.511,2.302-4.091,3.068-4.347
				c1.534-0.256,1.79,2.045,2.558,2.813c1.022,1.534,3.579,2.557,5.369,2.813c4.604,0.255,7.672-4.091,8.694-7.927
				c1.278-4.091,1.022-9.972-2.557-13.041c-3.324-2.813-8.183-2.557-12.274-2.557c-4.858-0.256-11.507-1.534-15.598,1.79
				c-4.347,3.324-3.324,9.972-2.813,14.575C497.601,318.919,499.647,318.919,499.647,317.641L499.647,317.641z"/>
		</g>
	</g>
	<g>
		<g>
			<path fill="#252160" d="M509.874,311.503c1.79,3.835-7.415,4.347-6.393-0.255c-0.255,0.255-0.511,0.511-0.767,0.767
				c2.557-0.767,5.114-1.023,7.671-0.256c1.278,0.256,1.79-1.534,0.512-1.79c-2.813-0.511-5.882-0.511-8.694,0.256
				c-0.256,0-0.512,0.255-0.767,0.767c-1.79,7.671,13.041,7.16,9.972-0.256C511.154,309.458,509.364,310.225,509.874,311.503
				L509.874,311.503z"/>
		</g>
	</g>
	<g>
		<g>
			<path fill="#252160" d="M525.729,311.503c1.278,3.324-6.393,3.58-5.882-0.255c-0.256,0.255-0.511,0.511-1.022,0.767
				c2.301-0.256,4.603-0.256,6.904-0.767c1.278-0.256,0.767-2.046-0.512-1.79c-2.046,0.255-4.347,0.255-6.393,0.767
				c-0.256,0-0.768,0.255-1.022,0.767c-1.023,7.416,12.018,6.137,9.716,0.256C527.007,309.969,525.217,310.48,525.729,311.503
				L525.729,311.503z"/>
		</g>
	</g>
	<g>
		<g>
			<path fill="#252160" d="M499.903,334.517c0.255-2.301,0.255-4.347,0.255-6.648c0-1.279-1.789-1.279-2.045,0
				c0,2.045,0,4.091-0.256,6.137C497.857,335.284,499.647,335.795,499.903,334.517L499.903,334.517z"/>
		</g>
	</g>
	<g>
		<g>
			<path fill="#252160" d="M500.157,328.892c8.95,0,32.22-7.671,28.64,9.717c-1.534,6.904-8.95,8.183-14.831,8.183
				c-2.813,0-5.626-0.256-8.183-0.512c-1.022-0.256-2.302-0.256-3.324-0.511c-0.768-0.256-1.278-0.256-2.046-0.512
				c-1.022-0.511-1.278-0.255-1.278,1.023c1.278-0.256,0.768-2.045-0.512-1.79c-0.511,0-0.767,0.256-1.022,0.767
				c-0.256,0.512,0,1.279,0.512,1.535c9.205,2.557,29.917,5.625,32.475-7.671c3.579-19.689-20.201-12.018-30.43-12.018
				C499.135,326.846,499.135,328.892,500.157,328.892L500.157,328.892z"/>
		</g>
	</g>
	<g>
		<g>
			<path fill="#252160" d="M499.391,345.512c-0.768-2.301-0.256-4.858-0.256-7.16c0-1.278-1.79-1.278-2.046,0
				c0,2.557-0.511,5.37,0.256,7.671C498.113,347.046,499.903,346.535,499.391,345.512L499.391,345.512z"/>
		</g>
	</g>
	<g>
		<g>
			<path fill="#252160" d="M500.669,339.375c3.324-0.256,6.648-0.256,10.229-0.256c0.511,0,0.767-0.256,1.022-0.767
				c0.256-1.79,0.256-3.58,0-5.114c0-0.255-0.512-0.767-1.022-0.767c-3.324,0.256-6.648,0.256-9.717,0.256
				c-1.278,0-1.278,2.045,0,2.045c3.324,0,6.648,0,9.717-0.255c-0.256-0.256-0.512-0.512-1.023-0.767
				c0.256,1.278,0.256,2.813,0,4.091c0.256-0.255,0.512-0.511,1.023-0.767c-3.324,0-6.648,0-10.229,0.256
				C499.391,337.33,499.391,339.375,500.669,339.375L500.669,339.375z"/>
		</g>
	</g>
	<g>
		<g>
			<path fill="#252160" d="M517.29,337.33c-0.256-1.023,0.256-2.301,0.256-3.58c-0.256,0.255-0.768,0.767-1.023,1.022
				c2.046-0.255,8.694-2.557,8.95,0.767c0.256-0.255,0.511-0.511,0.767-1.022c-2.813,0.511-6.393-0.256-8.949,2.045
				c-1.022,0.767,0.512,2.046,1.278,1.279c1.79-1.535,5.626-1.023,7.927-1.535c0.512,0,0.768-0.511,0.768-1.022
				c-0.256-5.625-7.416-3.068-10.74-2.557c-0.511,0-1.022,0.511-1.022,1.023c0,1.278-0.512,2.557-0.256,4.091
				C515.756,339.12,517.546,338.608,517.29,337.33L517.29,337.33z"/>
		</g>
	</g>
	<g>
		<g>
			<path fill="#252160" d="M499.647,360.599c0-2.557,0-4.858,0.256-7.415c0.255-1.279-1.79-1.279-2.046,0
				c-0.256,2.557-0.256,4.858-0.256,7.415C497.601,361.877,499.647,361.877,499.647,360.599L499.647,360.599z"/>
		</g>
	</g>
	<g>
		<g>
			<path fill="#252160" d="M499.391,359.832c4.858-1.023,10.483-0.767,15.598-0.767c1.79,0,7.416-0.256,8.694,1.279
				c1.534,1.79-6.393,1.534-7.415,1.534c-4.348,0-12.019-1.79-15.854,0.255c-3.324,1.79-2.301,7.416-2.301,10.484
				c0,0.767,0.511,1.023,1.278,1.023c9.205-1.534,29.406,4.091,30.94-10.228c2.046-18.411-19.945-12.53-30.94-12.53
				c-1.278,0-1.278,1.79,0,2.046c5.37,0,10.483-1.023,15.854-1.023c7.927,0,16.365,4.347,12.529,14.064
				c-3.835,9.717-20.968,4.858-28.895,6.137c0.512,0.256,0.768,0.511,1.278,1.023c0-1.534,0-3.324,0.256-4.858
				c0.256-3.835,2.558-4.091,5.882-4.347c3.068,0,6.137,0,8.949,0.256c2.046,0,11.763,1.023,11.507-3.068
				c-0.256-6.137-23.78-3.58-27.616-2.813C497.857,358.297,498.368,360.087,499.391,359.832L499.391,359.832z"/>
		</g>
	</g>
	<g>
		<g>
			<path fill="#252160" d="M499.135,383.101c0.768-2.045,1.022-4.347,1.022-6.648c0-1.279-1.789-1.279-2.045,0
				c0,2.045-0.256,4.091-1.023,6.137C496.834,383.612,498.623,384.124,499.135,383.101L499.135,383.101z"/>
		</g>
	</g>
	<g>
		<g>
			<path fill="#252160" d="M501.692,376.708c6.904,0.512,14.064-0.511,20.968,0c1.279,0,2.558-0.255,3.58,1.023
				c0.256,0.511,0.512,3.324,0,3.835c-1.278,1.023-8.183,0-9.717-0.255c-0.767,0-1.278,1.022-0.767,1.534
				c3.58,2.813,7.671,4.858,12.273,5.625c1.278,0.255,1.79-1.534,0.512-1.79c-4.092-0.767-8.183-2.557-11.507-5.114
				c-0.256,0.512-0.512,1.023-0.768,1.534c3.58,0.512,7.416,0.256,11.251,0.768c0.512,0,1.023-0.512,1.023-1.023
				c-0.256-2.301-0.512-4.603-0.768-7.16c0-0.512-0.511-1.023-1.022-1.023c-8.438-0.256-16.877,0.511-25.314,0
				C500.413,374.663,500.413,376.708,501.692,376.708L501.692,376.708z"/>
		</g>
	</g>
	<g>
		<g>
			<path fill="#252160" d="M527.518,387.959c0,2.302,1.023,5.114-1.789,4.858c-1.023,0-3.836-2.045-4.858-2.557
				c-2.046-1.023-4.092-1.534-6.393-1.534c-5.882,0-11.507,3.835-16.621,6.137c0.512,0.256,1.022,0.511,1.534,0.767
				c0.256-7.16,5.114-8.694,10.739-11.251c0.768-0.511,0.512-1.79-0.511-1.79c-3.836,0-7.672,0.256-11.507-0.511
				c-1.278-0.256-1.79,1.534-0.512,1.79c4.092,0.767,7.927,0.767,12.019,0.767c-0.256-0.512-0.256-1.279-0.512-1.79
				c-6.648,3.068-11.251,5.114-11.507,13.041c0,0.767,0.768,1.022,1.534,0.767c5.114-2.557,10.484-6.393,16.365-5.881
				c4.603,0.511,8.694,3.58,13.041,5.37c0.512,0.256,1.278-0.255,1.278-1.022c0-2.302,0-4.603,0-7.16
				C529.564,386.681,527.518,386.681,527.518,387.959L527.518,387.959z"/>
		</g>
	</g>
	<g>
		<g>
			<path fill="#252160" d="M176.181,500.98c-3.069,3.068-5.882,6.648-10.229,7.927c-1.278,0.256-0.768,2.046,0.512,1.79
				c4.858-1.278,7.671-5.114,10.995-8.438C178.482,501.492,177.203,500.214,176.181,500.98L176.181,500.98z"/>
		</g>
	</g>
	<g>
		<g>
			<path fill="#252160" d="M177.203,494.844c-3.068,2.557-5.881,5.37-9.717,6.393c-1.278,0.256-0.768,2.302,0.512,1.79
				c4.091-1.278,7.415-4.092,10.483-6.904C179.504,495.61,178.226,494.076,177.203,494.844L177.203,494.844z"/>
		</g>
	</g>
	<g>
		<g>
			<path fill="#252160" d="M177.459,488.707c-3.58,2.045-6.393,5.881-10.484,6.903c-1.278,0.256-0.767,2.302,0.512,1.79
				c4.347-1.278,7.159-4.858,10.739-7.159C179.504,489.729,178.482,488.195,177.459,488.707L177.459,488.707z"/>
		</g>
	</g>
	<g>
		<g>
			<path fill="#252160" d="M176.692,482.825c-3.068,3.069-6.648,5.37-10.483,7.416c-1.023,0.511-0.256,2.301,1.022,1.534
				c4.092-2.046,7.671-4.603,10.739-7.671C178.993,483.337,177.715,482.059,176.692,482.825L176.692,482.825z"/>
		</g>
	</g>
	<g>
		<g>
			<path fill="#252160" d="M178.226,474.643c-3.835,3.069-6.393,7.416-11.251,8.95c-1.278,0.512-0.767,2.301,0.512,1.79
				c5.114-1.79,7.927-6.137,12.018-9.461C180.528,475.41,179.249,473.876,178.226,474.643L178.226,474.643z"/>
		</g>
	</g>
	<g>
		<g>
			<path fill="#252160" d="M178.226,466.716c-3.835,3.324-6.903,7.416-11.507,9.462c-1.022,0.511-0.255,2.301,1.023,1.534
				c4.603-2.302,7.927-6.393,11.762-9.717C180.528,467.228,179.249,465.693,178.226,466.716L178.226,466.716z"/>
		</g>
	</g>
	<g>
		<g>
			<path fill="#252160" d="M177.203,461.603c-3.324,3.323-6.904,6.903-10.995,9.461c-1.023,0.767,0,2.301,1.022,1.534
				c4.347-2.813,7.671-6.137,11.251-9.717C179.504,462.113,178.226,460.579,177.203,461.603L177.203,461.603z"/>
		</g>
	</g>
	<g>
		<g>
			<path fill="#252160" d="M177.97,453.931c-4.091,2.558-6.647,7.416-11.506,8.438c-1.279,0.256-0.768,2.046,0.511,1.79
				c5.114-1.278,7.671-5.881,11.763-8.694C180.016,454.698,178.993,453.164,177.97,453.931L177.97,453.931z"/>
		</g>
	</g>
	<g>
		<g>
			<path fill="#252160" d="M178.993,447.282c-4.092,2.302-7.416,5.626-10.74,8.694c-1.022,0.768,0.512,2.046,1.279,1.278
				c3.324-3.068,6.393-6.393,10.483-8.438C181.039,448.306,180.016,446.771,178.993,447.282L178.993,447.282z"/>
		</g>
	</g>
	<g>
		<g>
			<path fill="#252160" d="M180.016,441.146c-3.835,2.558-7.927,4.603-11.251,7.671c-0.767,0.768,0.512,2.302,1.278,1.279
				c3.324-3.068,7.416-4.858,10.996-7.416C182.062,442.169,181.039,440.379,180.016,441.146L180.016,441.146z"/>
		</g>
	</g>
	<g>
		<g>
			<path fill="#252160" d="M172.345,440.89c3.58-2.045,6.904-4.603,10.739-6.647c1.023-0.512,0.256-2.302-1.022-1.535
				c-3.836,1.79-6.904,4.348-10.739,6.648C170.299,439.867,171.323,441.401,172.345,440.89L172.345,440.89z"/>
		</g>
	</g>
	<g>
		<g>
			<path fill="#252160" d="M174.902,432.196c3.836-2.046,7.16-4.603,10.229-7.671c0.768-0.768-0.512-2.302-1.278-1.279
				c-3.068,2.813-6.393,5.37-9.973,7.416C172.857,431.173,173.879,432.707,174.902,432.196L174.902,432.196z"/>
		</g>
	</g>
	<g>
		<g>
			<path fill="#252160" d="M173.367,428.104c5.114-2.301,9.206-6.648,12.53-10.995c0.767-1.022-1.023-2.046-1.535-1.022
				c-3.068,4.091-6.903,7.927-11.762,10.228C171.323,427.082,172.345,428.616,173.367,428.104L173.367,428.104z"/>
		</g>
	</g>
	<g>
		<g>
			<path fill="#252160" d="M176.436,420.178c3.58-2.301,6.648-5.625,10.74-7.671c1.022-0.512,0-2.302-1.023-1.534
				c-3.835,2.046-6.903,5.114-10.739,7.671C174.391,419.155,175.413,420.689,176.436,420.178L176.436,420.178z"/>
		</g>
	</g>
	<g>
		<g>
			<path fill="#252160" d="M182.062,410.973c3.324-2.046,5.881-5.37,9.973-6.393c1.278-0.256,0.767-2.302-0.512-1.79
				c-4.091,1.278-6.904,4.603-10.229,6.648C180.016,409.95,181.039,411.484,182.062,410.973L182.062,410.973z"/>
		</g>
	</g>
	<g>
		<g>
			<path fill="#252160" d="M189.477,401.768c1.79-1.023,3.836-1.79,5.882-2.558c1.278-0.256,0.767-2.046-0.512-1.79
				c-2.302,0.512-4.347,1.534-6.393,2.558C187.432,400.744,188.454,402.534,189.477,401.768L189.477,401.768z"/>
		</g>
	</g>
	<g>
		<g>
			<path fill="#252160" d="M327.046,494.332c-3.324,1.023-8.694,2.813-11.763,0.256c-1.022-0.767-2.302,0.512-1.278,1.278
				c3.58,3.068,9.461,1.534,13.552,0.256C328.58,495.61,328.069,493.821,327.046,494.332L327.046,494.332z"/>
		</g>
	</g>
	<g>
		<g>
			<path fill="#252160" d="M327.813,489.218c-4.603,0.512-9.205,1.79-13.808,1.023c-1.278-0.256-1.79,1.534-0.512,1.79
				c4.858,0.767,9.461-0.256,14.319-1.023C328.836,491.008,328.836,488.963,327.813,489.218L327.813,489.218z"/>
		</g>
	</g>
	<g>
		<g>
			<path fill="#252160" d="M327.046,484.104c-4.092,0.511-9.206,3.324-12.785-0.256c-0.768-0.768-2.302,0.511-1.279,1.278
				c4.092,4.091,9.717,1.534,14.575,0.768C328.58,485.895,328.069,483.849,327.046,484.104L327.046,484.104z"/>
		</g>
	</g>
	<g>
		<g>
			<path fill="#252160" d="M325.512,477.967c-3.58,1.023-7.16,1.534-10.74,0.512c-1.278-0.256-1.789,1.534-0.511,1.79
				c3.835,1.022,7.927,0.512,11.762-0.512C327.046,479.501,326.534,477.712,325.512,477.967L325.512,477.967z"/>
		</g>
	</g>
	<g>
		<g>
			<path fill="#252160" d="M325.768,471.063c-3.58,2.045-7.928,1.79-12.019,1.022c-1.278-0.256-1.79,1.534-0.512,1.79
				c4.348,1.022,9.206,1.022,13.297-1.022C327.813,472.086,326.79,470.552,325.768,471.063L325.768,471.063z"/>
		</g>
	</g>
	<g>
		<g>
			<path fill="#252160" d="M324.489,463.903c-3.324,1.278-7.159,2.302-10.228-0.256c-1.023-0.767-2.302,0.512-1.279,1.278
				c3.58,3.069,7.928,2.302,12.019,0.768C326.023,465.182,325.512,463.392,324.489,463.903L324.489,463.903z"/>
		</g>
	</g>
	<g>
		<g>
			<path fill="#252160" d="M325.768,457.255c-4.348,0.512-8.694,2.302-12.786-0.256c-1.022-0.767-2.045,1.023-1.022,1.534
				c4.347,2.813,8.95,1.279,13.553,0.512C326.79,459.045,327.046,456.999,325.768,457.255L325.768,457.255z"/>
		</g>
	</g>
	<g>
		<g>
			<path fill="#252160" d="M326.023,450.096c-4.091,0.511-8.438,1.79-12.529,0c-1.022-0.512-2.046,1.278-1.022,1.534
				c4.603,2.045,9.205,0.767,13.808,0C327.557,451.886,327.046,450.096,326.023,450.096L326.023,450.096z"/>
		</g>
	</g>
	<g>
		<g>
			<path fill="#252160" d="M323.722,443.191c-3.324,0-6.904,1.022-10.229-0.256c-1.022-0.512-2.046,1.278-1.022,1.534
				c3.58,1.534,7.415,0.768,10.995,0.512C325,444.981,325,442.936,323.722,443.191L323.722,443.191z"/>
		</g>
	</g>
	<g>
		<g>
			<path fill="#252160" d="M324.744,437.565c-4.091,0-8.183,1.279-12.273,0.512c-1.278-0.256-1.79,1.534-0.512,1.79
				c4.347,1.022,8.438-0.256,12.785-0.512C326.023,439.355,326.023,437.565,324.744,437.565L324.744,437.565z"/>
		</g>
	</g>
	<g>
		<g>
			<path fill="#252160" d="M322.698,431.94c-3.835,0-7.415,0-11.251,0c-1.278,0-1.278,2.046,0,2.046c3.836,0,7.416,0,11.251,0
				C323.978,433.986,323.978,431.94,322.698,431.94L322.698,431.94z"/>
		</g>
	</g>
	<g>
		<g>
			<path fill="#252160" d="M320.909,424.27c-3.069,1.022-6.904,2.813-9.973,1.022c-1.023-0.512-2.046,1.022-1.023,1.534
				c3.58,2.046,7.672,0.256,11.251-1.022C322.698,425.804,322.188,424.014,320.909,424.27L320.909,424.27z"/>
		</g>
	</g>
	<g>
		<g>
			<path fill="#252160" d="M319.119,419.411c-2.558,1.278-5.37,1.278-8.183,1.278c-1.278,0-1.278,2.046,0,2.046
				c3.068,0,6.393,0,9.205-1.534C321.164,420.434,320.142,418.899,319.119,419.411L319.119,419.411z"/>
		</g>
	</g>
	<g>
		<g>
			<path fill="#252160" d="M319.119,414.297c-3.068,0-6.138,1.022-9.206-0.256c-1.022-0.512-2.045,1.278-1.022,1.534
				c3.324,1.534,6.648,0.768,9.973,0.512C320.398,416.087,320.398,414.297,319.119,414.297L319.119,414.297z"/>
		</g>
	</g>
	<g>
		<g>
			<path fill="#252160" d="M317.329,408.16c-3.324,0.511-6.904,1.022-9.973-0.512c-1.022-0.512-2.046,1.022-1.022,1.534
				c3.579,1.534,7.415,1.022,11.251,0.512C319.119,409.95,318.608,407.904,317.329,408.16L317.329,408.16z"/>
		</g>
	</g>
	<g>
		<g>
			<path fill="#252160" d="M314.517,402.534c-3.324,0-7.416,1.023-10.74-0.256c-1.022-0.511-2.045,1.279-1.022,1.534
				c3.58,1.534,7.671,0.768,11.507,0.512C315.795,404.58,315.795,402.534,314.517,402.534L314.517,402.534z"/>
		</g>
	</g>
	<g>
		<g>
			<path fill="#252160" d="M310.681,397.676c-3.58,0.512-7.159,1.79-10.483-0.512c-1.023-0.767-2.046,1.023-1.023,1.535
				c3.836,2.301,7.671,1.278,11.763,0.511C312.471,399.21,311.959,397.42,310.681,397.676L310.681,397.676z"/>
		</g>
	</g>
	<g>
		<g>
			<path fill="#252160" d="M306.845,393.584c-3.068,0.767-6.137,0.767-8.949-1.022c-1.022-0.767-2.046,1.022-1.022,1.534
				c3.324,2.045,6.648,2.045,10.228,1.023C308.379,395.119,307.868,393.329,306.845,393.584L306.845,393.584z"/>
		</g>
	</g>
	<g>
		<g>
			<path fill="#252160" d="M302.498,388.471c-2.813,1.278-5.369,1.022-8.183-0.512c-1.022-0.767-2.045,1.023-1.022,1.534
				c3.324,2.046,6.648,2.046,9.973,0.512C304.544,389.749,303.522,387.959,302.498,388.471L302.498,388.471z"/>
		</g>
	</g>
	<g>
		<g>
			<path fill="#252160" d="M294.06,383.356c-1.278,0.256-2.557,0.511-3.835,0.511s-1.278,2.046,0,2.046c1.534,0,2.813,0,4.347-0.511
				C295.85,384.891,295.339,383.101,294.06,383.356L294.06,383.356z"/>
		</g>
	</g>
	<g>
		<g>
			<path fill="#252160" d="M366.68,189.532c0,69.552,0,138.848,0,208.399c0,1.278,2.046,1.278,2.046,0c0-69.552,0-138.848,0-208.399
				C368.726,188.254,366.68,188.254,366.68,189.532L366.68,189.532z"/>
		</g>
	</g>
	<g>
		<g>
			<path fill="#252160" d="M349.548,192.601c0,46.282,0,92.309,0,138.592c0,1.278,2.046,1.278,2.046,0c0-46.283,0-92.31,0-138.592
				C351.338,191.322,349.548,191.322,349.548,192.601L349.548,192.601z"/>
		</g>
	</g>
	<g>
		<g>
			<path fill="#252160" d="M369.748,185.441c-6.648,0-13.552,0-20.2,0c-1.278,0-1.278,2.045,0,2.045c6.648,0,13.552,0,20.2,0
				C371.028,187.487,371.028,185.441,369.748,185.441L369.748,185.441z"/>
		</g>
	</g>
	<g>
		<g>
			<path fill="#252160" d="M321.164,188.51c0,30.94,0,62.136,0,93.076c0,1.279,2.046,1.279,2.046,0c0-30.94,0-62.136,0-93.076
				C323.21,187.231,321.164,187.231,321.164,188.51L321.164,188.51z"/>
		</g>
	</g>
	<g>
		<g>
			<path fill="#252160" d="M323.21,186.464c-6.393,0-12.785,0-19.178,0c-1.278,0-1.278,2.046,0,2.046c6.393,0,12.785,0,19.178,0
				C324.489,188.51,324.489,186.464,323.21,186.464L323.21,186.464z"/>
		</g>
	</g>
	<g>
		<g>
			<path fill="#252160" d="M300.964,189.532c0,27.616,0,55.232,0,82.849c0,1.278,2.046,1.278,2.046,0c0-27.616,0-55.232,0-82.849
				C303.01,188.254,300.964,188.254,300.964,189.532L300.964,189.532z"/>
		</g>
	</g>
	<g>
		<g>
			<path fill="#252160" d="M321.164,274.682c-7.415,0-14.83,0-22.246,0c-1.278,0-1.278,2.045,0,2.045c7.416,0,14.831,0,22.246,0
				C322.444,276.472,322.444,274.682,321.164,274.682L321.164,274.682z"/>
		</g>
	</g>
	<g>
		<g>
			<path fill="#252160" d="M368.726,329.147c-6.393,0-12.785,0-19.178,0c-1.278,0-1.278,2.046,0,2.046c6.393,0,12.785,0,19.178,0
				C370.004,331.193,370.004,329.147,368.726,329.147L368.726,329.147z"/>
		</g>
	</g>
	<g>
		<g>
			<path fill="#252160" d="M321.164,292.837c-7.671,0-15.598,0-23.269,0c-1.278,0-1.278,2.046,0,2.046c7.671,0,15.598,0,23.269,0
				C322.444,294.627,322.444,292.837,321.164,292.837L321.164,292.837z"/>
		</g>
	</g>
	<g>
		<g>
			<path fill="#252160" d="M320.142,314.061c-7.16,0-14.063,0-21.224,0c-1.278,0-1.278,2.046,0,2.046c7.16,0,14.063,0,21.224,0
				C321.42,315.851,321.42,314.061,320.142,314.061L320.142,314.061z"/>
		</g>
	</g>
	<g>
		<g>
			<path fill="#252160" d="M530.587,542.66c-8.438,0-16.877,0-25.315,0c-1.278,0-1.278,2.046,0,2.046c8.438,0,16.877,0,25.315,0
				C531.865,544.706,531.865,542.66,530.587,542.66L530.587,542.66z"/>
		</g>
	</g>
	<g>
		<g>
			<path fill="#252160" d="M527.518,556.979c-7.159,0-14.063,0-21.223,0c-1.279,0-1.279,2.046,0,2.046c7.159,0,14.063,0,21.223,0
				C528.797,558.77,528.797,556.979,527.518,556.979L527.518,556.979z"/>
		</g>
	</g>
	<g>
		<g>
			<path fill="#252160" d="M527.518,575.135c-7.415,0-14.83,0-22.246,0c-1.278,0-1.278,2.046,0,2.046c7.416,0,14.831,0,22.246,0
				C528.797,576.925,528.797,575.135,527.518,575.135L527.518,575.135z"/>
		</g>
	</g>
	<g>
		<g>
			<path fill="#252160" d="M568.943,478.479c-12.019-17.644-39.123-7.927-53.954-0.256c-15.598,8.183-40.912,25.57-35.799,46.538
				c0.256,0.512,0.768,0.768,1.279,0.768c11.506-2.046,9.972-15.343,2.813-21.991c-12.785-11.506-28.639,3.58-33.497,15.599
				c-10.74,25.57,7.415,54.209-2.302,80.547c-5.881,15.854-27.36,28.895-41.936,15.598c-5.881-5.369-9.205-12.018-17.132-14.831
				c-1.278-0.511-1.534,1.535-0.512,1.79c10.739,3.836,14.063,16.877,25.314,19.945c10.484,3.068,23.27-3.068,30.174-11.251
				c21.224-25.57-1.79-59.835,7.159-87.963c3.324-10.228,15.599-27.104,28.639-20.456c4.092,2.046,14.831,21.735,3.069,20.456
				c-9.206-1.022,11.762-27.615,13.808-29.661c14.319-12.785,55.999-37.077,71.598-14.063
				C567.919,480.524,569.453,479.501,568.943,478.479L568.943,478.479z"/>
		</g>
	</g>
	<g>
		<g>
			<path fill="#252160" d="M567.664,464.159c-21.224-18.411-46.794-2.557-71.086-7.415c-13.041-2.558-4.348-17.899,6.137-17.389
				c8.438,0.256,9.205,7.927,6.393,14.064c-2.302,4.603-5.881,6.903-10.739,8.183c-5.37,1.534-11.251,1.278-16.877,0.767
				c-15.854-1.022-32.475-3.836-47.562,1.79c-21.223,7.671-38.866,39.379-24.547,60.347c3.835,5.625,15.086,9.717,19.434,1.789
				c3.579-6.137-4.348-15.598-10.229-16.876c-12.273-2.558-12.529,13.297-10.739,20.968c2.301,10.229,8.693,18.41,12.018,28.383
				c7.671,24.292-26.849,38.867-33.753,14.831c-0.256-1.278-2.301-0.767-1.79,0.512c3.324,11.251,14.831,16.365,25.826,12.273
				c13.553-5.114,15.343-19.434,10.229-31.451c-3.58-8.438-8.438-16.109-10.484-25.06c-0.511-2.301-2.301-6.648-1.022-8.949
				c2.046-1.534,4.092-2.813,5.881-4.348c3.324-5.369,6.393-5.625,9.206-1.534c3.835,3.069,4.603,10.229-1.534,13.041
				c-4.858,2.302-10.229-3.068-12.274-6.648c-9.717-17.644,1.79-42.702,17.644-52.163c17.389-10.484,38.101-5.37,57.022-4.858
				c11.507,0.511,28.383-2.558,29.15-17.133c1.278-19.944-32.73-7.159-25.826,6.648c3.835,7.416,20.2,5.114,26.337,4.858
				c17.899-1.278,36.822-6.648,52.164,6.648C567.408,466.205,568.687,464.926,567.664,464.159L567.664,464.159z"/>
		</g>
	</g>
	<g>
		<g>
			<path fill="#252160" d="M569.709,438.589c-4.603,1.534-9.461,2.301-14.319,2.046c-4.858,0-9.973-0.512-12.785-5.114
				c-2.301-3.58-3.068-8.95,3.324-8.183c4.603,0.512,5.881,4.603,2.046,7.927c-3.324,3.068-10.995,1.022-15.087-0.256
				c-6.393-2.046-11.251-6.648-16.876-10.483c-8.694-5.882-19.689-10.74-30.43-7.672c-9.972,2.558-14.063,12.53-23.013,16.365
				c-8.183,3.58-15.087-0.256-20.712-5.881c-2.302-2.302-5.114-4.858-6.393-7.927c-2.558-2.813-2.558-5.882-0.256-8.95
				c0.256-5.625,3.068-6.903,8.438-3.324c3.324,4.348-4.347,21.479-6.903,25.06c-8.95,12.018-26.082,9.973-39.123,13.808
				c-13.297,3.836-30.685,26.85-43.47,8.183c-0.768-1.022-2.302,0-1.534,1.023c10.739,15.854,23.014,5.113,35.799-2.813
				c14.575-8.949,38.1-3.835,49.606-18.154c4.091-5.37,11.507-22.247,7.415-28.64c-3.579-5.369-11.762-1.79-13.808,3.58
				c-3.324,8.95,9.205,21.735,16.365,25.314c14.575,7.672,21.479-6.393,32.219-13.041c25.314-15.598,40.657,20.713,64.693,16.621
				c6.393-1.022,12.529-4.603,6.393-10.228c-5.626-5.114-15.087-3.58-12.785,5.369c3.579,12.529,23.013,10.229,32.219,7.416
				C571.499,440.123,570.989,438.077,569.709,438.589L569.709,438.589z"/>
		</g>
	</g>
	<g>
		<g>
			<path fill="#252160" d="M594.257,628.833c-14.575,1.278-28.639,3.835-42.702,7.159c-1.279,0.256-0.768,2.046,0.511,1.79
				c14.063-3.068,27.872-5.881,42.191-7.159C595.535,630.623,595.535,628.577,594.257,628.833L594.257,628.833z"/>
		</g>
	</g>
	<g>
		<g>
			<path fill="#252160" d="M106.117,673.069c-31.452,4.858-62.647,10.996-93.844,15.599c-1.278,0.256-0.767,2.046,0.512,1.79
				c31.451-4.603,62.647-10.995,93.844-15.599C107.907,674.859,107.396,673.069,106.117,673.069L106.117,673.069z"/>
		</g>
	</g>
	<g>
		<g>
			<path fill="#252160" d="M252.38,486.149c0-35.287,0-70.83,0-106.117c0-1.278-2.045-1.278-2.045,0c0,35.287,0,70.83,0,106.117
				C250.335,487.173,252.38,487.173,252.38,486.149L252.38,486.149z"/>
		</g>
	</g>
	<g>
		<g>
			<path fill="#252160" d="M254.426,335.284c0-62.648,0-125.551,0-188.199c0-1.278-2.046-1.278-2.046,0c0,0.767,0,1.279,0,2.045
				c0,1.279,2.046,1.279,2.046,0c0-0.767,0-1.278,0-2.045c0-1.278-2.046-1.278-2.046,0c0,62.647,0,125.551,0,188.199
				C252.38,336.563,254.426,336.563,254.426,335.284L254.426,335.284z"/>
		</g>
	</g>
	<g>
		<g>
			<path fill="#252160" d="M254.426,156.035c-1.534-15.086,6.904-26.082,22.246-27.36c1.278,0,1.278-2.046,0-2.046
				c-16.365,1.279-25.826,13.041-24.292,29.406C252.636,157.313,254.426,157.313,254.426,156.035L254.426,156.035z"/>
		</g>
	</g>
	<g>
		<g>
			<path fill="#252160" d="M564.34,142.227c-5.882,6.904-12.785,12.785-19.945,18.155c-1.022,0.767,0,2.301,1.022,1.534
				c7.416-5.37,14.319-11.507,20.457-18.411C566.385,142.738,565.107,141.46,564.34,142.227L564.34,142.227z"/>
		</g>
	</g>
	<g>
		<g>
			<path fill="#252160" d="M559.226,141.204c-7.416,7.16-16.621,11.763-24.292,18.155c-1.023,0.767,0.512,2.045,1.278,1.278
				c7.671-6.648,16.877-11.251,24.292-18.155C561.527,141.716,560.248,140.437,559.226,141.204L559.226,141.204z"/>
		</g>
	</g>
	<g>
		<g>
			<path fill="#252160" d="M279.996,130.209c-8.438,6.648-15.086,15.086-21.479,23.525c-0.767,1.023,1.023,2.045,1.535,1.023
				c6.393-8.438,12.785-16.621,21.223-23.014C282.298,130.72,281.02,129.442,279.996,130.209L279.996,130.209z"/>
		</g>
	</g>
	<g>
		<g>
			<path fill="#252160" d="M291.247,134.3c-11.251,9.461-20.968,20.201-30.429,31.452c-0.767,1.023,0.512,2.301,1.278,1.278
				c9.206-11.251,19.178-21.99,30.429-31.452C293.549,134.812,292.015,133.533,291.247,134.3L291.247,134.3z"/>
		</g>
	</g>
	<g>
		<g>
			<path fill="#252160" d="M300.198,142.227c-11.507,14.575-26.85,24.548-40.146,37.333c-0.768,0.767,0.511,2.301,1.278,1.278
				c13.296-12.785,28.639-22.758,40.146-37.333C302.242,142.738,300.964,141.46,300.198,142.227L300.198,142.227z"/>
		</g>
	</g>
	<g>
		<g>
			<path fill="#252160" d="M303.266,154.501c-13.041,15.598-29.662,26.849-43.47,41.424c-0.768,0.768,0.511,2.302,1.278,1.279
				c13.808-14.575,30.685-26.082,43.47-41.424C305.311,154.757,304.032,153.478,303.266,154.501L303.266,154.501z"/>
		</g>
	</g>
	<g>
		<g>
			<path fill="#252160" d="M304.288,169.587c-11.763,13.297-27.872,21.224-39.378,34.52c-0.768,1.023,0.511,2.302,1.278,1.279
				c11.762-13.297,27.871-21.224,39.378-34.52C306.334,170.099,305.056,168.82,304.288,169.587L304.288,169.587z"/>
		</g>
	</g>
	<g>
		<g>
			<path fill="#252160" d="M304.288,182.884c-15.854,12.529-32.985,23.269-47.561,37.333c-0.768,0.768,0.511,2.302,1.278,1.279
				c14.575-14.064,31.707-25.059,47.561-37.333C306.589,183.396,305.311,182.117,304.288,182.884L304.288,182.884z"/>
		</g>
	</g>
	<g>
		<g>
			<path fill="#252160" d="M295.083,203.085c-11.763,10.484-24.292,20.201-37.333,29.15c-1.022,0.767,0,2.301,1.022,1.534
				c13.041-9.206,25.826-18.922,37.589-29.406C297.384,203.596,296.106,202.318,295.083,203.085L295.083,203.085z"/>
		</g>
	</g>
	<g>
		<g>
			<path fill="#252160" d="M292.015,217.148c-10.995,8.95-22.502,17.388-33.498,26.338c-1.022,0.767,0.512,2.045,1.279,1.278
				c10.995-8.95,22.502-17.388,33.497-26.337C294.572,217.66,293.037,216.381,292.015,217.148L292.015,217.148z"/>
		</g>
	</g>
	<g>
		<g>
			<path fill="#252160" d="M286.133,237.349c-7.927,6.904-15.342,14.319-23.269,21.224c-1.023,0.767,0.511,2.045,1.278,1.278
				c7.927-6.904,15.342-14.319,23.27-21.223C288.435,237.86,286.901,236.582,286.133,237.349L286.133,237.349z"/>
		</g>
	</g>
	<g>
		<g>
			<path fill="#252160" d="M286.133,252.436c-10.228,7.16-20.2,15.087-30.429,22.247c-1.022,0.767,0,2.301,1.023,1.534
				c10.228-7.16,20.2-15.086,30.429-22.247C288.179,253.458,287.156,251.668,286.133,252.436L286.133,252.436z"/>
		</g>
	</g>
	<g>
		<g>
			<path fill="#252160" d="M286.133,265.732c-11.251,6.137-21.479,13.552-31.451,21.479c-1.023,0.767,0.512,2.046,1.278,1.279
				c9.973-7.927,20.201-15.087,31.196-21.224C288.435,266.755,287.412,264.965,286.133,265.732L286.133,265.732z"/>
		</g>
	</g>
	<g>
		<g>
			<path fill="#252160" d="M287.156,272.636c-12.53,6.393-24.036,14.064-33.497,24.548c-0.768,1.023,0.511,2.301,1.278,1.278
				c9.461-10.228,20.968-17.899,33.241-24.036C289.457,273.915,288.435,272.125,287.156,272.636L287.156,272.636z"/>
		</g>
	</g>
	<g>
		<g>
			<path fill="#252160" d="M289.201,280.819c-11.251,7.16-22.502,13.552-31.451,23.525c-0.768,1.023,0.512,2.301,1.278,1.278
				c8.95-9.717,20.201-16.109,31.196-23.013C291.247,281.842,290.225,280.052,289.201,280.819L289.201,280.819z"/>
		</g>
	</g>
	<g>
		<g>
			<path fill="#252160" d="M291.247,289.001c-9.717,5.881-17.644,14.064-27.36,20.457c-1.022,0.767,0,2.301,1.023,1.534
				c9.461-6.393,17.388-14.575,27.36-20.457C293.293,290.024,292.271,288.234,291.247,289.001L291.247,289.001z"/>
		</g>
	</g>
	<g>
		<g>
			<path fill="#252160" d="M279.996,307.157c-8.183,7.16-16.109,14.831-25.059,21.223c-1.023,0.767,0,2.302,1.022,1.534
				c9.205-6.393,17.132-14.063,25.57-21.479C282.298,307.668,281.02,306.39,279.996,307.157L279.996,307.157z"/>
		</g>
	</g>
	<g>
		<g>
			<path fill="#252160" d="M281.275,318.152c-9.205,6.137-18.154,12.274-26.593,19.434c-1.023,0.767,0.512,2.045,1.278,1.278
				c8.183-7.16,17.132-13.041,26.082-19.178C283.065,319.175,282.298,317.641,281.275,318.152L281.275,318.152z"/>
		</g>
	</g>
	<g>
		<g>
			<path fill="#252160" d="M277.696,334.261c1.278,0,1.278-2.045,0-2.045C276.416,332.216,276.416,334.261,277.696,334.261
				L277.696,334.261z"/>
		</g>
	</g>
	<g>
		<g>
			<path fill="#252160" d="M294.316,464.926c-9.717,4.348-18.41,10.229-27.36,16.11c-1.022,0.767,0,2.301,1.023,1.534
				c8.693-5.882,17.644-11.763,27.36-16.109C296.362,466.205,295.594,464.415,294.316,464.926L294.316,464.926z"/>
		</g>
	</g>
	<g>
		<g>
			<path fill="#252160" d="M286.133,457.767c-11.507,6.393-22.246,13.297-32.474,21.479c-1.023,0.767,0.511,2.045,1.278,1.278
				c10.228-7.927,20.968-14.831,32.219-21.224C288.435,459.045,287.412,457.255,286.133,457.767L286.133,457.767z"/>
		</g>
	</g>
	<g>
		<g>
			<path fill="#252160" d="M286.133,449.84c-12.273,6.648-23.524,15.086-35.543,22.246c-1.022,0.512,0,2.302,1.023,1.534
				c12.018-7.159,23.269-15.598,35.543-22.246C288.435,450.862,287.412,449.072,286.133,449.84L286.133,449.84z"/>
		</g>
	</g>
	<g>
		<g>
			<path fill="#252160" d="M282.298,441.657c-10.229,5.114-20.201,10.995-30.429,16.109c-1.023,0.512-0.256,2.302,1.022,1.534
				c10.229-5.114,20.2-10.995,30.429-16.109C284.343,442.68,283.321,441.146,282.298,441.657L282.298,441.657z"/>
		</g>
	</g>
	<g>
		<g>
			<path fill="#252160" d="M283.321,430.662c-9.461,5.369-19.178,10.228-28.383,16.109c-1.023,0.767,0,2.301,1.022,1.534
				c9.205-5.882,18.922-10.995,28.383-16.109C285.366,431.685,284.343,429.895,283.321,430.662L283.321,430.662z"/>
		</g>
	</g>
	<g>
		<g>
			<path fill="#252160" d="M279.23,421.456c-8.694,4.858-17.133,10.229-25.315,16.109c-1.022,0.768,0,2.302,1.023,1.534
				c8.183-5.881,16.62-11.251,25.314-16.109C281.275,422.479,280.252,420.945,279.23,421.456L279.23,421.456z"/>
		</g>
	</g>
	<g>
		<g>
			<path fill="#252160" d="M278.206,412.251c-7.415,5.114-14.831,9.973-22.246,15.087c-1.022,0.767,0,2.301,1.022,1.534
				c7.416-5.114,14.831-9.973,22.247-15.087C280.252,413.273,279.23,411.739,278.206,412.251L278.206,412.251z"/>
		</g>
	</g>
	<g>
		<g>
			<path fill="#252160" d="M290.225,392.05c-12.785,9.717-26.594,17.9-38.611,28.383c-1.023,0.768,0.511,2.302,1.278,1.278
				c11.763-10.483,25.57-18.666,38.355-28.127C292.271,393.073,291.247,391.283,290.225,392.05L290.225,392.05z"/>
		</g>
	</g>
	<g>
		<g>
			<path fill="#252160" d="M285.366,385.914c-12.529,5.114-22.246,13.041-31.708,22.502c-0.767,0.767,0.512,2.301,1.279,1.278
				c9.205-9.206,18.922-17.132,30.939-21.991C287.156,387.448,286.645,385.402,285.366,385.914L285.366,385.914z"/>
		</g>
	</g>
	<g>
		<g>
			<path fill="#252160" d="M274.115,382.078c-8.95,5.114-17.388,10.739-24.548,18.41c-0.768,1.023,0.512,2.302,1.278,1.279
				c6.904-7.671,15.087-13.042,24.036-18.155C276.161,383.101,275.138,381.311,274.115,382.078L274.115,382.078z"/>
		</g>
	</g>
	<g>
		<g>
			<path fill="#252160" d="M272.581,374.663c1.278,0,1.278-2.046,0-2.046C271.303,372.873,271.303,374.663,272.581,374.663
				L272.581,374.663z"/>
		</g>
	</g>
	<g>
		<g>
			<path fill="#252160" d="M45.26,611.189c-14.831-2.813-29.918,3.324-44.493,5.625c-1.278,0.256-0.767,2.046,0.512,1.79
				c14.063-2.301,29.15-8.183,43.47-5.625C45.771,613.235,46.282,611.445,45.26,611.189L45.26,611.189z"/>
		</g>
	</g>
	<g>
		<g>
			<path fill="#252160" d="M49.607,527.063c-13.808,1.022-27.36,2.557-41.168,2.813c-1.279,0-1.279,2.046,0,2.046
				c13.808-0.256,27.36-1.79,41.168-2.813C50.885,528.853,50.885,526.807,49.607,527.063L49.607,527.063z"/>
		</g>
	</g>
	<g>
		<g>
			<path fill="#252160" d="M63.67,435.265c-15.598,0.512-29.405-4.858-43.726-10.229c-1.278-0.511-1.534,1.534-0.511,1.79
				c14.575,5.37,28.639,10.739,44.236,10.229C64.948,437.055,64.948,435.265,63.67,435.265L63.67,435.265z"/>
		</g>
	</g>
	<g>
		<g>
			<path fill="#252160" d="M103.049,353.695c-18.155-2.046-34.776-7.671-50.886-15.854c-1.022-0.512-2.045,1.022-1.022,1.534
				c16.621,8.182,33.497,14.063,51.908,16.109C104.072,355.996,104.072,353.951,103.049,353.695L103.049,353.695z"/>
		</g>
	</g>
	<g>
		<g>
			<path fill="#252160" d="M166.464,271.869c-10.484-15.342-18.155-32.474-27.105-48.583c-0.511-1.023-2.301,0-1.534,1.022
				c8.95,16.365,16.877,33.242,27.104,48.584C165.441,273.915,167.231,272.892,166.464,271.869L166.464,271.869z"/>
		</g>
	</g>
	<g>
		<g>
			<path fill="#252160" d="M98.957,673.581c4.604-3.835,7.927-8.949,12.274-13.041c0.767-0.767-0.512-2.301-1.278-1.278
				c-4.092,4.347-7.672,9.205-12.274,13.041C96.656,673.069,97.935,674.349,98.957,673.581L98.957,673.581z"/>
		</g>
	</g>
	<g>
		<g>
			<path fill="#252160" d="M85.916,680.997c6.904-11.251,15.854-20.968,23.27-31.708c0.768-1.022-1.022-2.045-1.534-1.022
				c-7.415,10.995-16.621,20.456-23.27,31.707C83.615,680.997,85.406,682.02,85.916,680.997L85.916,680.997z"/>
		</g>
	</g>
	<g>
		<g>
			<path fill="#252160" d="M74.665,680.229c10.996-13.041,20.201-27.616,32.73-39.379c1.023-0.767-0.512-2.301-1.278-1.278
				c-12.529,11.763-21.735,26.082-32.73,39.379C72.365,679.718,73.899,681.252,74.665,680.229L74.665,680.229z"/>
		</g>
	</g>
	<g>
		<g>
			<path fill="#252160" d="M61.625,680.229c13.296-16.876,29.405-31.707,41.424-49.862c0.767-1.022-1.022-2.046-1.534-1.022
				c-11.763,17.899-27.616,32.729-40.913,49.351C59.323,679.718,60.858,681.252,61.625,680.229L61.625,680.229z"/>
		</g>
	</g>
	<g>
		<g>
			<path fill="#252160" d="M44.748,685.855c20.712-20.968,38.611-44.237,55.488-68.529c0.767-1.022-1.023-2.046-1.534-1.022
				c-16.621,24.036-34.521,47.305-54.977,68.017C42.447,685.344,43.726,686.622,44.748,685.855L44.748,685.855z"/>
		</g>
	</g>
	<g>
		<g>
			<path fill="#252160" d="M30.685,684.832c21.479-18.41,36.31-42.447,54.209-63.67c0.768-1.023-0.512-2.302-1.278-1.279
				c-18.155,21.224-32.986,45.26-54.209,63.671C28.383,684.32,29.661,685.6,30.685,684.832L30.685,684.832z"/>
		</g>
	</g>
	<g>
		<g>
			<path fill="#252160" d="M24.036,672.814c16.621-15.854,30.685-33.498,45.004-51.397c0.767-1.022-0.512-2.301-1.278-1.278
				c-14.064,17.899-28.384,35.543-45.004,51.396C21.735,672.303,23.269,673.581,24.036,672.814L24.036,672.814z"/>
		</g>
	</g>
	<g>
		<g>
			<path fill="#252160" d="M9.973,671.791c11.762-12.785,23.269-26.082,34.52-39.378c0.768-1.023-0.512-2.302-1.278-1.279
				c-11.251,13.297-22.758,26.594-34.521,39.379C7.927,671.28,9.205,672.814,9.973,671.791L9.973,671.791z"/>
		</g>
	</g>
</g>
</svg>
