<?xml version="1.0" encoding="utf-8"?>
<!-- Generator: Adobe Illustrator 18.1.1, SVG Export Plug-In . SVG Version: 6.00 Build 0)  -->
<svg version="1.1" id="Layer_1" xmlns="http://www.w3.org/2000/svg" xmlns:xlink="http://www.w3.org/1999/xlink" x="0px" y="0px"
	 viewBox="0 0 375.2 176.2" enable-background="new 0 0 375.2 176.2" xml:space="preserve">
<g>
	<g>
		<g>
			<path fill="#FFFFFF" d="M307.5,126.5c-10.9,2.4-24.1,2.7-32.8-5.4c-4.9-4.7-6.8-10.9-8.3-17.3c-1.9-8-3.4-16.4-3.5-24.7
				c0-2.7,1.2-6.8-0.6-9.3c-1.7-2.4-5.9-2.3-8.4-1.6c-4,1.2-4.8,5.2-5.9,8.6c-2.3,6.8-4.7,13.4-6.8,20.2c-4.3,13.7-7.8,28.7-15.5,41
				c-6.9,11.1-17.4,19.5-28.9,25.5c-11.9,6.2-25.7,10.6-39.1,11.1c-14,0.5-28.8-5.4-33.6-19.6c-3.7-10.8-1.4-22.8-2-34
				c-0.2-4-0.1-9-3.1-12c-1.2-1.2-2.7-2-4.3-2.4c-0.6-0.2-1.2-0.1-1.8-0.3c-2.2-0.7-2.6-1.7-2.8-4.2c-0.4-5.9,0.3-12.3,5.7-15.8
				c5.7-3.7,14.2-4.3,20.7-6c15.9-4.1,31.8-8.7,47.6-13.3c15.7-4.6,31.4-10.6,47.8-11.4c13.9-0.6,26.9-0.6,38.8-8.8
				c5.4-3.8,9.5-9,15-12.5c6-3.8,12.9-6.2,19.7-8.3c15.7-4.8,31.1-10.3,47.1-13.9c3.7-0.8,7.4-1.4,11.1-2.3c1.4-0.4,4-1.6,5.5-1.3
				c3.4,0.7,4.5,3.3,4.5,6.2c0.1,6.6-3.1,11.2-4.9,17.2c-3.8,12.2-3.4,25.2-6.6,37.5c-6,23-20.2,45.3-43.3,53.9
				C315.1,124.7,311.3,125.5,307.5,126.5c-0.9,0.2-0.5,1.7,0.4,1.4c9.9-2.5,19-5.7,27.2-12c9.3-7.1,16.4-16.7,21.5-27.1
				c5.1-10.5,8.3-22,9.7-33.6c0.9-7.7,1.6-15.5,3.8-22.9c1.9-6.1,4.8-10.5,5-17c0.1-3.5-0.6-7.6-4.7-8.3c-1.9-0.3-4,0.4-5.9,0.9
				c-4.4,1.2-8.9,1.8-13.4,2.9c-16.9,3.9-33.5,9.5-50,14.9c-6.6,2.2-13.2,4.8-18.8,9c-5.9,4.4-10.5,10-17.1,13.6
				c-15.1,8.1-33.1,4.4-49.4,8.1c-17.1,3.8-33.9,9.8-50.8,14.6c-8.7,2.5-17.4,4.9-26.1,7.2c-7,1.8-14.8,2.7-21.4,5.6
				c-3.7,1.6-6.6,4.3-7.9,8.2c-1.3,3.7-2.1,10.2-0.4,13.9c1.3,2.9,4.9,1.7,7.4,3.3c5.7,3.7,4.2,15.2,4.1,21.1
				c-0.2,11.1-1.2,23.2,5.7,32.7c7.1,9.8,18.8,13.6,30.5,13.4c24.7-0.6,52.2-13.2,67.1-33.2c8.6-11.5,12.5-26.1,16.7-39.6
				c2.4-7.8,4.8-15.7,7.7-23.4c1.2-3.1,1.7-7.2,4.4-9.2c1.6-1.2,5.5-2.3,7.5-0.8c1.4,1,1.2,2.9,1.2,4.4c-0.1,6.7,0.3,13.3,1.4,20
				c1.1,6.9,2.3,14.6,5.5,20.9c4.5,8.9,13.3,13.4,23,14.2c5.5,0.4,11-0.2,16.4-1.4C308.9,127.7,308.5,126.3,307.5,126.5z"/>
		</g>
	</g>
	<g>
		<g>
			<path fill="#FFFFFF" d="M141.5,172.2c-11.2-5-21.5-12.5-25.3-24.7c-2.5-7.8-2-16.1-3.3-24.1c-0.8-4.7-1.4-10.3-3.7-14.5
				c-0.8-1.5-1.6-2-3-2.9c-1.7-1-3.2-1.4-4.2-3.4c-1.1-2.1-1-4.8-0.7-7c1.8-13.6,18.4-17,29.6-20.2C143,72,155.3,69.1,167.4,65
				c14.1-4.8,28.5-8.9,43.1-11.6c7.9-1.4,16.2-3.2,24.2-3.2c6.4,0,12.1,1.4,18.2-1.4c5.7-2.6,10.6-6.9,15.5-10.7
				c5.9-4.6,11.8-8.4,18.7-11.4c14.3-6.2,29.4-10.6,44.5-14.4c6.9-1.7,13.9-3.3,20.9-4.8c5.8-1.2,17.1-4.3,20.9,2.5
				c0.3,0.6,1.2,0.1,0.9-0.5c-4.7-8.5-19.9-3.4-26.8-2c-14.9,3.2-29.7,7-44.1,11.9C290,24.1,278,29.4,267,38.1
				c-7.2,5.7-14.8,12.2-24.5,11.8c-7.6-0.4-14.5-0.1-22.1,1c-16.4,2.4-32.3,6.4-48.1,11.5c-13.7,4.4-27.4,8.2-41.3,12.1
				c-6.2,1.7-12.3,3.9-18.2,6.4c-4.6,1.9-8.2,3.9-10.6,8.5c-2.1,4.1-3,9.4-1.2,13.8c0.7,1.7,1.3,2.4,2.8,3.3
				c1.8,1.1,3.5,1.5,4.8,3.7c0.7,1.2,1,3,1.4,4.4c2.9,10.8,1.9,22.2,5.1,32.9c3.8,12.7,14.3,20.5,25.9,25.8
				C141.6,173.3,142.1,172.5,141.5,172.2L141.5,172.2z"/>
		</g>
	</g>
	<g>
		<g>
			<path fill="#FFFFFF" d="M332.2,112.8c19.6-13.8,27.5-36.6,30.5-59.4c1.5-11.6,3.8-34.9-14.3-32.9c-14.2,1.6-28.5,7.2-41.6,12.4
				c-11.1,4.4-24.7,10.2-31,20.9c-5.5,9.3-6.7,20.8-6.2,31.4c0.5,9.7,1.5,21.2,6.9,29.6c12.6,19.5,41.2,6.6,56.3-2.6
				c0.5-0.3,0-1.2-0.5-0.9c-7.2,4.4-15.2,8.4-23.4,10.5c-9.6,2.4-19.9,3.9-27.8-3.3c-7.6-6.8-9.2-18.4-10.1-28
				c-0.9-9.5-0.8-19.2,2.2-28.4c4.1-12.7,14.5-19.3,26-24.8c11.5-5.4,24.1-9.7,36.4-13c8.6-2.3,21.1-6.5,25.4,4.3
				c2.6,6.5,1.9,14.2,1.2,21c-2.5,23.7-10,48.1-30.4,62.4C331.2,112.3,331.7,113.1,332.2,112.8L332.2,112.8z"/>
		</g>
	</g>
	<g>
		<g>
			<path fill="#FFFFFF" d="M352.5,21.5c9.6,5.5,7.3,21.1,6.1,30.3c-1.6,12.8-4.5,25.7-11,37c-3.7,6.4-8.3,12.7-13.8,17.8
				c-5.1,4.6-10.7,7-16.9,9.7c-10.1,4.4-22.7,8.7-33.5,4.6c-0.6-0.2-0.9,0.7-0.3,1c11.1,4.2,23.9-0.2,34.3-4.7
				c6.3-2.7,12-5.2,17.1-9.9c5.8-5.4,10.9-12.2,14.7-19.2c6.4-11.9,9.2-25.2,10.7-38.5c1-9,2.6-23.5-6.9-28.8
				C352.5,20.3,352,21.2,352.5,21.5L352.5,21.5z"/>
		</g>
	</g>
	<g>
		<g>
			<path fill="#FFFFFF" d="M155.3,170.6c12.2-3.1,25.1-5.5,36.4-11.1c11.8-5.9,21.3-14.9,28.1-26.2c6.9-11.3,12.5-24.1,16.3-36.8
				c2.8-9.5,5.8-23.3-2.2-31.2c-4.3-4.3-10-5.2-15.8-4c-8.4,1.7-16.4,5.4-24.8,7.4c-13.5,3.3-28,6-40.8,11.7
				c-19.4,8.7-26.4,27.8-26.4,47.8c0,17.9,5.7,44.4,28.7,42.5c1-0.1,1-1.6,0-1.5c-20.1,1.7-26.2-19.9-27-36
				c-1-18.3,3.1-38.2,20-48.5c9.4-5.8,20.7-8,31.3-10.8c7.6-2.1,15.3-3.6,22.9-5.8c6.9-2,14.3-6.1,21.6-5.8
				c17.1,0.7,14.7,21.5,11.6,32.6c-3.2,11.4-8.2,22.7-13.9,33.1c-6.9,12.7-16.4,23.1-29.4,29.8c-11.4,5.9-24.6,8.3-36.9,11.4
				C154,169.4,154.4,170.8,155.3,170.6L155.3,170.6z"/>
		</g>
	</g>
	<g>
		<g>
			<path fill="#FFFFFF" d="M221.1,127.4c-0.9-9.7-0.9-18.4,2.4-27.7c1.6-4.6,3.5-9.1,6.8-12.7c2.4-2.6,5.1-4.7,7-7.8
				c0.3-0.6-0.5-1.1-0.9-0.5c-2.2,3.7-5.7,6-8.3,9.3c-2.6,3.4-4.2,7.4-5.6,11.4c-3.3,9.5-3.3,18.1-2.4,28
				C220.2,128,221.2,128.1,221.1,127.4L221.1,127.4z"/>
		</g>
	</g>
	<g>
		<g>
			<path fill="#FFFFFF" d="M267.7,108.7c-14.4-6.9-6.8-28.3-12.5-40.3c-0.3-0.6-1.1-0.1-0.9,0.5c5.8,12.1-2,33.6,12.9,40.7
				C267.8,109.9,268.3,109,267.7,108.7L267.7,108.7z"/>
		</g>
	</g>
	<g>
		<g>
			<path fill="#FFFFFF" d="M101.5,98.5c-11.6-10-25.1-18.1-37.8-26.6C56.3,67,49.1,61.8,41.9,56.6c-4.9-3.5-9.8-6.8-15.1-9.7
				c-3.4-1.9-6.6-4.5-10.4-5.6c-6.4-1.8-8.5,3.5-9.1,9c-0.3,3-0.4,6.1-0.5,9.1c0,1.8,0.2,4-0.4,5.7c-1.8,5-5,1.3-5.2-2.2
				C1,56.4,2.9,48.5,4.5,42.2c0.9-3.6,2.1-8,6.8-8.1c2.9-0.1,6.3,1.8,8.8,2.9c5.9,2.6,11.6,5.7,17.1,9.2c5.7,3.6,11.2,7.7,16.9,11.3
				c5,3.1,10.5,5.4,15.9,7.7c6.5,2.7,12.8,5.5,18.7,9.2C94,77.7,99,81.7,104.5,85c0.6,0.3,1.1-0.5,0.5-0.9c-5-3-9.6-6.7-14.6-9.9
				c-5.4-3.5-11.1-6.2-17-8.7C67.6,63,61.6,60.6,56,57.4c-5.8-3.4-11.2-7.6-16.9-11.2c-5.7-3.7-11.6-7.1-17.9-9.8
				c-3.3-1.5-7.6-3.9-11.4-3.3C2.6,34.4,2.4,47.6,1.4,53c-0.7,3.9-2.8,11.4,0.1,14.7c3.8,4.4,6.1-2.8,6.3-5.6
				C8.1,58.6,8,55,8.3,51.4c0.2-2.3,0.4-5.5,1.8-7.5c3.2-4.3,8.5-0.9,11.8,1.1C32.8,51.8,43.1,59,53.7,66.3
				c15.7,10.9,32.6,20.4,47.1,32.9C101.3,99.6,102,98.9,101.5,98.5L101.5,98.5z"/>
		</g>
	</g>
	<g>
		<g>
			<path fill="#FFFFFF" d="M112.1,80.5c-5.2-3.8-10.7-6.7-16.3-9.8c-4.7-2.6-8.9-5.9-13.5-8.6c-4-2.4-8.6-2.9-12.9-4.7
				c-10.8-4.5-20.6-11.2-30.7-17c-7.3-4.2-20.3-13.3-28.7-7.5c-0.5,0.4,0,1.2,0.5,0.9c6.1-4.2,14.2,0.3,19.9,3.2
				c4.9,2.5,9.7,5.3,14.4,8.1c8.5,5,16.9,10.5,26.2,14c4.1,1.5,8,2.1,11.8,4.5c4.6,2.9,8.9,6.1,13.7,8.6c5.3,2.8,10.3,5.6,15.2,9.2
				C112.1,81.8,112.6,80.9,112.1,80.5L112.1,80.5z"/>
		</g>
	</g>
	<g>
		<g>
			<path fill="#FFFFFF" d="M15.4,41.6c-9.7,0.7-2.4,30.7-11.4,27c-0.6-0.2-0.9,0.7-0.3,1c11.3,4.6,2.9-26.4,11.6-27
				C16.1,42.5,16.1,41.5,15.4,41.6L15.4,41.6z"/>
		</g>
	</g>
	<g>
		<g>
			<path fill="#FFFFFF" d="M314.3,16.6c-19.6-0.2-38.9-5.7-58.4-7.2c-19.1-1.5-38.1-1-57.2-1.6c-14.5-0.5-30-2.4-43.9,2.8
				c-6.7,2.5-11.7,6.7-16.9,11.4c-6.7,6.1-13.6,11.9-20.6,17.6c-4.1,3.3-7.6,7.3-11.6,10.6c-2.2,1.8-4.6,3.9-7.4,4.7
				c-3.7,1.2-7.5-2.2-6.3-6.1c1.6-5.2,8.4-8.9,12.6-11.7c6-3.9,12.1-7.6,17.9-11.8c6.9-4.9,13.4-10.4,20.4-15.2
				c8.5-5.8,17.6-7.4,27.6-8.6c9.6-1.1,19.2-0.4,28.8-0.3c10.2,0.2,20.3,0.2,30.5,0.2c22.2,0,44.4-0.4,66.7-0.2
				c11.4,0.1,22.8,0.4,34.2,0.9c5.4,0.2,10.8,0.6,16.2,0.8c2.5,0.1,5.1,0,7.6,0.2c1.8,0.2,4.7,1.9,3.9-0.6c-0.2-0.6-1.1-0.4-1,0.3
				c0.1,0.7,0.3,1.5,0.4,2.2c0,0.6,1,0.6,1,0c0-0.8,0-1.6,0-2.4c0-0.3-0.2-0.5-0.5-0.5c-21.3-0.1-42.5-1.8-63.8-2
				c-21.2-0.2-42.5,0.1-63.7,0.2c-10.8,0-21.6,0-32.5-0.2c-10.3-0.2-20.4-0.7-30.6,0.6c-8.4,1.1-16.1,2.4-23.4,7
				c-7.8,5-14.8,11.1-22.3,16.5c-6,4.2-12.2,8-18.3,12c-4,2.6-8.5,5.5-11.3,9.4c-2,2.8-2.6,5.9,0,8.5c2.6,2.6,5.6,2,8.6,0.3
				c5-2.8,9.1-7.2,13.2-11.1c5.6-5.3,11.9-9.8,17.7-14.9c7.2-6.4,13.9-13.8,23.1-17.2c8.1-3,16.9-3.5,25.5-3.4
				c9.2,0.1,18.4,0.8,27.6,0.8c12,0,24.1,0.2,36.1,0.8c12.2,0.6,24.5,1.6,36.6,3.7c11.1,1.9,22.2,4.1,33.5,4.3
				C314.9,17.6,314.9,16.6,314.3,16.6L314.3,16.6z"/>
		</g>
	</g>
	<g>
		<g>
			<path fill="#FFFFFF" d="M155.1,170.8c23.6-0.6,45.4-8.9,60.6-27.4c8-9.7,14.3-20.6,18.9-32.3c4.1-10.5,8.2-23,7.7-34.5
				c-0.5-10.9-8.3-15.7-18.6-15.9c-0.6,0-0.6,1,0,1c5.6,0.1,11.8,1.2,15.2,6.2c2.2,3.2,2.6,7.3,2.4,11.1c-0.4,11-3.9,22.5-8,32.7
				c-7.4,18.5-19.8,37.2-37.3,47.5c-12.4,7.3-26.7,10.2-40.9,10.6C154.5,169.8,154.5,170.8,155.1,170.8L155.1,170.8z"/>
		</g>
	</g>
	<g>
		<g>
			<path fill="#FFFFFF" d="M204.9,92c-15.7,22.5-32.5,44.2-47.6,67.1c-0.2,0.3,0.3,0.5,0.4,0.3c15.1-22.9,31.9-44.6,47.6-67.1
				C205.5,92,205.1,91.7,204.9,92L204.9,92z"/>
		</g>
	</g>
	<g>
		<g>
			<path fill="#FFFFFF" d="M201.4,86c-16.5,26.4-36.4,50.4-54.4,75.8c-0.2,0.3,0.2,0.5,0.4,0.3c17.9-25.4,37.9-49.4,54.4-75.8
				C202,86,201.5,85.7,201.4,86L201.4,86z"/>
		</g>
	</g>
	<g>
		<g>
			<path fill="#FFFFFF" d="M184.3,104.3c-13.1,17.8-26.2,35.7-39.7,53.2c-0.2,0.3,0.2,0.5,0.4,0.3c13.5-17.5,26.6-35.3,39.7-53.2
				C184.9,104.3,184.5,104,184.3,104.3L184.3,104.3z"/>
		</g>
	</g>
	<g>
		<g>
			<path fill="#FFFFFF" d="M326,55.1c-10.9,19.1-25.7,35.5-36.9,54.4c-0.2,0.3,0.3,0.5,0.4,0.3c11.2-18.9,26-35.3,36.9-54.4
				C326.6,55,326.1,54.8,326,55.1L326,55.1z"/>
		</g>
	</g>
	<g>
		<g>
			<path fill="#FFFFFF" d="M322.4,50.3c-6.6,15.4-19.7,26.5-28.6,40.5c-0.2,0.3,0.3,0.5,0.4,0.3c8.8-14,22-25.1,28.6-40.5
				C323,50.3,322.5,50,322.4,50.3L322.4,50.3z"/>
		</g>
	</g>
	<g>
		<g>
			<path fill="#FFFFFF" d="M316.8,49.9c-8.3,17.8-23.4,31.1-32.5,48.4c-0.1,0.3,0.3,0.5,0.4,0.3c9.1-17.3,24.2-30.6,32.5-48.4
				C317.4,49.9,317,49.6,316.8,49.9L316.8,49.9z"/>
		</g>
	</g>
	<g>
		<g>
			<path fill="#FFFFFF" d="M308.5,52.7c-9.2,12.3-19.1,24.2-26.6,37.7c-0.2,0.3,0.3,0.5,0.4,0.3c7.5-13.5,17.4-25.4,26.6-37.7
				C309.1,52.7,308.7,52.4,308.5,52.7L308.5,52.7z"/>
		</g>
	</g>
	<g>
		<g>
			<path fill="#FFFFFF" d="M103.8,85.1c-3.7,2.2-5.2,6.5-6.1,10.5c-0.1,0.3,0.4,0.4,0.5,0.1c0.9-3.8,2.3-8,5.8-10.2
				C104.3,85.4,104.1,85,103.8,85.1L103.8,85.1z"/>
		</g>
	</g>
	<g>
		<g>
			<path fill="#FFFFFF" d="M99.4,86c-2.3,3.2-4.4,6.5-6.3,9.9c-0.2,0.3,0.3,0.5,0.4,0.3c1.9-3.4,4-6.8,6.3-9.9
				C100,86,99.5,85.8,99.4,86L99.4,86z"/>
		</g>
	</g>
	<g>
		<g>
			<path fill="#FFFFFF" d="M96.2,84c-1.9,3.1-3.9,6.2-6,9.1c-0.2,0.3,0.2,0.5,0.4,0.3c2.1-3,4-6,6-9.1C96.8,84,96.4,83.8,96.2,84
				L96.2,84z"/>
		</g>
	</g>
	<g>
		<g>
			<path fill="#FFFFFF" d="M93.8,81.6c-2,2.4-4,4.9-4.8,8c-0.1,0.3,0.4,0.4,0.5,0.1c0.8-3,2.7-5.4,4.7-7.8
				C94.4,81.7,94,81.4,93.8,81.6L93.8,81.6z"/>
		</g>
	</g>
	<g>
		<g>
			<path fill="#FFFFFF" d="M89.8,80.9c-1.5,2.3-3.1,4.7-4.4,7.1c-0.1,0.3,0.3,0.5,0.4,0.3c1.3-2.5,2.8-4.8,4.4-7.1
				C90.4,80.8,90,80.6,89.8,80.9L89.8,80.9z"/>
		</g>
	</g>
	<g>
		<g>
			<path fill="#FFFFFF" d="M90.3,74.9c-2.9,3-5.1,6.4-6.4,10.4c-0.1,0.3,0.4,0.4,0.5,0.1c1.2-3.9,3.4-7.3,6.3-10.2
				C90.8,75,90.5,74.6,90.3,74.9L90.3,74.9z"/>
		</g>
	</g>
	<g>
		<g>
			<path fill="#FFFFFF" d="M84.7,76.9c-1.3,2.1-2.6,4.3-4,6.3c-0.2,0.3,0.3,0.5,0.4,0.3c1.4-2.1,2.7-4.2,4-6.3
				C85.3,76.9,84.8,76.6,84.7,76.9L84.7,76.9z"/>
		</g>
	</g>
	<g>
		<g>
			<path fill="#FFFFFF" d="M84.4,72c-2.7,1.3-4.6,4.4-5.3,7.3c-0.1,0.3,0.4,0.4,0.5,0.1c0.6-2.7,2.4-5.8,5-7
				C84.9,72.3,84.7,71.9,84.4,72L84.4,72z"/>
		</g>
	</g>
	<g>
		<g>
			<path fill="#FFFFFF" d="M79.1,72.1c-1.3,1.7-2.4,3.6-3.9,5.1c-0.2,0.2,0.1,0.6,0.4,0.4c1.5-1.6,2.7-3.4,4-5.2
				C79.7,72.1,79.3,71.9,79.1,72.1L79.1,72.1z"/>
		</g>
	</g>
	<g>
		<g>
			<path fill="#FFFFFF" d="M77.2,68.5c-2,2.4-4,4.9-4.8,8c-0.1,0.3,0.4,0.4,0.5,0.1c0.8-3,2.7-5.4,4.7-7.8
				C77.7,68.6,77.4,68.3,77.2,68.5L77.2,68.5z"/>
		</g>
	</g>
	<g>
		<g>
			<path fill="#FFFFFF" d="M73.6,67.4c-1.6,2.4-2.9,4.9-4.7,7.1c-0.2,0.2,0.2,0.6,0.4,0.4c1.8-2.2,3.2-4.8,4.8-7.2
				C74.2,67.3,73.7,67.1,73.6,67.4L73.6,67.4z"/>
		</g>
	</g>
	<g>
		<g>
			<path fill="#FFFFFF" d="M72.4,64.2c-1.6,2.3-3.5,4.3-4.8,6.7c-0.1,0.3,0.3,0.5,0.4,0.3c1.3-2.5,3.2-4.5,4.8-6.7
				C73,64.2,72.6,63.9,72.4,64.2L72.4,64.2z"/>
		</g>
	</g>
	<g>
		<g>
			<path fill="#FFFFFF" d="M68.8,64.9c-1.8,1.8-3.3,3.8-4.4,6c-0.1,0.3,0.3,0.5,0.4,0.3c1.1-2.2,2.6-4.1,4.3-5.9
				C69.4,65.1,69.1,64.7,68.8,64.9L68.8,64.9z"/>
		</g>
	</g>
	<g>
		<g>
			<path fill="#FFFFFF" d="M122.8,153.4c-1.3,1.4-2.5,2.9-3.6,4.4c-0.2,0.3,0.2,0.5,0.4,0.3c1.1-1.5,2.2-3,3.5-4.3
				C123.4,153.6,123,153.2,122.8,153.4L122.8,153.4z"/>
		</g>
	</g>
	<g>
		<g>
			<path fill="#FFFFFF" d="M122,149.9c-1.6,2-2.8,4.3-4.4,6.3c-0.2,0.3,0.2,0.6,0.4,0.4c1.6-2,2.8-4.3,4.4-6.3
				C122.6,150,122.2,149.6,122,149.9L122,149.9z"/>
		</g>
	</g>
	<g>
		<g>
			<path fill="#FFFFFF" d="M117.3,152.9c1.6-2.8,3.3-5.7,5.2-8.3c0.2-0.3-0.2-0.5-0.4-0.3c-1.9,2.7-3.5,5.5-5.2,8.3
				C116.7,153,117.1,153.2,117.3,152.9L117.3,152.9z"/>
		</g>
	</g>
	<g>
		<g>
			<path fill="#FFFFFF" d="M116,149.4c2.2-2.2,3.5-5,5.2-7.6c0.2-0.3-0.3-0.5-0.4-0.3c-1.7,2.6-3,5.3-5.1,7.5
				C115.4,149.3,115.8,149.6,116,149.4L116,149.4z"/>
		</g>
	</g>
	<g>
		<g>
			<path fill="#FFFFFF" d="M114.1,146.6c2.4-3.5,5.4-6.7,6.8-10.8c0.1-0.3-0.4-0.4-0.5-0.1c-1.3,4.1-4.4,7.2-6.7,10.7
				C113.5,146.6,113.9,146.9,114.1,146.6L114.1,146.6z"/>
		</g>
	</g>
	<g>
		<g>
			<path fill="#FFFFFF" d="M114,141.1c2.9-3.4,5.3-7.2,8-10.8c0.2-0.3-0.2-0.5-0.4-0.3c-2.7,3.5-5,7.3-7.9,10.7
				C113.5,141,113.8,141.3,114,141.1L114,141.1z"/>
		</g>
	</g>
	<g>
		<g>
			<path fill="#FFFFFF" d="M114,136.7c3.2-4.2,5.6-8.8,8-13.5c0.1-0.3-0.3-0.5-0.4-0.3c-2.3,4.7-4.7,9.3-7.9,13.4
				C113.5,136.6,113.8,137,114,136.7L114,136.7z"/>
		</g>
	</g>
	<g>
		<g>
			<path fill="#FFFFFF" d="M115.7,130.3c2.8-4,5.2-8.1,6.8-12.8c0.1-0.3-0.4-0.4-0.5-0.1c-1.6,4.6-4,8.7-6.7,12.6
				C115.1,130.3,115.5,130.6,115.7,130.3L115.7,130.3z"/>
		</g>
	</g>
	<g>
		<g>
			<path fill="#FFFFFF" d="M114.1,126.7c2.3-4.7,4-9.8,6.7-14.3c0.2-0.3-0.3-0.5-0.4-0.3c-2.8,4.5-4.4,9.5-6.7,14.3
				C113.5,126.8,113.9,127,114.1,126.7L114.1,126.7z"/>
		</g>
	</g>
	<g>
		<g>
			<path fill="#FFFFFF" d="M112.9,121.5c1.6-3.8,3.5-7.5,4.8-11.5c0.1-0.3-0.4-0.4-0.5-0.1c-1.3,4-3.2,7.7-4.8,11.5
				C112.3,121.7,112.8,121.8,112.9,121.5L112.9,121.5z"/>
		</g>
	</g>
	<g>
		<g>
			<path fill="#FFFFFF" d="M113.3,114.8c1.1-2.3,2-4.8,3.2-7.1c0.1-0.3-0.3-0.5-0.4-0.3c-1.1,2.3-2,4.8-3.2,7.1
				C112.7,114.9,113.1,115.1,113.3,114.8L113.3,114.8z"/>
		</g>
	</g>
	<g>
		<g>
			<path fill="#FFFFFF" d="M111.7,113.2c0.5-2.3,1.6-4.3,2.8-6.3c0.2-0.3-0.3-0.5-0.4-0.3c-1.2,2-2.3,4.1-2.8,6.4
				C111.2,113.4,111.7,113.5,111.7,113.2L111.7,113.2z"/>
		</g>
	</g>
	<g>
		<g>
			<path fill="#FFFFFF" d="M110.7,109c0.3,0,0.3-0.5,0-0.5C110.4,108.5,110.4,109,110.7,109L110.7,109z"/>
		</g>
	</g>
	<g>
		<g>
			<path fill="#FFFFFF" d="M105.3,107.4c2.4-2.1,3.6-5.1,4.8-8c0.1-0.3-0.3-0.5-0.4-0.3c-1.2,2.8-2.3,5.8-4.7,7.9
				C104.7,107.2,105.1,107.6,105.3,107.4L105.3,107.4z"/>
		</g>
	</g>
	<g>
		<g>
			<path fill="#FFFFFF" d="M104.2,104.9c3-3.9,5.5-8.1,7.2-12.8c0.1-0.3-0.4-0.4-0.5-0.1c-1.6,4.6-4.1,8.8-7.1,12.6
				C103.5,104.9,104,105.2,104.2,104.9L104.2,104.9z"/>
		</g>
	</g>
	<g>
		<g>
			<path fill="#FFFFFF" d="M105,99.4c2.2-3.4,4.4-6.8,6.3-10.3c0.2-0.3-0.3-0.5-0.4-0.3c-2,3.5-4.1,7-6.3,10.3
				C104.3,99.4,104.8,99.6,105,99.4L105,99.4z"/>
		</g>
	</g>
	<g>
		<g>
			<path fill="#FFFFFF" d="M104.5,95.4c1.4-1.4,2.8-2.8,4-4.4c0.2-0.3-0.2-0.5-0.4-0.3c-1.2,1.6-2.6,2.9-3.9,4.3
				C103.9,95.3,104.3,95.7,104.5,95.4L104.5,95.4z"/>
		</g>
	</g>
	<g>
		<g>
			<path fill="#FFFFFF" d="M345.1,5c-2.5,2-5.1,3.9-7.9,5.5c-0.3,0.2,0,0.6,0.3,0.4c2.8-1.6,5.5-3.5,8-5.6
				C345.7,5.2,345.3,4.8,345.1,5L345.1,5z"/>
		</g>
	</g>
	<g>
		<g>
			<path fill="#FFFFFF" d="M338,6.5c-3.3,1.3-5.8,3.7-8.4,6c-0.2,0.2,0.1,0.6,0.4,0.4c2.6-2.2,5-4.6,8.2-5.9
				C338.5,6.9,338.3,6.4,338,6.5L338,6.5z"/>
		</g>
	</g>
	<g>
		<g>
			<path fill="#FFFFFF" d="M333.6,4.2c-3.9,2.7-7.3,6-10.8,9.2c-0.2,0.2,0.1,0.6,0.4,0.4c3.5-3.1,6.8-6.4,10.7-9.1
				C334.1,4.4,333.9,4,333.6,4.2L333.6,4.2z"/>
		</g>
	</g>
	<g>
		<g>
			<path fill="#FFFFFF" d="M326.4,5.8c-3.6,2.8-7.1,5.9-10.7,8.7c-0.3,0.2,0.1,0.5,0.4,0.4c3.6-2.8,7.1-5.9,10.7-8.7
				C327,6,326.7,5.6,326.4,5.8L326.4,5.8z"/>
		</g>
	</g>
	<g>
		<g>
			<path fill="#FFFFFF" d="M319.7,7c-3.5,3.1-7.2,6-10.3,9.5c-0.2,0.2,0.1,0.6,0.4,0.4c3.2-3.5,6.8-6.4,10.3-9.5
				C320.3,7.1,319.9,6.8,319.7,7L319.7,7z"/>
		</g>
	</g>
	<g>
		<g>
			<path fill="#FFFFFF" d="M314.1,7.4c-3.2,2.8-6.3,5.9-9.5,8.7c-0.2,0.2,0.1,0.6,0.4,0.4c3.2-2.8,6.3-5.9,9.5-8.7
				C314.7,7.5,314.3,7.2,314.1,7.4L314.1,7.4z"/>
		</g>
	</g>
	<g>
		<g>
			<path fill="#FFFFFF" d="M309.3,7.8c-1.3,1-2.4,2.1-3.7,3.2c-0.7,0.6-3.3,3.1-4.3,2.3c-0.3-0.2-0.5,0.2-0.3,0.4
				c1.1,0.8,2.9-0.8,3.7-1.4c1.7-1.3,3.3-2.8,5-4.2C309.9,7.9,309.6,7.6,309.3,7.8L309.3,7.8z"/>
		</g>
	</g>
	<g>
		<g>
			<path fill="#FFFFFF" d="M309.8,2.2c-5.4,2.6-9.2,7.2-13.1,11.5c-0.2,0.2,0.1,0.6,0.4,0.4c3.9-4.3,7.7-8.9,13-11.5
				C310.3,2.5,310.1,2,309.8,2.2L309.8,2.2z"/>
		</g>
	</g>
	<g>
		<g>
			<path fill="#FFFFFF" d="M300.7,5.8c-2.9,2.2-5.4,5-8.3,7.1c-0.3,0.2,0,0.6,0.3,0.4c3-2.2,5.4-4.9,8.3-7.1
				C301.2,6,300.9,5.6,300.7,5.8L300.7,5.8z"/>
		</g>
	</g>
	<g>
		<g>
			<path fill="#FFFFFF" d="M293.1,6.9c-2.3,1.6-4.4,3.6-6.7,5.2c-0.3,0.2,0,0.6,0.3,0.4c2.3-1.6,4.4-3.6,6.7-5.2
				C293.6,7.2,293.4,6.8,293.1,6.9L293.1,6.9z"/>
		</g>
	</g>
	<g>
		<g>
			<path fill="#FFFFFF" d="M292.4,4.5c-3.9,1.3-6.4,4.6-10,6.4c-0.3,0.1,0,0.6,0.3,0.4c3.6-1.7,6-5.1,9.9-6.3
				C292.8,4.9,292.7,4.4,292.4,4.5L292.4,4.5z"/>
		</g>
	</g>
	<g>
		<g>
			<path fill="#FFFFFF" d="M287.6,3.8c-3.8,2.4-7,5.8-11.1,7.5c-0.3,0.1,0,0.6,0.3,0.4c4.2-1.8,7.3-5.2,11.1-7.5
				C288.1,4,287.8,3.6,287.6,3.8L287.6,3.8z"/>
		</g>
	</g>
	<g>
		<g>
			<path fill="#FFFFFF" d="M280.8,4.6c-2.6,1.7-5.2,3.3-7.6,5.2c-0.2,0.2,0.1,0.6,0.4,0.4c2.4-1.9,5-3.5,7.5-5.1
				C281.3,4.8,281.1,4.4,280.8,4.6L280.8,4.6z"/>
		</g>
	</g>
	<g>
		<g>
			<path fill="#FFFFFF" d="M274.5,5.8c-2.3,1.4-4.4,3.1-6.7,4.4c-0.3,0.1,0,0.6,0.3,0.4c2.4-1.2,4.5-3,6.7-4.4
				C275,6,274.7,5.6,274.5,5.8L274.5,5.8z"/>
		</g>
	</g>
	<g>
		<g>
			<path fill="#FFFFFF" d="M272.5,4.9c-3.3,1.3-6,3.5-8.8,5.6c-0.3,0.2,0,0.6,0.3,0.4c2.8-2,5.4-4.2,8.7-5.5
				C273,5.3,272.8,4.8,272.5,4.9L272.5,4.9z"/>
		</g>
	</g>
	<g>
		<g>
			<path fill="#FFFFFF" d="M267,5.3c-3.5,0.9-6.3,3.1-9.2,5.2c-0.3,0.2,0,0.6,0.3,0.4c2.9-2.1,5.6-4.3,9.1-5.1
				C267.4,5.7,267.3,5.3,267,5.3L267,5.3z"/>
		</g>
	</g>
	<g>
		<g>
			<path fill="#FFFFFF" d="M260.6,4.9c-3.4,0.9-6,3.2-8.4,5.6c-0.2,0.2,0.1,0.6,0.4,0.4c2.4-2.4,4.9-4.6,8.2-5.5
				C261.1,5.3,260.9,4.9,260.6,4.9L260.6,4.9z"/>
		</g>
	</g>
	<g>
		<g>
			<path fill="#FFFFFF" d="M254.7,4.6c0.3,0,0.3-0.5,0-0.5C254.4,4.1,254.4,4.6,254.7,4.6L254.7,4.6z"/>
		</g>
	</g>
	<g>
		<g>
			<path fill="#FFFFFF" d="M260.5,104.6c1.6-1.6,3.2-3.1,5.1-4.3c0.3-0.2,0-0.6-0.3-0.4c-2,1.2-3.6,2.8-5.2,4.4
				C259.9,104.4,260.3,104.8,260.5,104.6L260.5,104.6z"/>
		</g>
	</g>
	<g>
		<g>
			<path fill="#FFFFFF" d="M261.3,99.4c1.4-1.8,2.8-3.6,4-5.6c0.2-0.3-0.3-0.5-0.4-0.3c-1.2,1.9-2.5,3.7-3.9,5.5
				C260.7,99.3,261.1,99.7,261.3,99.4L261.3,99.4z"/>
		</g>
	</g>
	<g>
		<g>
			<path fill="#FFFFFF" d="M260.8,93.5c1.6-1.2,2.8-2.8,4.1-4.5c0.2-0.3-0.2-0.5-0.4-0.3c-1.2,1.5-2.3,3.1-3.9,4.3
				C260.3,93.3,260.6,93.7,260.8,93.5L260.8,93.5z"/>
		</g>
	</g>
	<g>
		<g>
			<path fill="#FFFFFF" d="M259.7,89.1c1.5-1.5,2.9-3.2,4.4-4.8c0.2-0.2-0.1-0.6-0.4-0.4c-1.5,1.5-2.9,3.2-4.4,4.8
				C259.1,89,259.5,89.3,259.7,89.1L259.7,89.1z"/>
		</g>
	</g>
	<g>
		<g>
			<path fill="#FFFFFF" d="M259.2,84.8c1.6-1.2,2.8-2.7,3.7-4.5c0.1-0.3-0.3-0.5-0.4-0.3c-0.9,1.7-2,3.1-3.5,4.3
				C258.7,84.5,259,85,259.2,84.8L259.2,84.8z"/>
		</g>
	</g>
	<g>
		<g>
			<path fill="#FFFFFF" d="M259.7,78.8c1.3-1.3,2.5-2.6,3.6-4c0.2-0.3-0.2-0.5-0.4-0.3c-1.1,1.4-2.3,2.7-3.5,3.9
				C259.1,78.7,259.5,79,259.7,78.8L259.7,78.8z"/>
		</g>
	</g>
	<g>
		<g>
			<path fill="#FFFFFF" d="M257.7,75.6c0.4-0.7,1-1,1.5-1.5c0.2-0.2-0.1-0.6-0.4-0.4c-0.6,0.5-1.2,0.9-1.6,1.6
				C257.2,75.6,257.6,75.8,257.7,75.6L257.7,75.6z"/>
		</g>
	</g>
	<g>
		<g>
			<path fill="#FFFFFF" d="M218.8,122.9c3.9-2.3,6.5-6.3,10-9.2c0.3-0.2-0.1-0.6-0.4-0.4c-3.5,2.8-6,6.8-9.9,9.1
				C218.2,122.6,218.5,123,218.8,122.9L218.8,122.9z"/>
		</g>
	</g>
	<g>
		<g>
			<path fill="#FFFFFF" d="M218.8,116.5c5-3,9.2-7.2,13.9-10.7c0.3-0.2,0-0.6-0.3-0.4c-4.7,3.5-8.9,7.7-13.9,10.7
				C218.2,116.3,218.5,116.7,218.8,116.5L218.8,116.5z"/>
		</g>
	</g>
	<g>
		<g>
			<path fill="#FFFFFF" d="M221.9,109.8c5.1-3.2,9.6-7.1,14.7-10.3c0.3-0.2,0-0.6-0.3-0.4c-5.1,3.2-9.6,7.1-14.7,10.3
				C221.4,109.5,221.7,109.9,221.9,109.8L221.9,109.8z"/>
		</g>
	</g>
	<g>
		<g>
			<path fill="#FFFFFF" d="M225.6,102.2c3.4-3,6.7-6.3,10.7-8.7c0.3-0.2,0-0.6-0.3-0.4c-4,2.5-7.3,5.7-10.8,8.8
				C225,102.1,225.3,102.4,225.6,102.2L225.6,102.2z"/>
		</g>
	</g>
	<g>
		<g>
			<path fill="#FFFFFF" d="M226.7,97c2.8-2.8,5.6-5.6,8.3-8.3c0.2-0.2-0.1-0.6-0.4-0.4c-2.8,2.8-5.6,5.6-8.3,8.3
				C226.2,96.9,226.5,97.3,226.7,97L226.7,97z"/>
		</g>
	</g>
	<g>
		<g>
			<path fill="#FFFFFF" d="M228.6,90.4c0.3,0,0.3-0.5,0-0.5C228.2,89.9,228.2,90.4,228.6,90.4L228.6,90.4z"/>
		</g>
	</g>
	<g>
		<g>
			<path fill="#FFFFFF" d="M151,85.2c-8.3,10.1-15.2,21.2-22.3,32.2c-0.2,0.3,0.3,0.5,0.4,0.3c7-11,13.9-22,22.2-32.1
				C151.5,85.3,151.2,84.9,151,85.2L151,85.2z"/>
		</g>
	</g>
	<g>
		<g>
			<path fill="#FFFFFF" d="M156.1,86c-10,9.8-17.8,21.8-24.2,34.2c-0.1,0.3,0.3,0.5,0.4,0.3c6.5-12.3,14.2-24.3,24.2-34.1
				C156.7,86.1,156.4,85.7,156.1,86L156.1,86z"/>
		</g>
	</g>
	<g>
		<g>
			<path fill="#FFFFFF" d="M159.7,86.4c-9.1,17.6-21.6,33.1-31.7,50c-0.2,0.3,0.3,0.5,0.4,0.3c10.2-16.9,22.6-32.4,31.7-50
				C160.3,86.4,159.8,86.1,159.7,86.4L159.7,86.4z"/>
		</g>
	</g>
</g>
</svg>
